#Books_(1)_1905_62.obj

v -0.02656603 -0.2346609 -0.2758752
v -0.02656603 -0.2346609 0.006997508
v -0.02656603 0.2291129 -0.2758752
v -0.02656603 0.2291129 0.006997508
v 0.4866519 -0.2346618 0.006997508
v 0.4866519 0.1326964 0.006997508
v 0.4866519 -0.2346618 0.04899771
v 0.4866519 0.152056 0.04899771
v 0.4866519 0.152056 -0.2731269
v 0.4866519 0.1326964 -0.2731269
v 0.3843837 0.1419194 -0.2731269
v 0.3843837 0.1419194 0.006997508
v 0.3843837 0.1514647 -0.2731269
v 0.3843837 0.1514647 0.04899771
v 0.3843837 -0.2346618 0.04899771
v 0.3843837 -0.2346618 0.006997508
v 0.3281703 -0.2346618 0.006997508
v 0.3281703 0.1419194 0.006997508
v 0.3281703 -0.2346618 0.04899771
v 0.3281703 0.1849091 0.04899771
v 0.3281703 0.1849091 -0.2731269
v 0.3281703 0.1419194 -0.2731269
v 0.2734714 0.1849396 0.006997508
v 0.2734714 -0.2346618 0.006997508
v 0.2734714 0.1849396 0.04899771
v 0.2734714 -0.2346618 0.04899771
v 0.1942306 -0.2346618 0.006997508
v 0.1942306 0.1849549 0.006997508
v 0.1942306 -0.2346618 0.03499735
v 0.1942306 0.2023156 0.03499735
v 0.1942306 0.2023156 -0.2731269
v 0.1942306 0.1849549 -0.2731269
v 0.1139941 -0.2346618 0.03499735
v 0.1139941 0.2023156 0.03499735
v 0.1139941 -0.2346618 0.06999759
v 0.1139941 0.2561963 0.06999759
v 0.1139941 0.2561963 -0.2731269
v 0.1139941 0.2023156 -0.2731269
v 0.02656126 0.2291129 -0.2731269
v 0.02656126 0.2291129 0.006997508
v 0.02656126 0.2561963 -0.2731269
v 0.02656126 0.2561963 0.06999759
v 0.02656126 -0.2346609 0.06999759
v 0.02656126 -0.2346609 0.006997508
v 0.5322738 0.1326964 0.006997508
v 0.5322738 0.1326964 -0.2731269
v 0.4866519 0.1326964 0.006997508
v 0.4866519 0.1326964 -0.2731269
v 0.5322738 -0.2346618 0.006997508
v 0.5322738 -0.2346618 -0.2731269
v 0.5322738 0.1326964 0.006997508
v 0.5322738 0.1326964 -0.2731269
v 0.3843837 0.1419194 0.006997508
v 0.3843837 0.1419194 -0.2731269
v 0.3281703 0.1419194 0.006997508
v 0.3281703 0.1419194 -0.2731269
v 0.2734714 0.1849396 0.006997508
v 0.2734714 0.1849396 -0.2731269
v 0.1942306 0.1849549 0.006997508
v 0.1942306 0.1849549 -0.2731269
v 0.02656126 0.2291129 0.006997508
v 0.02656126 0.2291129 -0.2731269
v -0.02656603 0.2291129 0.006997508
v -0.02656603 0.2291129 -0.2731269
v 0.4379363 0.1516621 0.04899771
v 0.4379363 0.1516621 -0.2731269
v 0.3843837 0.1514647 0.04899771
v 0.3843837 0.1514647 -0.2731269
v 0.4866519 0.152056 0.04899771
v 0.4866519 0.152056 -0.2731269
v 0.4379363 0.1516621 0.04899771
v 0.4379363 0.1516621 -0.2731269
v 0.3281703 0.1849091 0.04899771
v 0.3281703 0.1849091 -0.2731269
v 0.2734714 0.1849396 0.04899771
v 0.2734714 0.1849396 -0.2731269
v 0.1942306 0.2023156 0.03499735
v 0.1942306 0.2023156 -0.2731269
v 0.1139941 0.2023156 0.03499735
v 0.1139941 0.2023156 -0.2731269
v 0.1139941 0.2561963 0.06999759
v 0.1139941 0.2561963 -0.2731269
v 0.02656126 0.2561963 0.06999759
v 0.02656126 0.2561963 -0.2731269
v 0.4866519 -0.2346618 0.006997508
v 0.5322738 -0.2346618 0.006997508
v 0.4866519 0.1326964 0.006997508
v 0.5322738 0.1326964 0.006997508
v 0.4866519 0.152056 0.04899771
v 0.4379363 0.1516621 0.04899771
v 0.4866519 -0.2346618 0.04899771
v 0.4379363 -0.2346618 0.04899771
v 0.3843837 0.1514647 0.04899771
v 0.3843837 -0.2346618 0.04899771
v 0.3281703 -0.2346618 0.006997508
v 0.3843837 -0.2346618 0.006997508
v 0.3281703 0.1419194 0.006997508
v 0.3843837 0.1419194 0.006997508
v 0.2734714 -0.2346618 0.04899771
v 0.3281703 -0.2346618 0.04899771
v 0.2734714 0.1849396 0.04899771
v 0.3281703 0.1849091 0.04899771
v 0.1942306 -0.2346618 0.006997508
v 0.2734714 -0.2346618 0.006997508
v 0.1942306 0.1849549 0.006997508
v 0.2734714 0.1849396 0.006997508
v 0.1139941 -0.2346618 0.03499735
v 0.1942306 -0.2346618 0.03499735
v 0.1139941 0.2023156 0.03499735
v 0.1942306 0.2023156 0.03499735
v 0.02656126 -0.2346609 0.06999759
v 0.1139941 -0.2346618 0.06999759
v 0.02656126 0.2561963 0.06999759
v 0.1139941 0.2561963 0.06999759
v 0.02656126 -0.2346609 0.006997508
v 0.02656126 0.2291129 0.006997508
v -0.02656603 -0.2346609 0.006997508
v -0.02656603 0.2291129 0.006997508

vn -1.192093E-07 0 1
vn -1.192093E-07 0 1
vn -1.192093E-07 0 1
vn -1.192093E-07 0 1
vn 1.192093E-07 1.192093E-07 -1
vn 1.192093E-07 0 -1
vn 1.192093E-07 1.192093E-07 -1
vn 1.192093E-07 0 -1
vn 1.192093E-07 0 -1
vn 1.192093E-07 0 -1
vn -1.192093E-07 0 1
vn -1.192093E-07 0 1
vn -1.192093E-07 0 1
vn -1.192093E-07 0 1
vn -1.192093E-07 -5.960464E-08 1
vn -1.192093E-07 -5.960464E-08 1
vn 1.192093E-07 0 -1
vn 1.192093E-07 0 -1
vn 1.192093E-07 0 -1
vn 1.192093E-07 0 -1
vn 1.192093E-07 0 -1
vn 1.192093E-07 0 -1
vn -1.192093E-07 0 1
vn -1.192093E-07 0 1
vn -1.192093E-07 0 1
vn -1.192093E-07 0 1
vn 1.192093E-07 0 -1
vn 1.192093E-07 0 -1
vn 1.192093E-07 0 -1
vn 1.192093E-07 0 -1
vn 1.192093E-07 0 -1
vn 1.192093E-07 0 -1
vn 1.192093E-07 0 -1
vn 1.192093E-07 2.384186E-07 -1
vn 1.192093E-07 0 -1
vn 1.192093E-07 2.384186E-07 -1
vn 1.192093E-07 2.384186E-07 -1
vn 1.192093E-07 2.384186E-07 -1
vn -1.192093E-07 0 1
vn -1.192093E-07 0 1
vn -1.192093E-07 0 1
vn -1.192093E-07 0 1
vn -1.192093E-07 0 1
vn -1.192093E-07 0 1
vn 5.960464E-08 1 -2.980232E-07
vn 0 1 -5.960464E-07
vn 0 1 -5.960464E-07
vn 0 1 -5.960464E-07
vn 1.192093E-07 0 -1
vn 1.192093E-07 0 -1
vn 1.192093E-07 0 -1
vn 1.192093E-07 0 -1
vn 0 1 0
vn 0 1 0
vn 0 1 0
vn 0 1 0
vn 5.960464E-08 1 -0.000191927
vn 0 1 -0.0001920462
vn 0 1 -0.0001920462
vn 0 1 -0.0001920462
vn 1.788139E-07 1 0
vn 1.788139E-07 1 0
vn 1.788139E-07 1 0
vn 1.788139E-07 1 0
vn 0 1 0.003681183
vn 0 1 0.003681183
vn 0 1 0.003681183
vn 0 1 0.003681183
vn 0 1 0.008094788
vn 0 1 0.008094788
vn 0 1 0.008094788
vn 0 1 0.008094788
vn 5.960464E-08 1 -0.0005569458
vn 5.960464E-08 1 -0.0005569458
vn 5.960464E-08 1 -0.0005569458
vn 5.960464E-08 1 -0.0005569458
vn 5.960464E-08 1 1.788139E-07
vn 0 1 0
vn 0 1 0
vn 0 1 0
vn 1.192093E-07 1 0
vn 1.192093E-07 1 0
vn 1.192093E-07 1 0
vn 1.192093E-07 1 0
vn -1 0 -1.192093E-07
vn -1 0 -1.192093E-07
vn -1 0 -1.192093E-07
vn -1 0 -1.192093E-07
vn -1 0 -1.192093E-07
vn -1 0 -1.192093E-07
vn -1 0 -1.192093E-07
vn -1 0 -1.192093E-07
vn -1 0 -1.192093E-07
vn -1 0 -1.192093E-07
vn -1 0 0
vn -1 0 -1.192093E-07
vn -1 0 -1.192093E-07
vn -1 0 -1.192093E-07
vn -1 0 -1.192093E-07
vn -1 0 -1.192093E-07
vn -1 0 -1.192093E-07
vn -1 0 -1.192093E-07
vn -1 0 -1.192093E-07
vn -1 0 -1.192093E-07
vn -1 0 -1.192093E-07
vn -1 0 -1.192093E-07
vn -1 0 0
vn -1 0 -1.192093E-07
vn -1 0 -1.192093E-07
vn -1 0 -1.192093E-07
vn -1 0 -1.192093E-07
vn -1 0 -1.192093E-07
vn -1 0 -1.192093E-07
vn -1 0 -1.192093E-07
vn -1 0 -1.192093E-07
vn -1 0 -1.192093E-07
vn -1 0 -1.192093E-07
vn -1 0 -1.192093E-07

vt 0.009277344 0.2595215
vt 0.03747559 0.2595215
vt 0.009277344 0.4799805
vt 0.03747559 0.4799805
vt 0.2626953 0.2597656
vt 0.2626953 0.4335938
vt 0.2590332 0.2597656
vt 0.2590332 0.442627
vt 0.2866211 0.442627
vt 0.2866211 0.4335938
vt 0.2321777 0.4382324
vt 0.2558594 0.4382324
vt 0.2321777 0.442627
vt 0.2592773 0.442627
vt 0.2592773 0.2595215
vt 0.2558594 0.2595215
vt 0.1748047 0.2597656
vt 0.1748047 0.4384766
vt 0.1710205 0.2597656
vt 0.1710205 0.4589844
vt 0.2001953 0.4589844
vt 0.2001953 0.4384766
vt 0.1707764 0.4589844
vt 0.1707764 0.2595215
vt 0.2003174 0.4589844
vt 0.2003174 0.2595215
vt 0.08868408 0.2595215
vt 0.08868408 0.4589844
vt 0.0847168 0.2595215
vt 0.0847168 0.4672852
vt 0.1280518 0.4672852
vt 0.1280518 0.4589844
vt 0.04244995 0.2597656
vt 0.04244995 0.4672852
vt 0.03768921 0.2597656
vt 0.03768921 0.4929199
vt 0.08422852 0.4929199
vt 0.08422852 0.4672852
vt 0.03851318 0.4797363
vt 0.07611084 0.4797363
vt 0.03851318 0.4926758
vt 0.08453369 0.4926758
vt 0.08453369 0.2595215
vt 0.07611084 0.2595215
vt 0.4304199 0.4885254
vt 0.4311523 0.2558594
vt 0.3671875 0.4885254
vt 0.3681641 0.2558594
vt 0.2883301 0.2595215
vt 0.3103027 0.2595215
vt 0.2883301 0.4338379
vt 0.3103027 0.4338379
vt 0.4306641 0.4882813
vt 0.4306641 0.2556152
vt 0.3681641 0.4882813
vt 0.3681641 0.2556152
vt 0.3679199 0.4880371
vt 0.3681641 0.2561035
vt 0.4301758 0.4880371
vt 0.4304199 0.2561035
vt 0.3679199 0.4880371
vt 0.3679199 0.2556152
vt 0.4309082 0.4880371
vt 0.4309082 0.2556152
vt 0.4306641 0.4885254
vt 0.4306641 0.2556152
vt 0.3684082 0.4885254
vt 0.3684082 0.2556152
vt 0.4304199 0.4885254
vt 0.4304199 0.2558594
vt 0.3681641 0.4885254
vt 0.3681641 0.2558594
vt 0.3684082 0.4882813
vt 0.3684082 0.2558594
vt 0.4309082 0.4882813
vt 0.4311523 0.2558594
vt 0.4306641 0.4882813
vt 0.4306641 0.2558594
vt 0.3679199 0.4882813
vt 0.3679199 0.2558594
vt 0.4309082 0.4885254
vt 0.4309082 0.2556152
vt 0.3681641 0.4885254
vt 0.3681641 0.2556152
vt 0.2856445 0.2595215
vt 0.3103027 0.2595215
vt 0.2856445 0.4343262
vt 0.3103027 0.4343262
vt 0.2856445 0.4433594
vt 0.2595215 0.4433594
vt 0.2856445 0.2595215
vt 0.2595215 0.2595215
vt 0.2305908 0.4431152
vt 0.2305908 0.2595215
vt 0.2001953 0.2595215
vt 0.2305908 0.2595215
vt 0.2001953 0.4387207
vt 0.2305908 0.4387207
vt 0.1707764 0.2595215
vt 0.2001953 0.2595215
vt 0.1707764 0.4589844
vt 0.2001953 0.4589844
vt 0.1280518 0.2595215
vt 0.1707764 0.2595215
vt 0.1280518 0.4589844
vt 0.1707764 0.4589844
vt 0.0847168 0.2595215
vt 0.1280518 0.2595215
vt 0.0847168 0.4672852
vt 0.1280518 0.4672852
vt 0.03759766 0.2595215
vt 0.0847168 0.2595215
vt 0.03759766 0.4929199
vt 0.0847168 0.4929199
vt 0.03759766 0.2595215
vt 0.03759766 0.4799805
vt 0.008956909 0.2595215
vt 0.008956909 0.4799805

g Books_(1)_1905_62
usemtl Books_(1)_1905_62
usemap Books_(1)_1905_62
f 1/1/1 3/3/3 2/2/2
f 4/4/4 2/2/2 3/3/3
f 5/5/5 7/7/7 6/6/6
f 8/8/8 6/6/6 7/7/7
f 8/8/8 9/9/9 6/6/6
f 10/10/10 6/6/6 9/9/9
f 11/11/11 13/13/13 12/12/12
f 14/14/14 12/12/12 13/13/13
f 14/14/14 15/15/15 12/12/12
f 16/16/16 12/12/12 15/15/15
f 17/17/17 19/19/19 18/18/18
f 20/20/20 18/18/18 19/19/19
f 20/20/20 21/21/21 18/18/18
f 22/22/22 18/18/18 21/21/21
f 23/23/23 25/25/25 24/24/24
f 26/26/26 24/24/24 25/25/25
f 27/27/27 29/29/29 28/28/28
f 30/30/30 28/28/28 29/29/29
f 30/30/30 31/31/31 28/28/28
f 32/32/32 28/28/28 31/31/31
f 33/33/33 35/35/35 34/34/34
f 36/36/36 34/34/34 35/35/35
f 36/36/36 37/37/37 34/34/34
f 38/38/38 34/34/34 37/37/37
f 39/39/39 41/41/41 40/40/40
f 42/42/42 40/40/40 41/41/41
f 42/42/42 43/43/43 40/40/40
f 44/44/44 40/40/40 43/43/43
f 45/45/45 47/47/47 46/46/46
f 48/48/48 46/46/46 47/47/47
f 49/49/49 51/51/51 50/50/50
f 52/52/52 50/50/50 51/51/51
f 53/53/53 55/55/55 54/54/54
f 56/56/56 54/54/54 55/55/55
f 57/57/57 59/59/59 58/58/58
f 60/60/60 58/58/58 59/59/59
f 61/61/61 63/63/63 62/62/62
f 64/64/64 62/62/62 63/63/63
f 65/65/65 67/67/67 66/66/66
f 68/68/68 66/66/66 67/67/67
f 69/69/69 71/71/71 70/70/70
f 72/72/72 70/70/70 71/71/71
f 73/73/73 75/75/75 74/74/74
f 76/76/76 74/74/74 75/75/75
f 77/77/77 79/79/79 78/78/78
f 80/80/80 78/78/78 79/79/79
f 81/81/81 83/83/83 82/82/82
f 84/84/84 82/82/82 83/83/83
f 85/85/85 87/87/87 86/86/86
f 88/88/88 86/86/86 87/87/87
f 89/89/89 91/91/91 90/90/90
f 92/92/92 90/90/90 91/91/91
f 90/90/90 92/92/92 93/93/93
f 94/94/94 93/93/93 92/92/92
f 95/95/95 97/97/97 96/96/96
f 98/98/98 96/96/96 97/97/97
f 99/99/99 101/101/101 100/100/100
f 102/102/102 100/100/100 101/101/101
f 103/103/103 105/105/105 104/104/104
f 106/106/106 104/104/104 105/105/105
f 107/107/107 109/109/109 108/108/108
f 110/110/110 108/108/108 109/109/109
f 111/111/111 113/113/113 112/112/112
f 114/114/114 112/112/112 113/113/113
f 115/115/115 117/117/117 116/116/116
f 118/118/118 116/116/116 117/117/117
