#Books_2003_64.obj

v 0.02656651 0.2291129 0.006995337
v -0.02656078 -0.2346609 0.006995337
v -0.02656078 0.2291129 0.006995337
v 0.02656651 -0.2346609 0.006995337
v 0.1140003 -0.2346618 0.06999542
v 0.02656651 0.2561963 0.06999542
v 0.1140003 0.2561963 0.06999542
v 0.02656651 -0.2346609 0.06999542
v 0.1942358 -0.2346618 0.03499562
v 0.1140003 0.2023156 0.03499562
v 0.1942358 0.2023156 0.03499562
v 0.1140003 -0.2346618 0.03499562
v 0.2734766 -0.2346618 0.006995337
v 0.1942358 0.1849549 0.006995337
v 0.2734766 0.1849396 0.006995337
v 0.1942358 -0.2346618 0.006995337
v 0.3281765 -0.2346618 0.04899554
v 0.2734766 0.1849396 0.04899554
v 0.3281765 0.1849091 0.04899554
v 0.2734766 -0.2346618 0.04899554
v 0.3843889 -0.2346618 0.006995337
v 0.3281765 0.1419194 0.006995337
v 0.3843889 0.1419194 0.006995337
v 0.3281765 -0.2346618 0.006995337
v 0.3843889 0.1514647 0.04899554
v 0.4379416 -0.2346618 0.04899554
v 0.3843889 -0.2346618 0.04899554
v 0.4379416 0.1516621 0.04899554
v 0.4866581 -0.2346618 0.04899554
v 0.4866581 0.152056 0.04899554
v 0.532279 -0.2346618 0.006995337
v 0.4866581 0.1326964 0.006995337
v 0.532279 0.1326964 0.006995337
v 0.4866581 -0.2346618 0.006995337
v 0.1140003 0.2561963 -0.273129
v 0.02656651 0.2561963 0.06999542
v 0.02656746 0.2561963 -0.273129
v 0.1140003 0.2561963 0.06999542
v 0.1942358 0.2023156 -0.273129
v 0.1140003 0.2023156 0.03499562
v 0.1140003 0.2023156 -0.273129
v 0.1942358 0.2023156 0.03499562
v 0.3281765 0.1849091 -0.273129
v 0.2734766 0.1849396 0.04899554
v 0.2734766 0.1849396 -0.273129
v 0.3281765 0.1849091 0.04899554
v 0.4866581 0.152056 -0.273129
v 0.4379416 0.1516621 0.04899554
v 0.4379416 0.1516621 -0.273129
v 0.4866581 0.152056 0.04899554
v 0.4379416 0.1516621 -0.273129
v 0.3843889 0.1514647 0.04899554
v 0.3843889 0.1514647 -0.273129
v 0.4379416 0.1516621 0.04899554
v 0.02656746 0.2291129 -0.273129
v -0.02656078 0.2291129 0.006995337
v -0.02656078 0.2291129 -0.273129
v 0.02656651 0.2291129 0.006995337
v 0.2734766 0.1849396 -0.273129
v 0.1942358 0.1849549 0.006995337
v 0.1942358 0.1849549 -0.273129
v 0.2734766 0.1849396 0.006995337
v 0.3843889 0.1419194 -0.273129
v 0.3281765 0.1419194 0.006995337
v 0.3281765 0.1419194 -0.273129
v 0.3843889 0.1419194 0.006995337
v 0.532279 -0.2346618 -0.273129
v 0.532279 0.1326964 0.006995337
v 0.532279 0.1326964 -0.273129
v 0.532279 -0.2346618 0.006995337
v 0.532279 0.1326964 -0.273129
v 0.4866581 0.1326964 0.006995337
v 0.4866581 0.1326964 -0.273129
v 0.532279 0.1326964 0.006995337
v 0.02656651 0.2291129 0.006995337
v 0.02656651 -0.2346609 0.06999542
v 0.02656651 -0.2346609 0.006995337
v 0.02656651 0.2561963 0.06999542
v 0.02656746 0.2561963 -0.273129
v 0.02656746 0.2291129 -0.273129
v 0.1140003 0.2023156 0.03499562
v 0.1140003 0.2561963 -0.273129
v 0.1140003 0.2023156 -0.273129
v 0.1140003 0.2561963 0.06999542
v 0.1140003 -0.2346618 0.06999542
v 0.1140003 -0.2346618 0.03499562
v 0.1942358 0.1849549 0.006995337
v 0.1942358 0.2023156 -0.273129
v 0.1942358 0.1849549 -0.273129
v 0.1942358 0.2023156 0.03499562
v 0.1942358 -0.2346618 0.03499562
v 0.1942358 -0.2346618 0.006995337
v 0.2734766 -0.2346618 0.006995337
v 0.2734766 0.1849396 0.04899554
v 0.2734766 -0.2346618 0.04899554
v 0.2734766 0.1849396 0.006995337
v 0.3281765 0.1419194 0.006995337
v 0.3281765 0.1849091 -0.273129
v 0.3281765 0.1419194 -0.273129
v 0.3281765 0.1849091 0.04899554
v 0.3281765 -0.2346618 0.04899554
v 0.3281765 -0.2346618 0.006995337
v 0.3843889 0.1419194 0.006995337
v 0.3843889 -0.2346618 0.04899554
v 0.3843889 -0.2346618 0.006995337
v 0.3843889 0.1514647 0.04899554
v 0.3843889 0.1514647 -0.273129
v 0.3843889 0.1419194 -0.273129
v 0.4866581 0.1326964 0.006995337
v 0.4866581 0.152056 -0.273129
v 0.4866581 0.1326964 -0.273129
v 0.4866581 0.152056 0.04899554
v 0.4866581 -0.2346618 0.04899554
v 0.4866581 -0.2346618 0.006995337
v -0.02656078 -0.2346609 0.006995337
v -0.02656078 0.2291129 -0.2758773
v -0.02656078 0.2291129 0.006995337
v -0.02656078 -0.2346609 -0.2758773

vn -1 0 -1.192093E-07
vn -1 0 -1.192093E-07
vn -1 0 -1.192093E-07
vn -1 0 -1.192093E-07
vn -1 0 -1.192093E-07
vn -1 0 -1.192093E-07
vn -1 0 -1.192093E-07
vn -1 0 -1.192093E-07
vn -1 0 -1.192093E-07
vn -1 0 -1.192093E-07
vn -1 0 -1.192093E-07
vn -1 0 -1.788139E-07
vn -1 0 -1.192093E-07
vn -1 0 -1.192093E-07
vn -1 0 -1.192093E-07
vn -1 0 -1.192093E-07
vn -1 0 -1.192093E-07
vn -1 0 -1.192093E-07
vn -1 0 -1.192093E-07
vn -1 0 -1.192093E-07
vn -1 0 -1.192093E-07
vn -1 0 -1.192093E-07
vn -1 0 -1.192093E-07
vn -1 0 -1.788139E-07
vn -1 0 -1.192093E-07
vn -1 0 -1.192093E-07
vn -1 0 -1.192093E-07
vn -1 0 -1.192093E-07
vn -1 0 -1.192093E-07
vn -1 0 -1.192093E-07
vn -1 0 -1.192093E-07
vn -1 0 -1.192093E-07
vn -1 0 -1.192093E-07
vn -1 0 -1.192093E-07
vn 1.192093E-07 1 0
vn 1.192093E-07 1 0
vn 1.192093E-07 1 0
vn 1.192093E-07 1 0
vn 0 1 0
vn 0 1 0
vn 0 1 0
vn 5.960464E-08 1 -1.788139E-07
vn 5.960464E-08 1 0.0005569458
vn 5.960464E-08 1 0.0005569458
vn 5.960464E-08 1 0.0005569458
vn 5.960464E-08 1 0.0005569458
vn 0 1 -0.008094788
vn 0 1 -0.008094788
vn 0 1 -0.008094788
vn 0 1 -0.008094788
vn 0 1 -0.003681183
vn 0 1 -0.003681183
vn 0 1 -0.003681183
vn 0 1 -0.003681183
vn 1.788139E-07 1 0
vn 1.788139E-07 1 0
vn 1.788139E-07 1 0
vn 1.788139E-07 1 0
vn 0 1 0.0001920462
vn 0 1 0.0001920462
vn 0 1 0.0001920462
vn 5.960464E-08 1 0.000191927
vn 0 1 0
vn 0 1 0
vn 0 1 0
vn 0 1 0
vn -1.192093E-07 0 1
vn -1.192093E-07 0 1
vn -1.192093E-07 0 1
vn -1.192093E-07 0 1
vn 0 1 5.960464E-07
vn 0 1 5.960464E-07
vn 0 1 5.960464E-07
vn 5.960464E-08 1 2.980232E-07
vn 1.192093E-07 0 -1
vn 1.192093E-07 0 -1
vn 1.192093E-07 0 -1
vn 1.192093E-07 0 -1
vn 1.192093E-07 0 -1
vn 1.192093E-07 0 -1
vn -1.192093E-07 2.384186E-07 1
vn -1.192093E-07 2.384186E-07 1
vn -1.192093E-07 2.384186E-07 1
vn -1.192093E-07 2.384186E-07 1
vn -1.192093E-07 0 1
vn -1.192093E-07 0 1
vn -1.192093E-07 0 1
vn -1.192093E-07 0 1
vn -1.192093E-07 0 1
vn -1.192093E-07 0 1
vn -1.192093E-07 0 1
vn -1.192093E-07 0 1
vn 1.192093E-07 0 -1
vn 1.192093E-07 0 -1
vn 1.192093E-07 0 -1
vn 1.192093E-07 0 -1
vn -1.192093E-07 0 1
vn -1.192093E-07 0 1
vn -1.192093E-07 0 1
vn -1.192093E-07 0 1
vn -1.192093E-07 0 1
vn -1.192093E-07 0 1
vn 1.192093E-07 0 -1
vn 1.192093E-07 -5.960464E-08 -1
vn 1.192093E-07 -5.960464E-08 -1
vn 1.192093E-07 0 -1
vn 1.192093E-07 0 -1
vn 1.192093E-07 0 -1
vn -1.192093E-07 0 1
vn -1.192093E-07 0 1
vn -1.192093E-07 0 1
vn -1.192093E-07 0 1
vn -1.192093E-07 1.192093E-07 1
vn -1.192093E-07 1.192093E-07 1
vn 1.192093E-07 0 -1
vn 1.192093E-07 0 -1
vn 1.192093E-07 0 -1
vn 1.192093E-07 0 -1

vt 0.03759766 0.4799805
vt 0.008956909 0.2595215
vt 0.008956909 0.4799805
vt 0.03759766 0.2595215
vt 0.0847168 0.2595215
vt 0.03759766 0.4929199
vt 0.0847168 0.4929199
vt 0.03759766 0.2595215
vt 0.1280518 0.2595215
vt 0.0847168 0.4672852
vt 0.1280518 0.4672852
vt 0.0847168 0.2595215
vt 0.1707764 0.2595215
vt 0.1280518 0.4589844
vt 0.1707764 0.4589844
vt 0.1280518 0.2595215
vt 0.2001953 0.2595215
vt 0.1707764 0.4589844
vt 0.2001953 0.4589844
vt 0.1707764 0.2595215
vt 0.2305908 0.2595215
vt 0.2001953 0.4387207
vt 0.2305908 0.4387207
vt 0.2001953 0.2595215
vt 0.2305908 0.4431152
vt 0.2595215 0.2595215
vt 0.2305908 0.2595215
vt 0.2595215 0.4433594
vt 0.2856445 0.2595215
vt 0.2856445 0.4433594
vt 0.3103027 0.2595215
vt 0.2856445 0.4343262
vt 0.3103027 0.4343262
vt 0.2856445 0.2595215
vt 0.4309082 0.2556152
vt 0.3681641 0.4885254
vt 0.3681641 0.2556152
vt 0.4309082 0.4885254
vt 0.4306641 0.2558594
vt 0.3679199 0.4882813
vt 0.3679199 0.2558594
vt 0.4306641 0.4882813
vt 0.3684082 0.2558594
vt 0.4309082 0.4882813
vt 0.4311523 0.2558594
vt 0.3684082 0.4882813
vt 0.4304199 0.2558594
vt 0.3681641 0.4885254
vt 0.3681641 0.2558594
vt 0.4304199 0.4885254
vt 0.4306641 0.2556152
vt 0.3684082 0.4885254
vt 0.3684082 0.2556152
vt 0.4306641 0.4885254
vt 0.3679199 0.2556152
vt 0.4309082 0.4880371
vt 0.4309082 0.2556152
vt 0.3679199 0.4880371
vt 0.3681641 0.2561035
vt 0.4301758 0.4880371
vt 0.4304199 0.2561035
vt 0.3679199 0.4880371
vt 0.4306641 0.2556152
vt 0.3681641 0.4882813
vt 0.3681641 0.2556152
vt 0.4306641 0.4882813
vt 0.3103027 0.2595215
vt 0.2883301 0.4338379
vt 0.3103027 0.4338379
vt 0.2883301 0.2595215
vt 0.4311523 0.2558594
vt 0.3671875 0.4885254
vt 0.3681641 0.2558594
vt 0.4304199 0.4885254
vt 0.07611084 0.4797363
vt 0.08453369 0.2595215
vt 0.07611084 0.2595215
vt 0.08453369 0.4926758
vt 0.03851318 0.4926758
vt 0.03851318 0.4797363
vt 0.04244995 0.4672852
vt 0.08422852 0.4929199
vt 0.08422852 0.4672852
vt 0.03768921 0.4929199
vt 0.03768921 0.2597656
vt 0.04244995 0.2597656
vt 0.08868408 0.4589844
vt 0.1280518 0.4672852
vt 0.1280518 0.4589844
vt 0.0847168 0.4672852
vt 0.0847168 0.2595215
vt 0.08868408 0.2595215
vt 0.1707764 0.2595215
vt 0.2003174 0.4589844
vt 0.2003174 0.2595215
vt 0.1707764 0.4589844
vt 0.1748047 0.4384766
vt 0.2001953 0.4589844
vt 0.2001953 0.4384766
vt 0.1710205 0.4589844
vt 0.1710205 0.2597656
vt 0.1748047 0.2597656
vt 0.2558594 0.4382324
vt 0.2592773 0.2595215
vt 0.2558594 0.2595215
vt 0.2592773 0.442627
vt 0.2321777 0.442627
vt 0.2321777 0.4382324
vt 0.2626953 0.4335938
vt 0.2866211 0.442627
vt 0.2866211 0.4335938
vt 0.2590332 0.442627
vt 0.2590332 0.2597656
vt 0.2626953 0.2597656
vt 0.03747559 0.2595215
vt 0.009277344 0.4799805
vt 0.03747559 0.4799805
vt 0.009277344 0.2595215

g Books_2003_64
usemtl Books_2003_64
usemap Books_2003_64
f 1/1/1 3/3/3 2/2/2
f 2/2/2 4/4/4 1/1/1
f 5/5/5 7/7/7 6/6/6
f 6/6/6 8/8/8 5/5/5
f 9/9/9 11/11/11 10/10/10
f 10/10/10 12/12/12 9/9/9
f 13/13/13 15/15/15 14/14/14
f 14/14/14 16/16/16 13/13/13
f 17/17/17 19/19/19 18/18/18
f 18/18/18 20/20/20 17/17/17
f 21/21/21 23/23/23 22/22/22
f 22/22/22 24/24/24 21/21/21
f 25/25/25 27/27/27 26/26/26
f 26/26/26 28/28/28 25/25/25
f 28/28/28 26/26/26 29/29/29
f 29/29/29 30/30/30 28/28/28
f 31/31/31 33/33/33 32/32/32
f 32/32/32 34/34/34 31/31/31
f 35/35/35 37/37/37 36/36/36
f 36/36/36 38/38/38 35/35/35
f 39/39/39 41/41/41 40/40/40
f 40/40/40 42/42/42 39/39/39
f 43/43/43 45/45/45 44/44/44
f 44/44/44 46/46/46 43/43/43
f 47/47/47 49/49/49 48/48/48
f 48/48/48 50/50/50 47/47/47
f 51/51/51 53/53/53 52/52/52
f 52/52/52 54/54/54 51/51/51
f 55/55/55 57/57/57 56/56/56
f 56/56/56 58/58/58 55/55/55
f 59/59/59 61/61/61 60/60/60
f 60/60/60 62/62/62 59/59/59
f 63/63/63 65/65/65 64/64/64
f 64/64/64 66/66/66 63/63/63
f 67/67/67 69/69/69 68/68/68
f 68/68/68 70/70/70 67/67/67
f 71/71/71 73/73/73 72/72/72
f 72/72/72 74/74/74 71/71/71
f 75/75/75 77/77/77 76/76/76
f 76/76/76 78/78/78 75/75/75
f 75/75/75 78/78/78 79/79/79
f 79/79/79 80/80/80 75/75/75
f 81/81/81 83/83/83 82/82/82
f 82/82/82 84/84/84 81/81/81
f 81/81/81 84/84/84 85/85/85
f 85/85/85 86/86/86 81/81/81
f 87/87/87 89/89/89 88/88/88
f 88/88/88 90/90/90 87/87/87
f 87/87/87 90/90/90 91/91/91
f 91/91/91 92/92/92 87/87/87
f 93/93/93 95/95/95 94/94/94
f 94/94/94 96/96/96 93/93/93
f 97/97/97 99/99/99 98/98/98
f 98/98/98 100/100/100 97/97/97
f 97/97/97 100/100/100 101/101/101
f 101/101/101 102/102/102 97/97/97
f 103/103/103 105/105/105 104/104/104
f 104/104/104 106/106/106 103/103/103
f 103/103/103 106/106/106 107/107/107
f 107/107/107 108/108/108 103/103/103
f 109/109/109 111/111/111 110/110/110
f 110/110/110 112/112/112 109/109/109
f 109/109/109 112/112/112 113/113/113
f 113/113/113 114/114/114 109/109/109
f 115/115/115 117/117/117 116/116/116
f 116/116/116 118/118/118 115/115/115
