#Cabinet_666_85.obj

v 0.7960205 -1.371105 0.1675481
v 0.7260208 1.301105 0.1675478
v 0.7960205 1.371105 0.1675478
v 0.7260208 -1.301104 0.167548
v 0.7260208 2.582718E-07 0.1675478
v 0.7960205 -1.371105 0.1675481
v 0.7260208 2.582718E-07 0.1675478
v 0.7260208 1.301105 0.1675478
v -0.7960205 1.371105 0.1675478
v -0.7260208 -1.301104 0.1675477
v -0.7960205 -1.371105 0.1675477
v -0.7260208 1.301105 0.1675478
v -0.7260208 2.582718E-07 0.1675478
v -0.7960205 1.371105 0.1675478
v -0.7260208 2.582718E-07 0.1675478
v -0.7260208 -1.301104 0.1675477
v 0.7960205 1.371105 -0.6491906
v -0.7960205 -1.371105 -0.649191
v 0.7960205 -1.371105 -0.6491907
v -0.7960205 1.371105 -0.649191
v 0.7960205 -1.371105 0.1675481
v -0.7960205 -1.371105 -0.649191
v -0.7960205 -1.371105 0.1675477
v 0.7960205 -1.371105 -0.6491907
v 0.7960205 1.371105 0.1675478
v 0.7960205 -1.371105 -0.6491907
v 0.7960205 -1.371105 0.1675481
v 0.7960205 1.371105 -0.6491906
v -0.7960205 1.371105 0.1675478
v 0.7960205 1.371105 -0.6491906
v 0.7960205 1.371105 0.1675478
v -0.7960205 1.371105 -0.649191
v -0.7960205 -1.371105 0.1675477
v -0.7960205 1.371105 -0.649191
v -0.7960205 1.371105 0.1675478
v -0.7960205 -1.371105 -0.649191
v -0.7960205 -1.371105 0.1675477
v 0.7260208 -1.301104 0.167548
v 0.7960205 -1.371105 0.1675481
v -0.7260208 -1.301104 0.1675477
v 0.7960205 1.371105 0.1675478
v -0.7260208 1.301105 0.1675478
v -0.7960205 1.371105 0.1675478
v 0.7260208 1.301105 0.1675478
v -0.7260208 -1.301104 -0.5814441
v 0.7260208 1.695217E-07 -0.5814438
v 0.7260208 -1.301104 -0.5814438
v -0.7260208 1.695216E-07 -0.5814441
v 0.7260208 1.301106 -0.5814437
v -0.7260208 1.695216E-07 -0.5814441
v -0.7260208 1.301106 -0.5814441
v 0.7260208 1.695217E-07 -0.5814438
v -0.7260208 -1.301104 0.1675477
v 0.7260208 -1.301104 -0.5814438
v 0.7260208 -1.301104 0.167548
v -0.7260208 -1.301104 -0.5814441
v 0.7260208 -1.301104 0.167548
v 0.7260208 1.695217E-07 -0.5814438
v 0.7260208 2.582718E-07 0.1675478
v 0.7260208 -1.301104 -0.5814438
v -0.7260208 2.582718E-07 0.1675478
v -0.7260208 -1.301104 -0.5814441
v -0.7260208 -1.301104 0.1675477
v -0.7260208 1.695216E-07 -0.5814441
v 0.7260208 1.301105 0.1675478
v -0.7260208 1.301106 -0.5814441
v -0.7260208 1.301105 0.1675478
v 0.7260208 1.301106 -0.5814437
v -0.7260208 1.301105 0.1675478
v -0.7260208 1.695216E-07 -0.5814441
v -0.7260208 2.582718E-07 0.1675478
v -0.7260208 1.301106 -0.5814441
v 0.7260208 2.582718E-07 0.1675478
v 0.7260208 1.301106 -0.5814437
v 0.7260208 1.301105 0.1675478
v 0.7260208 1.695217E-07 -0.5814438

vn -1 -1.788139E-07 -1.192093E-07
vn -1 -1.788139E-07 -1.192093E-07
vn -1 -1.788139E-07 -1.192093E-07
vn -1 -1.788139E-07 -1.192093E-07
vn -1 -1.788139E-07 -1.192093E-07
vn -1 -1.788139E-07 -1.192093E-07
vn -1 -1.788139E-07 -1.192093E-07
vn -1 -1.788139E-07 -1.192093E-07
vn -1 -1.788139E-07 -1.192093E-07
vn -1 -1.788139E-07 -1.192093E-07
vn -1 -1.788139E-07 -1.192093E-07
vn -1 -1.788139E-07 -1.192093E-07
vn -1 -1.788139E-07 -1.192093E-07
vn -1 -1.788139E-07 -1.192093E-07
vn -1 -1.788139E-07 -1.192093E-07
vn -1 -1.788139E-07 -1.192093E-07
vn 1 1.788139E-07 1.192093E-07
vn 1 1.788139E-07 1.192093E-07
vn 1 1.788139E-07 1.192093E-07
vn 1 1.788139E-07 1.192093E-07
vn 1.788139E-07 -1 0
vn 1.788139E-07 -1 0
vn 1.788139E-07 -1 0
vn 1.788139E-07 -1 0
vn -1.192093E-07 0 1
vn -1.192093E-07 0 1
vn -1.192093E-07 0 1
vn -1.192093E-07 0 1
vn -1.788139E-07 1 0
vn -1.788139E-07 1 0
vn -1.788139E-07 1 0
vn -1.788139E-07 1 0
vn 1.192093E-07 0 -1
vn 1.192093E-07 0 -1
vn 1.192093E-07 0 -1
vn 1.192093E-07 0 -1
vn -1 -1.788139E-07 -1.192093E-07
vn -1 -1.788139E-07 -1.192093E-07
vn -1 -1.788139E-07 -1.192093E-07
vn -1 -1.788139E-07 -1.192093E-07
vn -1 -1.788139E-07 -1.192093E-07
vn -1 -1.788139E-07 -1.192093E-07
vn -1 -1.788139E-07 -1.192093E-07
vn -1 -1.788139E-07 -1.192093E-07
vn -1 -1.788139E-07 -1.192093E-07
vn -1 -1.788139E-07 -1.192093E-07
vn -1 -1.788139E-07 -1.192093E-07
vn -1 -1.788139E-07 -1.192093E-07
vn -1 -1.788139E-07 -1.192093E-07
vn -1 -1.788139E-07 -1.192093E-07
vn -1 -1.788139E-07 -1.192093E-07
vn -1 -1.788139E-07 -1.192093E-07
vn -1.788139E-07 1 0
vn -1.788139E-07 1 0
vn -1.788139E-07 1 0
vn -1.788139E-07 1 0
vn 1.192093E-07 0 -1
vn 1.192093E-07 0 -1
vn 1.192093E-07 0 -1
vn 1.192093E-07 0 -1
vn -1.192093E-07 0 1
vn -1.192093E-07 0 1
vn -1.192093E-07 0 1
vn -1.192093E-07 0 1
vn 1.788139E-07 -1 0
vn 1.788139E-07 -1 0
vn 1.788139E-07 -1 0
vn 1.788139E-07 -1 0
vn -1.192093E-07 0 1
vn -1.192093E-07 0 1
vn -1.192093E-07 0 1
vn -1.192093E-07 0 1
vn 1.192093E-07 0 -1
vn 1.192093E-07 0 -1
vn 1.192093E-07 0 -1
vn 1.192093E-07 0 -1

vt 0.590332 0.5004883
vt 0.5834961 0.7456055
vt 0.590332 0.7519531
vt 0.5834961 0.5068359
vt 0.5834961 0.6230469
vt 0.590332 0.5004883
vt 0.5834961 0.6293945
vt 0.5834961 0.7456055
vt 0.574707 0.7519531
vt 0.5810547 0.5068359
vt 0.574707 0.5004883
vt 0.5810547 0.7456055
vt 0.5810547 0.6293945
vt 0.574707 0.7519531
vt 0.5810547 0.6230469
vt 0.5810547 0.5068359
vt 0.5922852 0.7519531
vt 0.7387695 0.5004883
vt 0.5922852 0.5004883
vt 0.7387695 0.7519531
vt 0.5 0.8154297
vt 0.6459961 0.862793
vt 0.6459961 0.8154297
vt 0.5 0.862793
vt 0.8632813 0.7519531
vt 0.9111328 0.5004883
vt 0.8632813 0.5004883
vt 0.9111328 0.7519531
vt 0.5 0.7583008
vt 0.6459961 0.8056641
vt 0.6459961 0.7583008
vt 0.5 0.8056641
vt 0.7875977 0.5004883
vt 0.7402344 0.7519531
vt 0.7875977 0.7519531
vt 0.7402344 0.5004883
vt 0.6518555 0.7539063
vt 0.7915039 0.7602539
vt 0.7978516 0.7539063
vt 0.6582031 0.7602539
vt 0.6459961 0.8129883
vt 0.5063477 0.8066406
vt 0.5 0.8129883
vt 0.6396484 0.8066406
vt 0.7685547 0.8793945
vt 0.9018555 0.9956055
vt 0.9018555 0.8793945
vt 0.7685547 0.9956055
vt 0.7675781 0.9956055
vt 0.6342773 0.8793945
vt 0.6342773 0.9956055
vt 0.7675781 0.8793945
vt 0.5 0.9584961
vt 0.6333008 1
vt 0.6333008 0.9584961
vt 0.5 1
vt 0.9443359 0.8793945
vt 0.9033203 0.9956055
vt 0.9443359 0.9956055
vt 0.9033203 0.8793945
vt 0.925293 0.6166992
vt 0.9663086 0.5004883
vt 0.925293 0.5004883
vt 0.9663086 0.6166992
vt 0.6518555 0.7626953
vt 0.7851563 0.8037109
vt 0.7851563 0.7626953
vt 0.6518555 0.8037109
vt 0.925293 0.737793
vt 0.9663086 0.621582
vt 0.925293 0.621582
vt 0.9663086 0.737793
vt 0.9863281 0.8793945
vt 0.9448242 0.9956055
vt 0.9863281 0.9956055
vt 0.9448242 0.8793945

g Cabinet_666_85
usemtl Cabinet_666_85
usemap Cabinet_666_85
f 1/1/1 3/3/3 2/2/2
f 1/1/1 5/5/5 4/4/4
f 6/6/6 8/8/8 7/7/7
f 9/9/9 11/11/11 10/10/10
f 9/9/9 13/13/13 12/12/12
f 14/14/14 16/16/16 15/15/15
f 17/17/17 19/19/19 18/18/18
f 18/18/18 20/20/20 17/17/17
f 21/21/21 23/23/23 22/22/22
f 22/22/22 24/24/24 21/21/21
f 25/25/25 27/27/27 26/26/26
f 26/26/26 28/28/28 25/25/25
f 29/29/29 31/31/31 30/30/30
f 30/30/30 32/32/32 29/29/29
f 33/33/33 35/35/35 34/34/34
f 34/34/34 36/36/36 33/33/33
f 37/37/37 39/39/39 38/38/38
f 38/38/38 40/40/40 37/37/37
f 41/41/41 43/43/43 42/42/42
f 42/42/42 44/44/44 41/41/41
f 45/45/45 47/47/47 46/46/46
f 46/46/46 48/48/48 45/45/45
f 49/49/49 51/51/51 50/50/50
f 50/50/50 52/52/52 49/49/49
f 53/53/53 55/55/55 54/54/54
f 54/54/54 56/56/56 53/53/53
f 57/57/57 59/59/59 58/58/58
f 58/58/58 60/60/60 57/57/57
f 61/61/61 63/63/63 62/62/62
f 62/62/62 64/64/64 61/61/61
f 65/65/65 67/67/67 66/66/66
f 66/66/66 68/68/68 65/65/65
f 69/69/69 71/71/71 70/70/70
f 70/70/70 72/72/72 69/69/69
f 73/73/73 75/75/75 74/74/74
f 74/74/74 76/76/76 73/73/73
