#Cell_(6)_579_21.obj

v -74.99999 -74.99999 -4.592273E-15
v 74.99999 74.99999 4.592273E-15
v 74.99999 -74.99999 -4.592273E-15
v -74.99999 74.99999 4.592273E-15

vn 0 -1 1.788139E-07
vn 0 -1 1.788139E-07
vn 0 -1 1.788139E-07
vn 0 -1 1.788139E-07

vt 0.5 0.5009766
vt 0.9995117 0.9995117
vt 0.9995117 0.5009766
vt 0.5 0.9995117

g Cell_(6)_579_21
usemtl Cell_(6)_579_21
usemap Cell_(6)_579_21
f 1/1/1 3/3/3 2/2/2
f 2/2/2 4/4/4 1/1/1
