#Chair_1941_117.obj

v 0.3212931 1.788139E-07 -0.2841379
v 0.3212931 1.788139E-07 -0.2841379
v 0.3212928 0.06835574 -0.2836794
v -0.3212928 0.8675053 -0.4223759
v -0.2698857 0.8523676 -0.4372782
v -0.269886 0.8675053 -0.422376
v -0.2698857 0.8523676 -0.4372782
v -0.3212928 0.8675053 -0.4223759
v -0.3212925 0.8523676 -0.4372782
v 0.2698859 0.8675053 -0.4223761
v 0.3212929 0.8523676 -0.4372784
v 0.3212927 0.8675053 -0.4223761
v 0.3212929 0.8523676 -0.4372784
v 0.2698859 0.8675053 -0.4223761
v 0.2698861 0.8523676 -0.4372783
v 0.2698857 0.1314842 -0.2863201
v 0.269886 0.7003567 -0.3711206
v 0.2698861 0.787883 -0.3821906
v 0.269886 0.1425344 -0.3005693
v -0.2698858 0.1382915 -0.3341128
v -0.2698858 0.1425344 -0.3005692
v -0.2698858 0.1382915 -0.3341128
v 0.269886 0.1425344 -0.3005693
v 0.269886 0.1382915 -0.3341129
v 0.269886 0.2258169 -0.3451829
v 0.1927757 0.6961147 -0.4046644
v 0.1927754 0.2258169 -0.3451828
v 0.1927757 0.6961147 -0.4046644
v 0.269886 0.2258169 -0.3451829
v 0.269886 0.6961147 -0.4046641
v 0.1927755 0.2300598 -0.3116392
v 0.269886 0.7003567 -0.3711206
v 0.269886 0.2300598 -0.3116393
v 0.269886 0.7003567 -0.3711206
v 0.1927755 0.2300598 -0.3116392
v 0.1927758 0.7003567 -0.3711209
v -0.2698862 0.6961147 -0.4046643
v -0.1927759 0.2258169 -0.3451828
v -0.1927756 0.6961147 -0.4046644
v -0.1927759 0.2258169 -0.3451828
v -0.2698862 0.6961147 -0.4046643
v -0.2698858 0.2258169 -0.3451828
v -0.1927755 0.7003567 -0.3711209
v -0.2698857 0.2300598 -0.3116392
v -0.2698861 0.7003567 -0.3711208
v -0.2698857 0.2300598 -0.3116392
v -0.1927755 0.7003567 -0.3711209
v -0.1927758 0.2300598 -0.3116393
v -0.2690117 1.788139E-07 0.2841379
v 0.2717683 1.788139E-07 -0.2841379
v -0.2690117 1.788139E-07 -0.2841376
v 0.2717687 1.788139E-07 0.2841379
v 0.3212928 0.06835574 -0.2836794
v 0.2698859 0.06835574 -0.2836794
v 0.3212928 0.06835574 -0.2836794
v 0.321293 0.06835574 0.3429903
v -0.2698859 0.06835574 -0.2836793
v 0.2712502 0.06835574 -0.34299
v -0.2681745 0.06835574 -0.34299
v -0.3212927 0.06835574 -0.2836792
v -0.3212927 0.06835574 0.34299
v 0.271768 1.788139E-07 0.3429899
v 0.321293 0.06835574 0.3429903
v 0.321293 1.788139E-07 0.3429903
v -0.2690119 1.788139E-07 0.34299
v -0.3212927 1.788139E-07 0.34299
v -0.3212927 0.06835574 0.34299
v -0.2681745 0.06835574 -0.34299
v 0.2708978 1.788139E-07 -0.3429902
v 0.2712502 0.06835574 -0.34299
v -0.2692254 1.788139E-07 -0.34299
v -0.3212929 1.788139E-07 0.2841377
v -0.3212927 0.06835574 0.34299
v -0.3212927 1.788139E-07 0.34299
v -0.3212927 0.06835574 -0.2836792
v -0.3212928 1.788139E-07 -0.284138
v 0.2708978 1.788139E-07 -0.3429902
v -0.2690117 1.788139E-07 -0.2841376
v 0.2717683 1.788139E-07 -0.2841379
v -0.2692254 1.788139E-07 -0.34299
v 0.2717687 1.788139E-07 0.2841379
v -0.2690119 1.788139E-07 0.34299
v 0.271768 1.788139E-07 0.3429899
v -0.2690117 1.788139E-07 0.2841379
v -0.3212929 1.788139E-07 0.2841377
v -0.2690117 1.788139E-07 -0.2841376
v -0.3212928 1.788139E-07 -0.284138
v -0.2690117 1.788139E-07 0.2841379
v 0.2717682 -0.6048716 -0.3050652
v 0.3212927 -0.6048716 -0.34299
v 0.2717686 -0.6048716 -0.3429901
v 0.321293 -0.6048716 -0.3050652
v -0.2690116 -0.6048716 0.3060178
v -0.3212927 -0.6048716 0.34299
v -0.2690119 -0.6048716 0.34299
v -0.3212928 -0.6048716 0.3060175
v 0.271768 -0.6048716 0.3429899
v 0.3212925 -0.6048716 0.3060175
v 0.2717683 -0.6048716 0.3060177
v 0.321293 -0.6048716 0.3429903
v 0.321293 -0.6048716 -0.3050652
v 0.3212927 -0.2707298 -0.34299
v 0.3212927 -0.6048716 -0.34299
v 0.3212931 -0.2707298 -0.2841379
v 0.3212927 -0.2356156 -0.34299
v 0.3212931 -0.2356156 -0.2841379
v 0.3212927 1.788139E-07 -0.34299
v 0.3212931 1.788139E-07 -0.2841379
v 0.3212931 1.788139E-07 -0.2841379
v 0.3212927 0.06835574 -0.34299
v 0.3212928 0.06835574 -0.2836794
v 0.3212928 0.06835574 -0.2836794
v 0.321293 0.1240427 -0.3451623
v 0.3212925 0.1314842 -0.2863202
v 0.3212925 0.7946894 -0.4299833
v 0.3212927 0.8021318 -0.3711413
v 0.3212929 0.8523676 -0.4372784
v 0.3212927 0.8675053 -0.4223761
v 0.3212925 0.8707611 -0.3966378
v 0.3212928 0.8598101 -0.378436
v 0.3212931 -0.2707298 -0.2841379
v 0.2717682 -0.6048716 -0.3050652
v 0.2717683 -0.2707298 -0.2841379
v 0.321293 -0.6048716 -0.3050652
v 0.2717683 -0.2356156 -0.2841379
v 0.3212931 1.788139E-07 -0.2841379
v 0.3212931 -0.2356156 -0.2841379
v 0.2717683 1.788139E-07 -0.2841379
v 0.2717683 -0.2707298 -0.2841379
v 0.2717686 -0.6048716 -0.3429901
v 0.2717686 -0.2707298 -0.3429901
v 0.2717682 -0.6048716 -0.3050652
v 0.2717686 -0.2356156 -0.3429901
v 0.2717683 1.788139E-07 -0.2841379
v 0.2717683 -0.2356156 -0.2841379
v 0.2708978 1.788139E-07 -0.3429902
v 0.3212927 -0.6048716 -0.34299
v 0.2717686 -0.2707298 -0.3429901
v 0.2717686 -0.6048716 -0.3429901
v 0.3212927 -0.2707298 -0.34299
v 0.2717686 -0.2356156 -0.3429901
v 0.3212927 -0.2356156 -0.34299
v 0.2708978 1.788139E-07 -0.3429902
v 0.3212927 1.788139E-07 -0.34299
v 0.3212927 0.06835574 -0.34299
v 0.2712502 0.06835574 -0.34299
v 0.2698862 0.1240427 -0.3451622
v 0.321293 0.1240427 -0.3451623
v -0.3212928 -0.6048716 0.3060175
v -0.3212927 -0.2707298 0.34299
v -0.3212927 -0.6048716 0.34299
v -0.3212929 -0.2707298 0.2841377
v -0.3212927 -0.2356156 0.34299
v -0.3212929 -0.2356156 0.2841377
v -0.3212927 1.788139E-07 0.34299
v -0.3212929 1.788139E-07 0.2841377
v -0.3212929 -0.2707298 0.2841377
v -0.2690116 -0.6048716 0.3060178
v -0.2690117 -0.2707298 0.2841379
v -0.3212928 -0.6048716 0.3060175
v -0.2690117 -0.2356156 0.2841379
v -0.3212929 1.788139E-07 0.2841377
v -0.3212929 -0.2356156 0.2841377
v -0.2690117 1.788139E-07 0.2841379
v -0.2690117 -0.2707298 0.2841379
v -0.2690119 -0.6048716 0.34299
v -0.2690119 -0.2707298 0.34299
v -0.2690116 -0.6048716 0.3060178
v -0.2690119 -0.2356156 0.34299
v -0.2690117 1.788139E-07 0.2841379
v -0.2690117 -0.2356156 0.2841379
v -0.2690119 1.788139E-07 0.34299
v -0.3212927 -0.6048716 0.34299
v -0.2690119 -0.2707298 0.34299
v -0.2690119 -0.6048716 0.34299
v -0.3212927 -0.2707298 0.34299
v -0.2690119 -0.2356156 0.34299
v -0.3212927 -0.2356156 0.34299
v -0.2690119 1.788139E-07 0.34299
v -0.3212927 1.788139E-07 0.34299
v 0.271768 -0.6048716 0.3429899
v 0.321293 -0.2707298 0.3429903
v 0.321293 -0.6048716 0.3429903
v 0.271768 -0.2707298 0.3429899
v 0.321293 -0.2356156 0.3429903
v 0.271768 -0.2356156 0.3429899
v 0.321293 1.788139E-07 0.3429903
v 0.271768 1.788139E-07 0.3429899
v 0.271768 -0.2707298 0.3429899
v 0.2717683 -0.6048716 0.3060177
v 0.2717687 -0.2707298 0.2841379
v 0.271768 -0.6048716 0.3429899
v 0.2717687 -0.2356156 0.2841379
v 0.271768 1.788139E-07 0.3429899
v 0.271768 -0.2356156 0.3429899
v 0.2717687 1.788139E-07 0.2841379
v 0.2717687 -0.2707298 0.2841379
v 0.3212925 -0.6048716 0.3060175
v 0.3212929 -0.2707298 0.2841378
v 0.2717683 -0.6048716 0.3060177
v 0.3212929 -0.2356156 0.2841378
v 0.2717687 1.788139E-07 0.2841379
v 0.2717687 -0.2356156 0.2841379
v 0.3212929 1.788139E-07 0.2841378
v 0.321293 -0.6048716 0.3429903
v 0.3212929 -0.2707298 0.2841378
v 0.3212925 -0.6048716 0.3060175
v 0.321293 -0.2707298 0.3429903
v 0.3212929 -0.2356156 0.2841378
v 0.321293 -0.2356156 0.3429903
v 0.3212929 1.788139E-07 0.2841378
v 0.321293 1.788139E-07 0.3429903
v -0.2690117 -0.2707298 0.2841379
v 0.271768 -0.2707298 0.3429899
v 0.2717687 -0.2707298 0.2841379
v -0.2690119 -0.2707298 0.34299
v -0.2690119 -0.2356156 0.34299
v 0.2717687 -0.2356156 0.2841379
v 0.271768 -0.2356156 0.3429899
v -0.2690117 -0.2356156 0.2841379
v -0.2690117 -0.2707298 0.2841379
v 0.2717687 -0.2356156 0.2841379
v -0.2690117 -0.2356156 0.2841379
v 0.2717687 -0.2707298 0.2841379
v 0.271768 -0.2707298 0.3429899
v -0.2690119 -0.2356156 0.34299
v 0.271768 -0.2356156 0.3429899
v -0.2690119 -0.2707298 0.34299
v 0.3212931 -0.2707298 -0.2841379
v 0.2717687 -0.2707298 0.2841379
v 0.3212929 -0.2707298 0.2841378
v 0.2717683 -0.2707298 -0.2841379
v 0.2717683 -0.2356156 -0.2841379
v 0.3212929 -0.2356156 0.2841378
v 0.2717687 -0.2356156 0.2841379
v 0.3212931 -0.2356156 -0.2841379
v 0.3212931 -0.2356156 -0.2841379
v 0.3212929 -0.2707298 0.2841378
v 0.3212929 -0.2356156 0.2841378
v 0.3212931 -0.2707298 -0.2841379
v 0.2717687 -0.2707298 0.2841379
v 0.2717683 -0.2356156 -0.2841379
v 0.2717687 -0.2356156 0.2841379
v 0.2717683 -0.2707298 -0.2841379
v -0.2690118 -0.6048716 -0.3429901
v -0.3212928 -0.6048716 -0.3050653
v -0.2690115 -0.6048716 -0.3050652
v -0.3212928 -0.6048716 -0.3429899
v -0.3212928 -0.6048716 -0.3429899
v -0.3212928 -0.2707298 -0.284138
v -0.3212928 -0.6048716 -0.3050653
v -0.3212928 -0.2707298 -0.3429899
v -0.3212928 -0.2356156 -0.284138
v -0.3212928 -0.2356156 -0.3429899
v -0.3212928 1.788139E-07 -0.284138
v -0.3212928 1.788139E-07 -0.3429899
v -0.2690118 -0.6048716 -0.3429901
v -0.3212928 -0.2707298 -0.3429899
v -0.3212928 -0.6048716 -0.3429899
v -0.2690118 -0.2707298 -0.3429901
v -0.2690118 -0.2356156 -0.3429901
v -0.3212928 -0.2356156 -0.3429899
v -0.3212928 1.788139E-07 -0.3429899
v -0.2690118 1.788139E-07 -0.3429901
v -0.2690118 -0.2707298 -0.3429901
v -0.2690115 -0.6048716 -0.3050652
v -0.2690117 -0.2707298 -0.2841376
v -0.2690118 -0.6048716 -0.3429901
v -0.2690117 -0.2356156 -0.2841376
v -0.2690118 1.788139E-07 -0.3429901
v -0.2690118 -0.2356156 -0.3429901
v -0.2690117 1.788139E-07 -0.2841376
v -0.2690117 -0.2707298 -0.2841376
v -0.3212928 -0.6048716 -0.3050653
v -0.3212928 -0.2707298 -0.284138
v -0.2690115 -0.6048716 -0.3050652
v -0.3212928 -0.2356156 -0.284138
v -0.2690117 1.788139E-07 -0.2841376
v -0.2690117 -0.2356156 -0.2841376
v -0.3212928 1.788139E-07 -0.284138
v 0.2717683 -0.2707298 -0.2841379
v -0.2690118 -0.2707298 -0.3429901
v -0.2690117 -0.2707298 -0.2841376
v 0.2717686 -0.2707298 -0.3429901
v 0.2717686 -0.2356156 -0.3429901
v -0.2690117 -0.2356156 -0.2841376
v -0.2690118 -0.2356156 -0.3429901
v 0.2717683 -0.2356156 -0.2841379
v 0.2717686 -0.2707298 -0.3429901
v -0.2690118 -0.2356156 -0.3429901
v -0.2690118 -0.2707298 -0.3429901
v 0.2717686 -0.2356156 -0.3429901
v 0.2717683 -0.2707298 -0.2841379
v -0.2690117 -0.2356156 -0.2841376
v 0.2717683 -0.2356156 -0.2841379
v -0.2690117 -0.2707298 -0.2841376
v -0.3212929 -0.2707298 0.2841377
v -0.2690117 -0.2707298 -0.2841376
v -0.3212928 -0.2707298 -0.284138
v -0.2690117 -0.2707298 0.2841379
v -0.2690117 -0.2356156 0.2841379
v -0.3212928 -0.2356156 -0.284138
v -0.2690117 -0.2356156 -0.2841376
v -0.3212929 -0.2356156 0.2841377
v -0.3212929 -0.2707298 0.2841377
v -0.3212928 -0.2356156 -0.284138
v -0.3212929 -0.2356156 0.2841377
v -0.3212928 -0.2707298 -0.284138
v -0.2690117 -0.2707298 -0.2841376
v -0.2690117 -0.2356156 0.2841379
v -0.2690117 -0.2356156 -0.2841376
v -0.2690117 -0.2707298 0.2841379
v -0.269886 0.8675053 -0.422376
v -0.3212927 0.8707611 -0.396638
v -0.3212928 0.8675053 -0.4223759
v -0.2698858 0.8707611 -0.396638
v -0.3212928 0.8598101 -0.3784365
v -0.2698862 0.8598101 -0.3784361
v 0.3212927 0.8675053 -0.4223761
v 0.269886 0.8707611 -0.3966381
v 0.2698859 0.8675053 -0.4223761
v 0.3212925 0.8707611 -0.3966378
v 0.269886 0.8598101 -0.3784359
v 0.3212928 0.8598101 -0.378436
v -0.2698858 0.1314842 -0.2863204
v -0.3212927 0.06835574 -0.2836792
v -0.3212926 0.1314842 -0.2863204
v -0.2698859 0.06835574 -0.2836793
v -0.2698859 0.06835574 -0.2836793
v -0.269886 0.1240427 -0.3451625
v -0.2681745 0.06835574 -0.34299
v -0.2698858 0.1314842 -0.2863204
v -0.2698858 0.1382915 -0.3341128
v -0.2698858 0.1425344 -0.3005692
v -0.269886 0.8021318 -0.3711411
v -0.2698857 0.2300598 -0.3116392
v -0.2698858 0.2258169 -0.3451828
v -0.2698862 0.6961147 -0.4046643
v -0.2698861 0.7836401 -0.4157344
v -0.2698861 0.7003567 -0.3711208
v -0.2698858 0.7946894 -0.4299835
v -0.2698861 0.787883 -0.3821908
v -0.2698857 0.8523676 -0.4372782
v -0.269886 0.8675053 -0.422376
v -0.2698858 0.8707611 -0.396638
v -0.2698862 0.8598101 -0.3784361
v -0.3212928 0.1240427 -0.3451624
v -0.2681745 0.06835574 -0.34299
v -0.269886 0.1240427 -0.3451625
v -0.3212928 0.06835574 -0.3429899
v -0.3212928 1.788139E-07 -0.3429899
v -0.2692254 1.788139E-07 -0.34299
v 0.2712502 0.06835574 -0.34299
v 0.2698857 0.1314842 -0.2863201
v 0.2698859 0.06835574 -0.2836794
v 0.2698862 0.1240427 -0.3451622
v 0.269886 0.1425344 -0.3005693
v 0.269886 0.1382915 -0.3341129
v 0.269886 0.7946894 -0.4299836
v 0.269886 0.2258169 -0.3451829
v 0.269886 0.6961147 -0.4046641
v 0.269886 0.7836401 -0.4157341
v 0.2698859 0.8021318 -0.3711412
v 0.2698861 0.787883 -0.3821906
v 0.269886 0.8598101 -0.3784359
v 0.269886 0.8707611 -0.3966381
v 0.2698859 0.8675053 -0.4223761
v 0.2698861 0.8523676 -0.4372783
v 0.3212925 0.1314842 -0.2863202
v 0.2698859 0.06835574 -0.2836794
v 0.2698857 0.1314842 -0.2863201
v 0.3212928 0.06835574 -0.2836794
v -0.3212926 0.1314842 -0.2863204
v -0.269886 0.8021318 -0.3711411
v -0.2698858 0.1314842 -0.2863204
v -0.3212928 0.8021318 -0.3711411
v -0.2698862 0.8598101 -0.3784361
v -0.3212928 0.8598101 -0.3784365
v -0.269886 0.1240427 -0.3451625
v -0.3212927 0.7946894 -0.4299835
v -0.3212928 0.1240427 -0.3451624
v -0.2698858 0.7946894 -0.4299835
v -0.3212925 0.8523676 -0.4372782
v -0.2698857 0.8523676 -0.4372782
v 0.321293 0.1240427 -0.3451623
v 0.269886 0.7946894 -0.4299836
v 0.2698862 0.1240427 -0.3451622
v 0.3212925 0.7946894 -0.4299833
v 0.2698861 0.8523676 -0.4372783
v 0.3212929 0.8523676 -0.4372784
v 0.2698857 0.1314842 -0.2863201
v 0.3212927 0.8021318 -0.3711413
v 0.3212925 0.1314842 -0.2863202
v 0.2698859 0.8021318 -0.3711412
v 0.3212928 0.8598101 -0.378436
v 0.269886 0.8598101 -0.3784359
v -0.3212927 0.7946894 -0.4299835
v -0.3212925 0.8523676 -0.4372782
v -0.3212928 0.8675053 -0.4223759
v -0.3212927 0.8707611 -0.396638
v -0.3212928 0.8598101 -0.3784365
v -0.3212928 0.8021318 -0.3711411
v -0.3212928 0.1240427 -0.3451624
v -0.3212926 0.1314842 -0.2863204
v -0.3212928 0.06835574 -0.3429899
v -0.3212927 0.06835574 -0.2836792
v -0.3212928 1.788139E-07 -0.284138
v -0.3212928 1.788139E-07 -0.3429899
v 0.2698857 0.1314842 -0.2863201
v 0.269886 0.2300598 -0.3116393
v 0.269886 0.7003567 -0.3711206
v 0.269886 0.1425344 -0.3005693
v 0.269886 0.7836401 -0.4157341
v -0.2698861 0.787883 -0.3821908
v -0.2698861 0.7836401 -0.4157344
v 0.2698861 0.787883 -0.3821906
v -0.2698858 0.1425344 -0.3005692
v 0.269886 0.2300598 -0.3116393
v 0.269886 0.1425344 -0.3005693
v 0.1927755 0.2300598 -0.3116392
v 0.1156655 0.2300598 -0.3116392
v 0.03855496 0.2300598 -0.3116391
v -0.03855496 0.2300598 -0.3116391
v -0.1156652 0.2300598 -0.3116394
v -0.1927758 0.2300598 -0.3116393
v -0.2698857 0.2300598 -0.3116392
v 0.2698861 0.787883 -0.3821906
v -0.2698861 0.7003567 -0.3711208
v -0.2698861 0.787883 -0.3821908
v -0.1927755 0.7003567 -0.3711209
v -0.1156653 0.7003567 -0.3711206
v -0.03855535 0.7003567 -0.3711206
v 0.03855524 0.7003567 -0.3711208
v 0.1156652 0.7003567 -0.3711208
v 0.1927758 0.7003567 -0.3711209
v 0.269886 0.7003567 -0.3711206
v -0.2698861 0.7836401 -0.4157344
v 0.269886 0.6961147 -0.4046641
v 0.269886 0.7836401 -0.4157341
v 0.1927757 0.6961147 -0.4046644
v 0.1156654 0.6961147 -0.4046647
v 0.0385552 0.6961147 -0.4046643
v -0.03855509 0.6961147 -0.4046645
v -0.1156657 0.6961147 -0.4046645
v -0.1927756 0.6961147 -0.4046644
v -0.2698862 0.6961147 -0.4046643
v 0.269886 0.1382915 -0.3341129
v -0.2698858 0.2258169 -0.3451828
v -0.2698858 0.1382915 -0.3341128
v -0.1927759 0.2258169 -0.3451828
v -0.1156653 0.2258169 -0.3451829
v -0.03855537 0.2258169 -0.3451829
v 0.03855522 0.2258169 -0.345183
v 0.1156655 0.2258169 -0.3451827
v 0.1927754 0.2258169 -0.3451828
v 0.269886 0.2258169 -0.3451829
v 0.03855496 0.2300598 -0.3116391
v -0.03855537 0.2258169 -0.3451829
v 0.03855522 0.2258169 -0.345183
v -0.03855496 0.2300598 -0.3116391
v -0.03855535 0.7003567 -0.3711206
v 0.0385552 0.6961147 -0.4046643
v -0.03855509 0.6961147 -0.4046645
v 0.03855524 0.7003567 -0.3711208
v -0.1156652 0.2300598 -0.3116394
v -0.1927759 0.2258169 -0.3451828
v -0.1156653 0.2258169 -0.3451829
v -0.1927758 0.2300598 -0.3116393
v 0.1156655 0.2258169 -0.3451827
v 0.1927755 0.2300598 -0.3116392
v 0.1156655 0.2300598 -0.3116392
v 0.1927754 0.2258169 -0.3451828
v 0.1156652 0.7003567 -0.3711208
v 0.1927757 0.6961147 -0.4046644
v 0.1156654 0.6961147 -0.4046647
v 0.1927758 0.7003567 -0.3711209
v -0.1156657 0.6961147 -0.4046645
v -0.1927755 0.7003567 -0.3711209
v -0.1156653 0.7003567 -0.3711206
v -0.1927756 0.6961147 -0.4046644
v 0.1927758 0.7003567 -0.3711209
v 0.1927754 0.2258169 -0.3451828
v 0.1927757 0.6961147 -0.4046644
v 0.1927755 0.2300598 -0.3116392
v 0.1156654 0.6961147 -0.4046647
v 0.1156655 0.2300598 -0.3116392
v 0.1156652 0.7003567 -0.3711208
v 0.1156655 0.2258169 -0.3451827
v 0.0385552 0.6961147 -0.4046643
v 0.1156655 0.2258169 -0.3451827
v 0.1156654 0.6961147 -0.4046647
v 0.03855522 0.2258169 -0.345183
v 0.03855524 0.7003567 -0.3711208
v 0.03855522 0.2258169 -0.345183
v 0.0385552 0.6961147 -0.4046643
v 0.03855496 0.2300598 -0.3116391
v 0.1156652 0.7003567 -0.3711208
v 0.03855496 0.2300598 -0.3116391
v 0.03855524 0.7003567 -0.3711208
v 0.1156655 0.2300598 -0.3116392
v -0.03855509 0.6961147 -0.4046645
v -0.03855496 0.2300598 -0.3116391
v -0.03855535 0.7003567 -0.3711206
v -0.03855537 0.2258169 -0.3451829
v -0.1156657 0.6961147 -0.4046645
v -0.03855537 0.2258169 -0.3451829
v -0.03855509 0.6961147 -0.4046645
v -0.1156653 0.2258169 -0.3451829
v -0.1156653 0.7003567 -0.3711206
v -0.1156653 0.2258169 -0.3451829
v -0.1156657 0.6961147 -0.4046645
v -0.1156652 0.2300598 -0.3116394
v -0.03855535 0.7003567 -0.3711206
v -0.1156652 0.2300598 -0.3116394
v -0.1156653 0.7003567 -0.3711206
v -0.03855496 0.2300598 -0.3116391
v -0.1927758 0.2300598 -0.3116393
v -0.1927756 0.6961147 -0.4046644
v -0.1927759 0.2258169 -0.3451828
v -0.1927755 0.7003567 -0.3711209
v 0.3212928 0.06835574 -0.2836794
v 0.321293 1.788139E-07 0.3429903
v 0.321293 0.06835574 0.3429903
v 0.3212931 1.788139E-07 -0.2841379
v 0.3212931 1.788139E-07 -0.2841379
v 0.2717687 1.788139E-07 0.2841379
v 0.3212929 1.788139E-07 0.2841378
v 0.2717683 1.788139E-07 -0.2841379

vn -0.6401367 0 -0.7680664
vn -0.6401367 0 -0.7680664
vn 0.6401367 0 0.7680664
vn 0.3408203 0.8964844 -0.2839355
vn 0.5473633 0.7016602 -0.4562988
vn 0.3408203 0.8964844 -0.2839355
vn 0.5473633 0.7016602 -0.4562988
vn 0.3408203 0.8964844 -0.2839355
vn 0.5473633 0.7016602 -0.4562988
vn 0.3408203 0.8964844 -0.2839355
vn 0.5473633 0.7016602 -0.4562988
vn 0.3408203 0.8964844 -0.2839355
vn 0.5473633 0.7016602 -0.4562988
vn 0.3408203 0.8964844 -0.2839355
vn 0.5473633 0.7016602 -0.4562988
vn -0.6401367 0 -0.7680664
vn -0.6401367 0 -0.7680664
vn -0.6401367 0 -0.7680664
vn -0.09637451 -0.9921875 0.08032227
vn -0.09637451 -0.9921875 0.08032227
vn -0.09637451 -0.9921875 0.08032227
vn -0.09637451 -0.9921875 0.08032227
vn -0.09637451 -0.9921875 0.08032227
vn -0.09637451 -0.9921875 0.08032227
vn 0.762207 -0.1254883 -0.6352539
vn 0.762207 -0.1254883 -0.6352539
vn 0.762207 -0.1254883 -0.6352539
vn 0.762207 -0.1254883 -0.6352539
vn 0.762207 -0.1254883 -0.6352539
vn 0.762207 -0.1254883 -0.6352539
vn -0.762207 0.1254883 0.6352539
vn -0.762207 0.1254883 0.6352539
vn -0.762207 0.1254883 0.6352539
vn -0.762207 0.1254883 0.6352539
vn -0.762207 0.1254883 0.6352539
vn -0.762207 0.1254883 0.6352539
vn 0.762207 -0.1254883 -0.6352539
vn 0.762207 -0.1254883 -0.6352539
vn 0.762207 -0.1254883 -0.6352539
vn 0.762207 -0.1254883 -0.6352539
vn 0.762207 -0.1254883 -0.6352539
vn 0.762207 -0.1254883 -0.6352539
vn -0.762207 0.1254883 0.6352539
vn -0.762207 0.1254883 0.6352539
vn -0.762207 0.1254883 0.6352539
vn -0.762207 0.1254883 0.6352539
vn -0.762207 0.1254883 0.6352539
vn -0.762207 0.1254883 0.6352539
vn 0 -1 0
vn 0 -1 0
vn 0 -1 0
vn 0 -1 0
vn 0 1 0
vn 0 1 0
vn 0 1 0
vn 0 1 0
vn 0 1 0
vn 0 1 0
vn 0 1 0
vn 0 1 0
vn 0 1 0
vn -0.7680664 0 0.6401367
vn -0.7680664 0 0.6401367
vn -0.7680664 0 0.6401367
vn -0.7680664 0 0.6401367
vn -0.7680664 0 0.6401367
vn -0.7680664 0 0.6401367
vn 0.7680664 0 -0.6401367
vn 0.7680664 0 -0.6401367
vn 0.7680664 0 -0.6401367
vn 0.7680664 0 -0.6401367
vn -0.6401367 0 -0.7680664
vn -0.6401367 0 -0.7680664
vn -0.6401367 0 -0.7680664
vn -0.6401367 0 -0.7680664
vn -0.6401367 0 -0.7680664
vn 0 -1 0
vn 0 -1 0
vn 0 -1 0
vn 0 -1 0
vn 0 -1 0
vn 0 -1 0
vn 0 -1 0
vn 0 -1 0
vn 0 -1 0
vn 0 -1 0
vn 0 -1 0
vn 0 -1 0
vn 0 -1 0
vn 0 -1 0
vn 0 -1 0
vn 0 -1 0
vn 0 -1 0
vn 0 -1 0
vn 0 -1 0
vn 0 -1 0
vn 0 -1 0
vn 0 -1 0
vn 0 -1 0
vn 0 -1 0
vn 0.6401367 0 0.7680664
vn 0.6401367 0 0.7680664
vn 0.6401367 0 0.7680664
vn 0.6401367 0 0.7680664
vn 0.6401367 0 0.7680664
vn 0.6401367 0 0.7680664
vn 0.6401367 0 0.7680664
vn 0.6401367 0 0.7680664
vn -0.6401367 0 -0.7680664
vn 0.6401367 0 0.7680664
vn 0.6401367 0 0.7680664
vn 0.6401367 0 0.7680664
vn 0.6401367 0 0.7680664
vn 0.6401367 0 0.7680664
vn 0.6401367 0 0.7680664
vn 0.6401367 0 0.7680664
vn 0.6401367 0 0.7680664
vn 0.6401367 0 0.7680664
vn 0.6401367 0 0.7680664
vn 0.6401367 0 0.7680664
vn -0.7666016 -0.0625 0.6391602
vn -0.7666016 -0.0625 0.6391602
vn -0.7666016 -0.0625 0.6391602
vn -0.7666016 -0.0625 0.6391602
vn -0.7680664 0 0.6401367
vn -0.7680664 0 0.6401367
vn -0.7680664 0 0.6401367
vn -0.7680664 0 0.6401367
vn -0.6401367 0 -0.7680664
vn -0.6401367 0 -0.7680664
vn -0.6401367 0 -0.7680664
vn -0.6401367 0 -0.7680664
vn -0.6401367 0 -0.7680664
vn -0.6401367 0 -0.7680664
vn -0.6401367 0 -0.7680664
vn -0.6513672 -0.003694534 -0.7587891
vn 0.7680664 0 -0.6401367
vn 0.7680664 0 -0.6401367
vn 0.7680664 0 -0.6401367
vn 0.7680664 0 -0.6401367
vn 0.7680664 0 -0.6401367
vn 0.7680664 0 -0.6401367
vn 0.7680664 0 -0.6401367
vn 0.7680664 0 -0.6401367
vn 0.7675781 -0.03897095 -0.6396484
vn 0.7675781 -0.03897095 -0.6396484
vn 0.7675781 -0.03897095 -0.6396484
vn 0.7675781 -0.03897095 -0.6396484
vn -0.6401367 0 -0.7680664
vn -0.6401367 0 -0.7680664
vn -0.6401367 0 -0.7680664
vn -0.6401367 0 -0.7680664
vn -0.6401367 0 -0.7680664
vn -0.6401367 0 -0.7680664
vn -0.6401367 0 -0.7680664
vn -0.6401367 0 -0.7680664
vn 0.7666016 -0.06536865 -0.6386719
vn 0.7666016 -0.06536865 -0.6386719
vn 0.7666016 -0.06536865 -0.6386719
vn 0.7666016 -0.06536865 -0.6386719
vn 0.7680664 0 -0.6401367
vn 0.7680664 0 -0.6401367
vn 0.7680664 0 -0.6401367
vn 0.7680664 0 -0.6401367
vn 0.6401367 0 0.7680664
vn 0.6401367 0 0.7680664
vn 0.6401367 0 0.7680664
vn 0.6401367 0 0.7680664
vn 0.6401367 0 0.7680664
vn 0.6401367 0 0.7680664
vn 0.6401367 0 0.7680664
vn 0.6401367 0 0.7680664
vn -0.7680664 0 0.6401367
vn -0.7680664 0 0.6401367
vn -0.7680664 0 0.6401367
vn -0.7680664 0 0.6401367
vn -0.7680664 0 0.6401367
vn -0.7680664 0 0.6401367
vn -0.7680664 0 0.6401367
vn -0.7680664 0 0.6401367
vn -0.7680664 0 0.6401367
vn -0.7680664 0 0.6401367
vn -0.7680664 0 0.6401367
vn -0.7680664 0 0.6401367
vn -0.7680664 0 0.6401367
vn -0.7680664 0 0.6401367
vn -0.7680664 0 0.6401367
vn -0.7680664 0 0.6401367
vn -0.6401367 0 -0.7680664
vn -0.6401367 0 -0.7680664
vn -0.6401367 0 -0.7680664
vn -0.6401367 0 -0.7680664
vn -0.6401367 0 -0.7680664
vn -0.6401367 0 -0.7680664
vn -0.6401367 0 -0.7680664
vn -0.6401367 0 -0.7680664
vn 0.7666016 -0.06536865 -0.6386719
vn 0.7666016 -0.06536865 -0.6386719
vn 0.7666016 -0.06536865 -0.6386719
vn 0.7666016 -0.06536865 -0.6386719
vn 0.7680664 0 -0.6401367
vn 0.7680664 0 -0.6401367
vn 0.7680664 0 -0.6401367
vn 0.7680664 0 -0.6401367
vn 0.6401367 0 0.7680664
vn 0.6401367 0 0.7680664
vn 0.6401367 0 0.7680664
vn 0.6401367 0 0.7680664
vn 0.6401367 0 0.7680664
vn 0.6401367 0 0.7680664
vn 0.6401367 0 0.7680664
vn 0.6401367 0 0.7680664
vn 0 -1 0
vn 0 -1 0
vn 0 -1 0
vn 0 -1 0
vn 0 1 0
vn 0 1 0
vn 0 1 0
vn 0 1 0
vn 0.7680664 0 -0.6401367
vn 0.7680664 0 -0.6401367
vn 0.7680664 0 -0.6401367
vn 0.7680664 0 -0.6401367
vn -0.7680664 0 0.6401367
vn -0.7680664 0 0.6401367
vn -0.7680664 0 0.6401367
vn -0.7680664 0 0.6401367
vn 0 -1 0
vn 0 -1 0
vn 0 -1 0
vn 0 -1 0
vn 0 1 0
vn 0 1 0
vn 0 1 0
vn 0 1 0
vn 0.6401367 0 0.7680664
vn 0.6401367 0 0.7680664
vn 0.6401367 0 0.7680664
vn 0.6401367 0 0.7680664
vn -0.6401367 0 -0.7680664
vn -0.6401367 0 -0.7680664
vn -0.6401367 0 -0.7680664
vn -0.6401367 0 -0.7680664
vn 0 -1 0
vn 0 -1 0
vn 0 -1 0
vn 0 -1 0
vn -0.6401367 0 -0.7680664
vn -0.6401367 0 -0.7680664
vn -0.6401367 0 -0.7680664
vn -0.6401367 0 -0.7680664
vn -0.6401367 0 -0.7680664
vn -0.6401367 0 -0.7680664
vn -0.6401367 0 -0.7680664
vn -0.6401367 0 -0.7680664
vn 0.7680664 0 -0.6401367
vn 0.7680664 0 -0.6401367
vn 0.7680664 0 -0.6401367
vn 0.7680664 0 -0.6401367
vn 0.7680664 0 -0.6401367
vn 0.7680664 0 -0.6401367
vn 0.7680664 0 -0.6401367
vn 0.7680664 0 -0.6401367
vn 0.6401367 0 0.7680664
vn 0.6401367 0 0.7680664
vn 0.6401367 0 0.7680664
vn 0.6401367 0 0.7680664
vn 0.6401367 0 0.7680664
vn 0.6401367 0 0.7680664
vn 0.6401367 0 0.7680664
vn 0.6401367 0 0.7680664
vn -0.7666016 -0.0625 0.6391602
vn -0.7666016 -0.0625 0.6391602
vn -0.7666016 -0.0625 0.6391602
vn -0.7666016 -0.0625 0.6391602
vn -0.7680664 0 0.6401367
vn -0.7680664 0 0.6401367
vn -0.7680664 0 0.6401367
vn -0.7680664 0 0.6401367
vn 0 -1 0
vn 0 -1 0
vn 0 -1 0
vn 0 -1 0
vn 0 1 0
vn 0 1 0
vn 0 1 0
vn 0 1 0
vn 0.7680664 0 -0.6401367
vn 0.7680664 0 -0.6401367
vn 0.7680664 0 -0.6401367
vn 0.7680664 0 -0.6401367
vn -0.7680664 0 0.6401367
vn -0.7680664 0 0.6401367
vn -0.7680664 0 0.6401367
vn -0.7680664 0 0.6401367
vn 0 -1 0
vn 0 -1 0
vn 0 -1 0
vn 0 -1 0
vn 0 1 0
vn 0 1 0
vn 0 1 0
vn 0 1 0
vn -0.6401367 0 -0.7680664
vn -0.6401367 0 -0.7680664
vn -0.6401367 0 -0.7680664
vn -0.6401367 0 -0.7680664
vn 0.6401367 0 0.7680664
vn 0.6401367 0 0.7680664
vn 0.6401367 0 0.7680664
vn 0.6401367 0 0.7680664
vn 0.3408203 0.8964844 -0.2839355
vn -0.1585693 0.9785156 0.1322021
vn 0.3408203 0.8964844 -0.2839355
vn -0.1585693 0.9785156 0.1322021
vn -0.3959961 0.8569336 0.3300781
vn -0.3959961 0.8569336 0.3300781
vn 0.3408203 0.8964844 -0.2839355
vn -0.1585693 0.9785156 0.1322021
vn 0.3408203 0.8964844 -0.2839355
vn -0.1585693 0.9785156 0.1322021
vn -0.3959961 0.8569336 0.3300781
vn -0.3959961 0.8569336 0.3300781
vn -0.7675781 0.04180908 0.6396484
vn -0.7675781 0.04180908 0.6396484
vn -0.7675781 0.04180908 0.6396484
vn -0.7675781 0.04180908 0.6396484
vn 0.6401367 0 0.7680664
vn 0.6401367 0 0.7680664
vn 0.6176758 0.03182983 0.7861328
vn 0.6401367 0 0.7680664
vn 0.6401367 0 0.7680664
vn 0.6401367 0 0.7680664
vn 0.6401367 0 0.7680664
vn 0.6401367 0 0.7680664
vn 0.6401367 0 0.7680664
vn 0.6401367 0 0.7680664
vn 0.6401367 0 0.7680664
vn 0.6401367 0 0.7680664
vn 0.6401367 0 0.7680664
vn 0.6401367 0 0.7680664
vn 0.6401367 0 0.7680664
vn 0.6401367 0 0.7680664
vn 0.6401367 0 0.7680664
vn 0.6401367 0 0.7680664
vn 0.7675781 -0.03897095 -0.6396484
vn 0.7675781 -0.03897095 -0.6396484
vn 0.7675781 -0.03897095 -0.6396484
vn 0.7675781 -0.03897095 -0.6396484
vn 0.7680664 0 -0.6401367
vn 0.7680664 0 -0.6401367
vn -0.6425781 -0.02438354 -0.7661133
vn -0.6425781 -0.02438354 -0.7661133
vn -0.6225586 -0.0009622574 -0.7827148
vn -0.6425781 -0.02438354 -0.7661133
vn -0.6401367 0 -0.7680664
vn -0.6401367 0 -0.7680664
vn -0.6401367 0 -0.7680664
vn -0.6401367 0 -0.7680664
vn -0.6401367 0 -0.7680664
vn -0.6401367 0 -0.7680664
vn -0.6401367 0 -0.7680664
vn -0.6401367 0 -0.7680664
vn -0.6401367 0 -0.7680664
vn -0.6401367 0 -0.7680664
vn -0.6401367 0 -0.7680664
vn -0.6401367 0 -0.7680664
vn -0.7675781 0.04180908 0.6396484
vn -0.7675781 0.04180908 0.6396484
vn -0.7675781 0.04180908 0.6396484
vn -0.7675781 0.04180908 0.6396484
vn -0.762207 0.1254883 0.6352539
vn -0.762207 0.1254883 0.6352539
vn -0.762207 0.1254883 0.6352539
vn -0.762207 0.1254883 0.6352539
vn -0.762207 0.1254883 0.6352539
vn -0.762207 0.1254883 0.6352539
vn 0.762207 -0.1254883 -0.6352539
vn 0.762207 -0.1254883 -0.6352539
vn 0.762207 -0.1254883 -0.6352539
vn 0.762207 -0.1254883 -0.6352539
vn 0.762207 -0.1254883 -0.6352539
vn 0.762207 -0.1254883 -0.6352539
vn 0.762207 -0.1254883 -0.6352539
vn 0.762207 -0.1254883 -0.6352539
vn 0.762207 -0.1254883 -0.6352539
vn 0.762207 -0.1254883 -0.6352539
vn 0.762207 -0.1254883 -0.6352539
vn 0.762207 -0.1254883 -0.6352539
vn -0.762207 0.1254883 0.6352539
vn -0.762207 0.1254883 0.6352539
vn -0.762207 0.1254883 0.6352539
vn -0.762207 0.1254883 0.6352539
vn -0.762207 0.1254883 0.6352539
vn -0.762207 0.1254883 0.6352539
vn -0.6401367 0 -0.7680664
vn -0.6401367 0 -0.7680664
vn -0.6401367 0 -0.7680664
vn -0.6401367 0 -0.7680664
vn -0.6401367 0 -0.7680664
vn -0.6401367 0 -0.7680664
vn -0.6401367 0 -0.7680664
vn -0.6401367 0 -0.7680664
vn -0.6401367 0 -0.7680664
vn -0.6401367 0 -0.7680664
vn -0.6401367 0 -0.7680664
vn -0.6401367 0 -0.7680664
vn -0.6401367 0 -0.7680664
vn -0.6401367 0 -0.7680664
vn -0.6401367 0 -0.7680664
vn -0.6401367 0 -0.7680664
vn 0.09637451 0.9921875 -0.08032227
vn 0.09637451 0.9921875 -0.08032227
vn 0.09637451 0.9921875 -0.08032227
vn 0.09637451 0.9921875 -0.08032227
vn -0.762207 0.1254883 0.6352539
vn -0.762207 0.1254883 0.6352539
vn -0.762207 0.1254883 0.6352539
vn -0.762207 0.1254883 0.6352539
vn -0.762207 0.1254883 0.6352539
vn -0.762207 0.1254883 0.6352539
vn -0.762207 0.1254883 0.6352539
vn -0.762207 0.1254883 0.6352539
vn -0.762207 0.1254883 0.6352539
vn -0.762207 0.1254883 0.6352539
vn -0.762207 0.1254883 0.6352539
vn -0.762207 0.1254883 0.6352539
vn -0.762207 0.1254883 0.6352539
vn -0.762207 0.1254883 0.6352539
vn -0.762207 0.1254883 0.6352539
vn -0.762207 0.1254883 0.6352539
vn -0.762207 0.1254883 0.6352539
vn -0.762207 0.1254883 0.6352539
vn -0.762207 0.1254883 0.6352539
vn -0.762207 0.1254883 0.6352539
vn 0.762207 -0.1254883 -0.6352539
vn 0.762207 -0.1254883 -0.6352539
vn 0.762207 -0.1254883 -0.6352539
vn 0.762207 -0.1254883 -0.6352539
vn 0.762207 -0.1254883 -0.6352539
vn 0.762207 -0.1254883 -0.6352539
vn 0.762207 -0.1254883 -0.6352539
vn 0.762207 -0.1254883 -0.6352539
vn 0.762207 -0.1254883 -0.6352539
vn 0.762207 -0.1254883 -0.6352539
vn 0.762207 -0.1254883 -0.6352539
vn 0.762207 -0.1254883 -0.6352539
vn 0.762207 -0.1254883 -0.6352539
vn 0.762207 -0.1254883 -0.6352539
vn 0.762207 -0.1254883 -0.6352539
vn 0.762207 -0.1254883 -0.6352539
vn 0.762207 -0.1254883 -0.6352539
vn 0.762207 -0.1254883 -0.6352539
vn 0.762207 -0.1254883 -0.6352539
vn 0.762207 -0.1254883 -0.6352539
vn 0.09637451 0.9921875 -0.08032227
vn 0.09637451 0.9921875 -0.08032227
vn 0.09637451 0.9921875 -0.08032227
vn 0.09637451 0.9921875 -0.08032227
vn -0.09637451 -0.9921875 0.08032227
vn -0.09637451 -0.9921875 0.08032227
vn -0.09637451 -0.9921875 0.08032227
vn -0.09637451 -0.9921875 0.08032227
vn 0.09637451 0.9921875 -0.08032227
vn 0.09637451 0.9921875 -0.08032227
vn 0.09637451 0.9921875 -0.08032227
vn 0.09637451 0.9921875 -0.08032227
vn 0.09637451 0.9921875 -0.08032227
vn 0.09637451 0.9921875 -0.08032227
vn 0.09637451 0.9921875 -0.08032227
vn 0.09637451 0.9921875 -0.08032227
vn -0.09637451 -0.9921875 0.08032227
vn -0.09637451 -0.9921875 0.08032227
vn -0.09637451 -0.9921875 0.08032227
vn -0.09637451 -0.9921875 0.08032227
vn -0.09637451 -0.9921875 0.08032227
vn -0.09637451 -0.9921875 0.08032227
vn -0.09637451 -0.9921875 0.08032227
vn -0.09637451 -0.9921875 0.08032227
vn -0.6401367 0 -0.7680664
vn -0.6401367 0 -0.7680664
vn -0.6401367 0 -0.7680664
vn -0.6401367 0 -0.7680664
vn 0.6401367 0 0.7680664
vn 0.6401367 0 0.7680664
vn 0.6401367 0 0.7680664
vn 0.6401367 0 0.7680664
vn 0.762207 -0.1254883 -0.6352539
vn 0.762207 -0.1254883 -0.6352539
vn 0.762207 -0.1254883 -0.6352539
vn 0.762207 -0.1254883 -0.6352539
vn -0.6401367 0 -0.7680664
vn -0.6401367 0 -0.7680664
vn -0.6401367 0 -0.7680664
vn -0.6401367 0 -0.7680664
vn -0.762207 0.1254883 0.6352539
vn -0.762207 0.1254883 0.6352539
vn -0.762207 0.1254883 0.6352539
vn -0.762207 0.1254883 0.6352539
vn 0.6401367 0 0.7680664
vn 0.6401367 0 0.7680664
vn 0.6401367 0 0.7680664
vn 0.6401367 0 0.7680664
vn 0.762207 -0.1254883 -0.6352539
vn 0.762207 -0.1254883 -0.6352539
vn 0.762207 -0.1254883 -0.6352539
vn 0.762207 -0.1254883 -0.6352539
vn -0.6401367 0 -0.7680664
vn -0.6401367 0 -0.7680664
vn -0.6401367 0 -0.7680664
vn -0.6401367 0 -0.7680664
vn -0.762207 0.1254883 0.6352539
vn -0.762207 0.1254883 0.6352539
vn -0.762207 0.1254883 0.6352539
vn -0.762207 0.1254883 0.6352539
vn 0.6401367 0 0.7680664
vn 0.6401367 0 0.7680664
vn 0.6401367 0 0.7680664
vn 0.6401367 0 0.7680664
vn 0.6401367 0 0.7680664
vn 0.6401367 0 0.7680664
vn 0.6401367 0 0.7680664
vn 0.6401367 0 0.7680664
vn 0 -1 0
vn 0 -1 0
vn 0 -1 0
vn 0 -1 0

vt 0.06573486 0.3366699
vt 0.06573486 0.3366699
vt 0.06585693 0.3535156
vt 0.498291 0.2174072
vt 0.4853516 0.213501
vt 0.4853516 0.2174072
vt 0.4853516 0.213501
vt 0.498291 0.2174072
vt 0.498291 0.213501
vt 0.01268005 0.3659668
vt -6.169081E-05 0.3620605
vt -6.169081E-05 0.3659668
vt -6.169081E-05 0.3620605
vt 0.01268005 0.3659668
vt 0.01268005 0.3620605
vt 0.06866455 0.01574707
vt 0.04788208 0.1553955
vt 0.0451355 0.1768799
vt 0.3896484 0.361084
vt 0.3808594 0.489502
vt 0.3728027 0.4980469
vt 0.3808594 0.489502
vt 0.3896484 0.361084
vt 0.3757324 0.3637695
vt 0.4240723 0.2391357
vt 0.4431152 0.3554688
vt 0.4431152 0.2391357
vt 0.07006836 0.3359375
vt 0.05111694 0.2196045
vt 0.05111694 0.3359375
vt 0.416748 0.3757324
vt 0.435791 0.4919434
vt 0.435791 0.3757324
vt 0.435791 0.4992676
vt 0.416748 0.3830566
vt 0.416748 0.4992676
vt 0.07495117 0.248291
vt 0.05599976 0.1318359
vt 0.05599976 0.248291
vt 0.3776855 0.2366943
vt 0.3967285 0.3530273
vt 0.3967285 0.2366943
vt 0.4550781 0.4992676
vt 0.4362793 0.3830566
vt 0.4362793 0.4992676
vt 0.3972168 0.373291
vt 0.4162598 0.489502
vt 0.4162598 0.373291
vt 0.1656494 0.4980469
vt 0.2983398 0.3586426
vt 0.1656494 0.3586426
vt 0.2983398 0.4980469
vt 0.2283936 0.1540527
vt 0.2156982 0.1540527
vt 0.2283936 0.1540527
vt 0.2283936 0.0002501011
vt 0.08325195 0.1540527
vt 0.2160645 0.1687012
vt 0.0836792 0.1687012
vt 0.07061768 0.1540527
vt 0.07061768 0.0002501011
vt 0.3747559 0.0002501011
vt 0.3867188 0.01702881
vt 0.3867188 0.0002501011
vt 0.2419434 0.0002501011
vt 0.229126 0.0002501011
vt 0.229126 0.01702881
vt 0.3518066 0.2120361
vt 0.2193604 0.1953125
vt 0.2193604 0.2120361
vt 0.3520508 0.1953125
vt 0.3735352 0.03924561
vt 0.3879395 0.05603027
vt 0.3879395 0.03924561
vt 0.2340088 0.05603027
vt 0.2338867 0.03924561
vt 0.3664551 0.09777832
vt 0.2340088 0.1121826
vt 0.3666992 0.1121826
vt 0.2338867 0.09777832
vt 0.3520508 0.168457
vt 0.2193604 0.1828613
vt 0.3520508 0.1828613
vt 0.2193604 0.168457
vt 0.3144531 0.4980469
vt 0.3271484 0.3586426
vt 0.3144531 0.3586426
vt 0.3271484 0.4980469
vt 0.4460449 0.03881836
vt 0.458252 0.02949524
vt 0.4460449 0.02949524
vt 0.458252 0.03881836
vt 0.4587402 0.01487732
vt 0.4460449 0.0239563
vt 0.4587402 0.0239563
vt 0.4460449 0.01487732
vt 0.03161621 0.2919922
vt 0.04379272 0.282959
vt 0.03161621 0.282959
vt 0.04379272 0.2919922
vt 0.01982117 0.1367188
vt 0.02912903 0.21875
vt 0.02912903 0.1367188
vt 0.01467896 0.21875
vt 0.02912903 0.227417
vt 0.01467896 0.227417
vt 0.02912903 0.2851563
vt 0.01467896 0.2851563
vt 0.01467896 0.2851563
vt 0.02912903 0.302002
vt 0.01456451 0.302002
vt 0.01456451 0.302002
vt 0.02966309 0.3156738
vt 0.01521301 0.317627
vt 0.05047607 0.4802246
vt 0.03604126 0.4821777
vt 0.05227661 0.4943848
vt 0.0486145 0.498291
vt 0.04229736 0.4990234
vt 0.03781128 0.4963379
vt 0.3679199 0.3310547
vt 0.3557129 0.2489014
vt 0.3557129 0.3310547
vt 0.3679199 0.2489014
vt 0.114502 0.2878418
vt 0.126709 0.3457031
vt 0.126709 0.2878418
vt 0.114502 0.3457031
vt 0.3361816 0.333252
vt 0.3217773 0.2512207
vt 0.3217773 0.333252
vt 0.3310547 0.2512207
vt 0.2485352 0.2489014
vt 0.2629395 0.3066406
vt 0.2629395 0.2489014
vt 0.2485352 0.3066406
vt -6.169081E-05 0.002687454
vt 0.01221466 0.08538818
vt 0.01221466 0.002687454
vt -6.169081E-05 0.08538818
vt 0.01221466 0.09405518
vt -6.169081E-05 0.09405518
vt 0.01242828 0.1523438
vt -6.169081E-05 0.1523438
vt -6.169081E-05 0.1693115
vt 0.01233673 0.1693115
vt 0.01268005 0.1829834
vt -6.169081E-05 0.1829834
vt 0.07598877 0.3513184
vt 0.08508301 0.4333496
vt 0.08508301 0.3513184
vt 0.07061768 0.4333496
vt 0.08508301 0.4418945
vt 0.07061768 0.4418945
vt 0.08508301 0.4997559
vt 0.07061768 0.4997559
vt 0.04446411 0.2822266
vt 0.03161621 0.2000732
vt 0.03161621 0.2822266
vt 0.04446411 0.2000732
vt 0.1656494 0.2902832
vt 0.1785889 0.3481445
vt 0.1785889 0.2902832
vt 0.1656494 0.3481445
vt 0.3215332 0.3356934
vt 0.3071289 0.2536621
vt 0.3071289 0.3356934
vt 0.3161621 0.2536621
vt 0.229126 0.2489014
vt 0.2435303 0.3066406
vt 0.2435303 0.2489014
vt 0.229126 0.3066406
vt 0.1218262 0.3513184
vt 0.1346436 0.4333496
vt 0.1346436 0.3513184
vt 0.1218262 0.4333496
vt 0.1346436 0.4418945
vt 0.1218262 0.4418945
vt 0.1346436 0.4997559
vt 0.1218262 0.4997559
vt 0.4484863 0.2171631
vt 0.4606934 0.2993164
vt 0.4606934 0.2171631
vt 0.4484863 0.2993164
vt 0.4606934 0.3078613
vt 0.4484863 0.3078613
vt 0.4606934 0.3657227
vt 0.4484863 0.3657227
vt 0.302002 0.3308105
vt 0.2929688 0.2489014
vt 0.2875977 0.3308105
vt 0.302002 0.2489014
vt 0.07550049 0.2878418
vt 0.08996582 0.3457031
vt 0.08996582 0.2878418
vt 0.07550049 0.3457031
vt 0.4338379 0.2043457
vt 0.4216309 0.1221313
vt 0.4216309 0.2043457
vt 0.4338379 0.1221313
vt 0.151123 0.2878418
vt 0.163208 0.3457031
vt 0.163208 0.2878418
vt 0.151123 0.3457031
vt 0.1047363 0.3513184
vt 0.1192017 0.4333496
vt 0.1138306 0.3513184
vt 0.1047363 0.4333496
vt 0.1192017 0.4418945
vt 0.1047363 0.4418945
vt 0.1192017 0.4997559
vt 0.1047363 0.4997559
vt 0.0803833 0.1976318
vt 0.2131348 0.2121582
vt 0.2131348 0.1976318
vt 0.0803833 0.2121582
vt 0.0803833 0.1806641
vt 0.2131348 0.1950684
vt 0.2131348 0.1806641
vt 0.0803833 0.1950684
vt 0.3666992 0.1416016
vt 0.2338867 0.1502686
vt 0.3666992 0.1502686
vt 0.2338867 0.1416016
vt 0.3520508 0.1855469
vt 0.2193604 0.1940918
vt 0.3520508 0.1940918
vt 0.2193604 0.1855469
vt 0.3557129 0.3586426
vt 0.34375 0.4980469
vt 0.3557129 0.4980469
vt 0.34375 0.3586426
vt 0.3581543 0.4980469
vt 0.3703613 0.3586426
vt 0.3581543 0.3586426
vt 0.3703613 0.4980469
vt 0.3735352 0.07714844
vt 0.2338867 0.06848145
vt 0.2338867 0.07714844
vt 0.3735352 0.06848145
vt 0.3735352 0.05874634
vt 0.2338867 0.06738281
vt 0.3735352 0.06738281
vt 0.2338867 0.05874634
vt 0.4587402 0.0002501011
vt 0.4460449 0.009559631
vt 0.4587402 0.009559631
vt 0.4460449 0.0002501011
vt 0.08770752 0.3513184
vt 0.1021118 0.4333496
vt 0.09698486 0.3513184
vt 0.08770752 0.4333496
vt 0.1021118 0.4418945
vt 0.08770752 0.4418945
vt 0.1021118 0.4997559
vt 0.08770752 0.4997559
vt 0.1364746 0.3513184
vt 0.149292 0.4333496
vt 0.149292 0.3513184
vt 0.1364746 0.4333496
vt 0.1364746 0.4418945
vt 0.149292 0.4418945
vt 0.149292 0.4997559
vt 0.1364746 0.4997559
vt 0.2824707 0.3308105
vt 0.2731934 0.2489014
vt 0.2680664 0.3308105
vt 0.2824707 0.2489014
vt 0.09503174 0.2878418
vt 0.109436 0.3457031
vt 0.109436 0.2878418
vt 0.09503174 0.3457031
vt 0.3491211 0.3310547
vt 0.3364258 0.2489014
vt 0.3364258 0.3310547
vt 0.3491211 0.2489014
vt 0.1315918 0.2878418
vt 0.1444092 0.3457031
vt 0.1444092 0.2878418
vt 0.1315918 0.3457031
vt 0.3666992 0.1657715
vt 0.2338867 0.1513672
vt 0.2338867 0.1657715
vt 0.3666992 0.1513672
vt 0.3666992 0.1292725
vt 0.2338867 0.1148071
vt 0.2338867 0.1292725
vt 0.3666992 0.1148071
vt 0.0803833 0.1708984
vt 0.2131348 0.1794434
vt 0.2131348 0.1708984
vt 0.0803833 0.1794434
vt 0.3666992 0.1318359
vt 0.2338867 0.1405029
vt 0.3666992 0.1405029
vt 0.2338867 0.1318359
vt 0.2998047 0.4980469
vt 0.3125 0.3586426
vt 0.2998047 0.3586426
vt 0.3125 0.4980469
vt 0.3417969 0.3586426
vt 0.3291016 0.4980469
vt 0.3417969 0.4980469
vt 0.3291016 0.3586426
vt 0.3735352 0.0880127
vt 0.2338867 0.09661865
vt 0.3735352 0.09661865
vt 0.2338867 0.0880127
vt 0.3735352 0.07824707
vt 0.2338867 0.08685303
vt 0.3735352 0.08685303
vt 0.2338867 0.07824707
vt 0.4987793 0.4206543
vt 0.4851074 0.4177246
vt 0.4851074 0.4206543
vt 0.4987793 0.4177246
vt 0.4851074 0.4125977
vt 0.4987793 0.4125977
vt 0.479248 0.3378906
vt 0.4655762 0.3349609
vt 0.4655762 0.3378906
vt 0.479248 0.3349609
vt 0.4655762 0.329834
vt 0.479248 0.329834
vt 0.4987793 0.234375
vt 0.4851074 0.2196045
vt 0.4851074 0.234375
vt 0.4987793 0.2196045
vt 0.03161621 0.3024902
vt 0.04672241 0.3161621
vt 0.0461731 0.3024902
vt 0.0322876 0.3181152
vt 0.04400635 0.3195801
vt 0.0357666 0.3208008
vt 0.05310059 0.482666
vt 0.03848267 0.3422852
vt 0.04672241 0.3410645
vt 0.06134033 0.456543
vt 0.06402588 0.4780273
vt 0.05310059 0.4577637
vt 0.06756592 0.4807129
vt 0.05581665 0.479248
vt 0.06933594 0.494873
vt 0.06567383 0.4987793
vt 0.05935669 0.4995117
vt 0.05490112 0.4968262
vt 0.498291 0.0335083
vt 0.4851074 0.0196991
vt 0.4853516 0.0335083
vt 0.498291 0.0196991
vt 0.498291 0.002687454
vt 0.4853516 0.002687454
vt 0.05477905 0.0002501011
vt 0.06866455 0.01574707
vt 0.06933594 0.0002503395
vt 0.05422974 0.01392365
vt 0.06518555 0.01846313
vt 0.0569458 0.01742554
vt 0.03341675 0.1785889
vt 0.05422974 0.03890991
vt 0.03964233 0.1544189
vt 0.03692627 0.1759033
vt 0.04785156 0.1804199
vt 0.0451355 0.1768799
vt 0.04608154 0.1945801
vt 0.04159546 0.1972656
vt 0.03527832 0.1964111
vt 0.03161621 0.192749
vt 0.479248 0.1514893
vt 0.4655762 0.1367188
vt 0.4655762 0.1514893
vt 0.479248 0.1367188
vt 0.4851074 0.234375
vt 0.4987793 0.3984375
vt 0.4987793 0.234375
vt 0.4851074 0.3984375
vt 0.4987793 0.4125977
vt 0.4851074 0.4125977
vt 0.4853516 0.0335083
vt 0.498291 0.1992188
vt 0.498291 0.0335083
vt 0.4853516 0.1992188
vt 0.498291 0.213501
vt 0.4853516 0.213501
vt -6.169081E-05 0.1829834
vt 0.01268005 0.3479004
vt 0.01268005 0.1829834
vt -6.169081E-05 0.3479004
vt 0.01268005 0.3620605
vt -6.169081E-05 0.3620605
vt 0.4655762 0.1514893
vt 0.479248 0.3156738
vt 0.479248 0.1514893
vt 0.4655762 0.3156738
vt 0.479248 0.329834
vt 0.4655762 0.329834
vt 0.4428711 0.1977539
vt 0.4411621 0.2119141
vt 0.4448242 0.2156982
vt 0.4511719 0.2164307
vt 0.4555664 0.2137451
vt 0.4572754 0.199585
vt 0.4638672 0.03314209
vt 0.4782715 0.03497314
vt 0.4643555 0.01947021
vt 0.4787598 0.01947021
vt 0.4787598 0.002687454
vt 0.4643555 0.002687454
vt 0.06866455 0.01574707
vt 0.06246948 0.03994751
vt 0.04788208 0.1553955
vt 0.06518555 0.01846313
vt 0.2193604 0.2147217
vt 0.3518066 0.2230225
vt 0.3518066 0.2147217
vt 0.2193604 0.2230225
vt 0.0803833 0.2634277
vt 0.2128906 0.2851563
vt 0.2128906 0.2634277
vt 0.1939697 0.2851563
vt 0.1750488 0.2851563
vt 0.1561279 0.2851563
vt 0.137207 0.2851563
vt 0.1182251 0.2851563
vt 0.0993042 0.2851563
vt 0.0803833 0.2851563
vt 0.2128906 0.2607422
vt 0.0803833 0.2391357
vt 0.0803833 0.2607422
vt 0.0993042 0.2391357
vt 0.1182251 0.2391357
vt 0.137207 0.2391357
vt 0.1561279 0.2391357
vt 0.1750488 0.2391357
vt 0.1939697 0.2391357
vt 0.2128906 0.2391357
vt 0.3518066 0.2462158
vt 0.2193604 0.2244873
vt 0.2193604 0.2462158
vt 0.2382813 0.2244873
vt 0.2570801 0.2244873
vt 0.276123 0.2244873
vt 0.2949219 0.2244873
vt 0.3139648 0.2244873
vt 0.3330078 0.2244873
vt 0.3518066 0.2244873
vt 0.0803833 0.2147217
vt 0.2128906 0.2364502
vt 0.2128906 0.2147217
vt 0.1939697 0.2364502
vt 0.1750488 0.2364502
vt 0.1561279 0.2364502
vt 0.137207 0.2364502
vt 0.1182251 0.2364502
vt 0.0993042 0.2364502
vt 0.0803833 0.2364502
vt 0.1802979 0.298584
vt 0.1992188 0.2902832
vt 0.1802979 0.2902832
vt 0.1992188 0.298584
vt 0.4216309 0.2230225
vt 0.4406738 0.2147217
vt 0.4216309 0.2147217
vt 0.4406738 0.2230225
vt 0.2436523 0.3156738
vt 0.2626953 0.307373
vt 0.2436523 0.307373
vt 0.2626953 0.3156738
vt 0.1992188 0.3049316
vt 0.1802979 0.3132324
vt 0.1992188 0.3132324
vt 0.1802979 0.3049316
vt 0.3483887 0.3400879
vt 0.3674316 0.3317871
vt 0.3483887 0.3317871
vt 0.3674316 0.3400879
vt 0.2626953 0.3171387
vt 0.2436523 0.3254395
vt 0.2626953 0.3254395
vt 0.2436523 0.3171387
vt 0.3908691 0.1192017
vt 0.3972168 0.002687454
vt 0.3825684 0.1181641
vt 0.4055176 0.003728867
vt 0.480957 0.4838867
vt 0.458252 0.3693848
vt 0.4729004 0.4848633
vt 0.4665527 0.3684082
vt 0.4455566 0.1166382
vt 0.4265137 0.0002501011
vt 0.4265137 0.1166382
vt 0.4455566 0.0002501011
vt 0.3737793 0.1826172
vt 0.380127 0.06604004
vt 0.3654785 0.1815186
vt 0.3884277 0.06707764
vt 0.4211426 0.3579102
vt 0.4020996 0.2415771
vt 0.4020996 0.3579102
vt 0.4211426 0.2415771
vt 0.4711914 0.4934082
vt 0.4484863 0.3791504
vt 0.4631348 0.4946289
vt 0.4567871 0.3781738
vt 0.4016113 0.236084
vt 0.3825684 0.1196899
vt 0.3825684 0.236084
vt 0.4016113 0.1196899
vt 0.4006348 0.1167603
vt 0.4069824 0.0002501011
vt 0.392334 0.1157227
vt 0.4152832 0.001291275
vt 0.4211426 0.2385254
vt 0.4020996 0.1221313
vt 0.4020996 0.2385254
vt 0.4211426 0.1221313
vt 0.4655762 0.3400879
vt 0.4882813 0.4545898
vt 0.4736328 0.3391113
vt 0.4802246 0.4555664
vt 0.3876953 0.03652954
vt 0.2338867 0.01974487
vt 0.2338867 0.03652954
vt 0.3879395 0.01974487
vt 0.163208 0.3586426
vt 0.151123 0.4980469
vt 0.163208 0.4980469
vt 0.151123 0.3586426

g Chair_1941_117
usemtl Chair_1941_117
usemap Chair_1941_117
f 1/1/1 3/3/3 2/2/2
f 4/4/4 6/6/6 5/5/5
f 7/7/7 9/9/9 8/8/8
f 10/10/10 12/12/12 11/11/11
f 13/13/13 15/15/15 14/14/14
f 16/16/16 18/18/18 17/17/17
f 19/19/19 21/21/21 20/20/20
f 22/22/22 24/24/24 23/23/23
f 25/25/25 27/27/27 26/26/26
f 28/28/28 30/30/30 29/29/29
f 31/31/31 33/33/33 32/32/32
f 34/34/34 36/36/36 35/35/35
f 37/37/37 39/39/39 38/38/38
f 40/40/40 42/42/42 41/41/41
f 43/43/43 45/45/45 44/44/44
f 46/46/46 48/48/48 47/47/47
f 49/49/49 51/51/51 50/50/50
f 50/50/50 52/52/52 49/49/49
f 53/53/53 55/55/55 54/54/54
f 56/56/56 53/53/53 54/54/54
f 56/56/56 54/54/54 57/57/57
f 57/57/57 54/54/54 58/58/58
f 58/58/58 59/59/59 57/57/57
f 56/56/56 57/57/57 60/60/60
f 56/56/56 60/60/60 61/61/61
f 62/62/62 64/64/64 63/63/63
f 62/62/62 63/63/63 65/65/65
f 63/63/63 66/66/66 65/65/65
f 63/63/63 67/67/67 66/66/66
f 68/68/68 70/70/70 69/69/69
f 69/69/69 71/71/71 68/68/68
f 72/72/72 74/74/74 73/73/73
f 72/72/72 73/73/73 75/75/75
f 72/72/72 75/75/75 76/76/76
f 77/77/77 79/79/79 78/78/78
f 78/78/78 80/80/80 77/77/77
f 81/81/81 83/83/83 82/82/82
f 82/82/82 84/84/84 81/81/81
f 85/85/85 87/87/87 86/86/86
f 85/85/85 86/86/86 88/88/88
f 89/89/89 91/91/91 90/90/90
f 90/90/90 92/92/92 89/89/89
f 93/93/93 95/95/95 94/94/94
f 94/94/94 96/96/96 93/93/93
f 97/97/97 99/99/99 98/98/98
f 98/98/98 100/100/100 97/97/97
f 101/101/101 103/103/103 102/102/102
f 102/102/102 104/104/104 101/101/101
f 104/104/104 102/102/102 105/105/105
f 105/105/105 106/106/106 104/104/104
f 106/106/106 105/105/105 107/107/107
f 107/107/107 108/108/108 106/106/106
f 109/109/109 107/107/107 110/110/110
f 109/109/109 110/110/110 111/111/111
f 110/110/110 112/112/112 111/111/111
f 112/112/112 110/110/110 113/113/113
f 113/113/113 114/114/114 112/112/112
f 114/114/114 113/113/113 115/115/115
f 115/115/115 116/116/116 114/114/114
f 116/116/116 115/115/115 117/117/117
f 116/116/116 117/117/117 118/118/118
f 116/116/116 118/118/118 119/119/119
f 116/116/116 119/119/119 120/120/120
f 121/121/121 123/123/123 122/122/122
f 122/122/122 124/124/124 121/121/121
f 125/125/125 127/127/127 126/126/126
f 126/126/126 128/128/128 125/125/125
f 129/129/129 131/131/131 130/130/130
f 130/130/130 132/132/132 129/129/129
f 133/133/133 135/135/135 134/134/134
f 134/134/134 136/136/136 133/133/133
f 137/137/137 139/139/139 138/138/138
f 138/138/138 140/140/140 137/137/137
f 140/140/140 138/138/138 141/141/141
f 141/141/141 142/142/142 140/140/140
f 142/142/142 141/141/141 143/143/143
f 143/143/143 144/144/144 142/142/142
f 145/145/145 144/144/144 143/143/143
f 143/143/143 146/146/146 145/145/145
f 145/145/145 146/146/146 147/147/147
f 147/147/147 148/148/148 145/145/145
f 149/149/149 151/151/151 150/150/150
f 150/150/150 152/152/152 149/149/149
f 152/152/152 150/150/150 153/153/153
f 153/153/153 154/154/154 152/152/152
f 154/154/154 153/153/153 155/155/155
f 155/155/155 156/156/156 154/154/154
f 157/157/157 159/159/159 158/158/158
f 158/158/158 160/160/160 157/157/157
f 161/161/161 163/163/163 162/162/162
f 162/162/162 164/164/164 161/161/161
f 165/165/165 167/167/167 166/166/166
f 166/166/166 168/168/168 165/165/165
f 169/169/169 171/171/171 170/170/170
f 170/170/170 172/172/172 169/169/169
f 173/173/173 175/175/175 174/174/174
f 174/174/174 176/176/176 173/173/173
f 176/176/176 174/174/174 177/177/177
f 177/177/177 178/178/178 176/176/176
f 178/178/178 177/177/177 179/179/179
f 179/179/179 180/180/180 178/178/178
f 181/181/181 183/183/183 182/182/182
f 182/182/182 184/184/184 181/181/181
f 184/184/184 182/182/182 185/185/185
f 185/185/185 186/186/186 184/184/184
f 186/186/186 185/185/185 187/187/187
f 187/187/187 188/188/188 186/186/186
f 189/189/189 191/191/191 190/190/190
f 190/190/190 192/192/192 189/189/189
f 193/193/193 195/195/195 194/194/194
f 194/194/194 196/196/196 193/193/193
f 197/197/197 199/199/199 198/198/198
f 198/198/198 200/200/200 197/197/197
f 201/201/201 203/203/203 202/202/202
f 202/202/202 204/204/204 201/201/201
f 205/205/205 207/207/207 206/206/206
f 206/206/206 208/208/208 205/205/205
f 208/208/208 206/206/206 209/209/209
f 209/209/209 210/210/210 208/208/208
f 210/210/210 209/209/209 211/211/211
f 211/211/211 212/212/212 210/210/210
f 213/213/213 215/215/215 214/214/214
f 214/214/214 216/216/216 213/213/213
f 217/217/217 219/219/219 218/218/218
f 218/218/218 220/220/220 217/217/217
f 221/221/221 223/223/223 222/222/222
f 222/222/222 224/224/224 221/221/221
f 225/225/225 227/227/227 226/226/226
f 226/226/226 228/228/228 225/225/225
f 229/229/229 231/231/231 230/230/230
f 230/230/230 232/232/232 229/229/229
f 233/233/233 235/235/235 234/234/234
f 234/234/234 236/236/236 233/233/233
f 237/237/237 239/239/239 238/238/238
f 238/238/238 240/240/240 237/237/237
f 241/241/241 243/243/243 242/242/242
f 242/242/242 244/244/244 241/241/241
f 245/245/245 247/247/247 246/246/246
f 246/246/246 248/248/248 245/245/245
f 249/249/249 251/251/251 250/250/250
f 250/250/250 252/252/252 249/249/249
f 252/252/252 250/250/250 253/253/253
f 253/253/253 254/254/254 252/252/252
f 254/254/254 253/253/253 255/255/255
f 255/255/255 256/256/256 254/254/254
f 257/257/257 259/259/259 258/258/258
f 258/258/258 260/260/260 257/257/257
f 261/261/261 260/260/260 258/258/258
f 258/258/258 262/262/262 261/261/261
f 261/261/261 262/262/262 263/263/263
f 263/263/263 264/264/264 261/261/261
f 265/265/265 267/267/267 266/266/266
f 266/266/266 268/268/268 265/265/265
f 269/269/269 271/271/271 270/270/270
f 270/270/270 272/272/272 269/269/269
f 273/273/273 275/275/275 274/274/274
f 274/274/274 276/276/276 273/273/273
f 277/277/277 279/279/279 278/278/278
f 278/278/278 280/280/280 277/277/277
f 281/281/281 283/283/283 282/282/282
f 282/282/282 284/284/284 281/281/281
f 285/285/285 287/287/287 286/286/286
f 286/286/286 288/288/288 285/285/285
f 289/289/289 291/291/291 290/290/290
f 290/290/290 292/292/292 289/289/289
f 293/293/293 295/295/295 294/294/294
f 294/294/294 296/296/296 293/293/293
f 297/297/297 299/299/299 298/298/298
f 298/298/298 300/300/300 297/297/297
f 301/301/301 303/303/303 302/302/302
f 302/302/302 304/304/304 301/301/301
f 305/305/305 307/307/307 306/306/306
f 306/306/306 308/308/308 305/305/305
f 309/309/309 311/311/311 310/310/310
f 310/310/310 312/312/312 309/309/309
f 313/313/313 315/315/315 314/314/314
f 314/314/314 316/316/316 313/313/313
f 316/316/316 314/314/314 317/317/317
f 317/317/317 318/318/318 316/316/316
f 319/319/319 321/321/321 320/320/320
f 320/320/320 322/322/322 319/319/319
f 322/322/322 320/320/320 323/323/323
f 323/323/323 324/324/324 322/322/322
f 325/325/325 327/327/327 326/326/326
f 326/326/326 328/328/328 325/325/325
f 329/329/329 331/331/331 330/330/330
f 330/330/330 332/332/332 329/329/329
f 332/332/332 330/330/330 333/333/333
f 333/333/333 334/334/334 332/332/332
f 335/335/335 332/332/332 334/334/334
f 335/335/335 334/334/334 336/336/336
f 330/330/330 337/337/337 333/333/333
f 330/330/330 338/338/338 337/337/337
f 330/330/330 339/339/339 338/338/338
f 335/335/335 336/336/336 340/340/340
f 330/330/330 341/341/341 339/339/339
f 342/342/342 339/339/339 341/341/341
f 335/335/335 340/340/340 342/342/342
f 341/341/341 335/335/335 342/342/342
f 335/335/335 341/341/341 343/343/343
f 335/335/335 343/343/343 344/344/344
f 335/335/335 344/344/344 345/345/345
f 335/335/335 345/345/345 346/346/346
f 347/347/347 349/349/349 348/348/348
f 348/348/348 350/350/350 347/347/347
f 351/351/351 350/350/350 348/348/348
f 348/348/348 352/352/352 351/351/351
f 353/353/353 355/355/355 354/354/354
f 354/354/354 356/356/356 353/353/353
f 356/356/356 354/354/354 357/357/357
f 357/357/357 358/358/358 356/356/356
f 359/359/359 356/356/356 358/358/358
f 359/359/359 358/358/358 360/360/360
f 359/359/359 360/360/360 361/361/361
f 359/359/359 361/361/361 362/362/362
f 363/363/363 359/359/359 362/362/362
f 354/354/354 363/363/363 364/364/364
f 362/362/362 364/364/364 363/363/363
f 359/359/359 363/363/363 365/365/365
f 359/359/359 365/365/365 366/366/366
f 359/359/359 366/366/366 367/367/367
f 359/359/359 367/367/367 368/368/368
f 369/369/369 371/371/371 370/370/370
f 370/370/370 372/372/372 369/369/369
f 373/373/373 375/375/375 374/374/374
f 374/374/374 376/376/376 373/373/373
f 376/376/376 374/374/374 377/377/377
f 377/377/377 378/378/378 376/376/376
f 379/379/379 381/381/381 380/380/380
f 380/380/380 382/382/382 379/379/379
f 382/382/382 380/380/380 383/383/383
f 383/383/383 384/384/384 382/382/382
f 385/385/385 387/387/387 386/386/386
f 386/386/386 388/388/388 385/385/385
f 388/388/388 386/386/386 389/389/389
f 389/389/389 390/390/390 388/388/388
f 391/391/391 393/393/393 392/392/392
f 392/392/392 394/394/394 391/391/391
f 394/394/394 392/392/392 395/395/395
f 395/395/395 396/396/396 394/394/394
f 397/397/397 399/399/399 398/398/398
f 397/397/397 400/400/400 399/399/399
f 397/397/397 401/401/401 400/400/400
f 397/397/397 402/402/402 401/401/401
f 402/402/402 397/397/397 403/403/403
f 403/403/403 404/404/404 402/402/402
f 404/404/404 403/403/403 405/405/405
f 405/405/405 406/406/406 404/404/404
f 406/406/406 405/405/405 407/407/407
f 405/405/405 408/408/408 407/407/407
f 409/409/409 411/411/411 410/410/410
f 409/409/409 410/410/410 412/412/412
f 413/413/413 415/415/415 414/414/414
f 414/414/414 416/416/416 413/413/413
f 417/417/417 419/419/419 418/418/418
f 417/417/417 418/418/418 420/420/420
f 417/417/417 420/420/420 421/421/421
f 417/417/417 421/421/421 422/422/422
f 417/417/417 422/422/422 423/423/423
f 417/417/417 423/423/423 424/424/424
f 417/417/417 424/424/424 425/425/425
f 417/417/417 425/425/425 426/426/426
f 427/427/427 429/429/429 428/428/428
f 427/427/427 428/428/428 430/430/430
f 427/427/427 430/430/430 431/431/431
f 427/427/427 431/431/431 432/432/432
f 427/427/427 432/432/432 433/433/433
f 427/427/427 433/433/433 434/434/434
f 427/427/427 434/434/434 435/435/435
f 427/427/427 435/435/435 436/436/436
f 437/437/437 439/439/439 438/438/438
f 437/437/437 438/438/438 440/440/440
f 437/437/437 440/440/440 441/441/441
f 437/437/437 441/441/441 442/442/442
f 437/437/437 442/442/442 443/443/443
f 437/437/437 443/443/443 444/444/444
f 437/437/437 444/444/444 445/445/445
f 437/437/437 445/445/445 446/446/446
f 447/447/447 449/449/449 448/448/448
f 447/447/447 448/448/448 450/450/450
f 447/447/447 450/450/450 451/451/451
f 447/447/447 451/451/451 452/452/452
f 447/447/447 452/452/452 453/453/453
f 447/447/447 453/453/453 454/454/454
f 447/447/447 454/454/454 455/455/455
f 447/447/447 455/455/455 456/456/456
f 457/457/457 459/459/459 458/458/458
f 458/458/458 460/460/460 457/457/457
f 461/461/461 463/463/463 462/462/462
f 462/462/462 464/464/464 461/461/461
f 465/465/465 467/467/467 466/466/466
f 466/466/466 468/468/468 465/465/465
f 469/469/469 471/471/471 470/470/470
f 470/470/470 472/472/472 469/469/469
f 473/473/473 475/475/475 474/474/474
f 474/474/474 476/476/476 473/473/473
f 477/477/477 479/479/479 478/478/478
f 478/478/478 480/480/480 477/477/477
f 481/481/481 483/483/483 482/482/482
f 482/482/482 484/484/484 481/481/481
f 485/485/485 487/487/487 486/486/486
f 486/486/486 488/488/488 485/485/485
f 489/489/489 491/491/491 490/490/490
f 490/490/490 492/492/492 489/489/489
f 493/493/493 495/495/495 494/494/494
f 494/494/494 496/496/496 493/493/493
f 497/497/497 499/499/499 498/498/498
f 498/498/498 500/500/500 497/497/497
f 501/501/501 503/503/503 502/502/502
f 502/502/502 504/504/504 501/501/501
f 505/505/505 507/507/507 506/506/506
f 506/506/506 508/508/508 505/505/505
f 509/509/509 511/511/511 510/510/510
f 510/510/510 512/512/512 509/509/509
f 513/513/513 515/515/515 514/514/514
f 514/514/514 516/516/516 513/513/513
f 517/517/517 519/519/519 518/518/518
f 518/518/518 520/520/520 517/517/517
f 521/521/521 523/523/523 522/522/522
f 522/522/522 524/524/524 521/521/521
f 525/525/525 527/527/527 526/526/526
f 526/526/526 528/528/528 525/525/525
