#Curtains_1984_12.obj

v 1.078076 -1.235108 0.06530285
v 1.110497 -0.9514145 0.03010654
v 1.099471 -1.244991 0.0368166
v -0.8349504 0.4462057 0.0374651
v -0.9389467 0.0649153 0.05773449
v -1.120452 -0.2571777 0.05152416
v -1.068719 -1.235108 0.06530285
v -1.090112 -1.244991 0.0368166
v -1.101138 -0.9514145 0.03010654
v -1.077689 -0.258386 0.08702946
v -1.120452 -0.2571777 0.05152416
v -0.9389467 0.0649153 0.05773449
v 0.7056513 0.4545504 0.1006956
v 0.6131239 0.8933617 0.05028057
v 0.7405958 0.4459254 0.04754162
v 0.9081736 0.06304324 0.0940218
v 1.136313 -0.2565674 0.04330921
v 1.063464 0.06979907 0.02175808
v 1.156978 -0.2486509 0.008364677
v 1.153213 -0.5672821 0.04360485
v 1.129811 -0.2571777 0.05152416
v 1.010892 0.06482184 0.0269022
v 0.8443098 0.4462057 0.0374651
v 0.05971813 1.186112 0.05735302
v 0.138196 0.9251658 0.04178143
v 0.00121212 1.186112 0.0569582
v 0.1746702 0.925306 0.05390263
v 0.4031439 0.4700524 0.0245409
v 0.1027117 1.186112 0.05252552
v 0.4409666 0.4735953 0.05806828
v 0.2175455 0.9251658 0.06825161
v 0.1496725 1.18528 0.05523014
v 0.7674971 0.06846392 0.08453465
v 0.264348 0.9245583 0.07153416
v 0.2090101 1.180961 0.05861759
v 0.5466738 0.4732319 0.08668613
v 0.9833307 -0.2697996 0.08498096
v 0.9367399 -0.2766231 0.06270504
v 0.7369757 0.06397116 0.06180096
v 1.021218 -0.5567621 0.05794239
v 1.034482 -0.5584739 0.08035755
v 1.024161 -0.267423 0.0922842
v 0.8246603 0.07163203 0.08816624
v 1.065436 -0.559131 0.08683491
v 1.02604 -0.9285024 0.07610416
v 1.087047 -0.258386 0.08702946
v 1.088891 -0.5610937 0.0818243
v 1.035937 -0.9319729 0.08133411
v 1.008862 -1.199544 0.07885838
v 1.024234 -1.20594 0.08470249
v 1.043906 -0.9339241 0.07205677
v 1.050471 -1.220658 0.06969738
v 1.086246 -0.9406217 0.05630207
v 1.078076 -1.235108 0.06530285
v 1.110497 -0.9514145 0.03010654
v 1.118266 -0.562858 0.07152271
v 1.143495 -0.5662464 0.04448223
v 1.129811 -0.2571777 0.05152416
v 1.153213 -0.5672821 0.04360485
v 0.9483061 0.0649153 0.05773449
v 0.8443098 0.4462057 0.0374651
v 1.125455 -0.958382 0.042449
v 1.099471 -1.244991 0.0368166
v 1.120666 -1.252854 0.0545454
v 1.132953 -0.9522127 0.04689884
v 1.189052 -1.246237 0.02104282
v 1.182113 -0.5527834 0.02153301
v 1.156978 -0.2486509 0.008364677
v 1.173352 -0.9331878 0.01922512
v 1.200213 -0.9220861 0.0387907
v 1.237042 -1.238846 0.05676365
v 1.168534 -0.2437376 0.008524895
v 1.226954 -0.9036955 0.0510397
v 1.291778 -1.251666 0.0109663
v 1.095654 0.07344782 -0.003546715
v 1.063464 0.06979907 0.02175808
v 1.206138 -0.2320246 0.02790356
v 1.210843 -0.5317863 0.03217793
v 1.237254 0.07868445 0.01592541
v 1.24437 -0.530002 0.008353233
v 1.259545 -0.9073261 0.006556511
v 1.282016 -0.9054607 -0.03816128
v 1.3156 -1.254379 -0.03394032
v 1.26401 -0.5178818 -0.03488445
v 1.256452 -0.2359155 -0.02611446
v 1.271056 0.4535462 -0.003739357
v 1.275504 1.18447 0.04387569
v 1.251706 1.18447 0.05744076
v 1.189807 0.07967055 0.04431629
v 1.220954 1.18447 0.06020069
v 1.195779 1.184168 0.0600462
v 1.157325 0.08098662 0.03208256
v 1.142608 0.4659067 0.03477383
v 1.146028 1.181865 0.05664158
v 1.123288 0.07738459 -0.007544518
v 1.077409 0.9128882 0.06676579
v 1.078032 1.176427 0.05387592
v 1.028312 1.172537 0.05052662
v 1.086682 0.4667059 0.01850605
v 1.034047 0.9102589 0.05003071
v 0.9558611 1.17195 0.05668926
v 1.046119 0.4638706 0.02865887
v 1.012462 0.4590489 0.03452206
v 0.8760061 1.167597 0.05154705
v 1.032002 0.06652319 0.02819157
v 1.136313 -0.2565674 0.04330921
v 1.010892 0.06482184 0.0269022
v 0.9489546 0.452767 0.0440855
v 0.8827085 0.4492422 0.01932621
v 0.8307772 0.8997561 0.041255
v 0.8116026 1.164725 0.05686665
v 0.7492247 1.168212 0.05636501
v 0.7839136 0.4430186 0.05150127
v 0.6601934 1.169889 0.0635004
v 0.7405958 0.4459254 0.04754162
v 0.6131239 0.8933617 0.05028057
v 0.9081736 0.06304324 0.0940218
v 0.5430155 1.162429 0.0619669
v 0.4976664 0.9121758 0.08925724
v 0.4362764 1.175068 0.06991863
v 0.7056513 0.4545504 0.1006956
v 0.6601858 0.4574772 0.1036558
v 0.4335051 0.919027 0.08276272
v 0.3513346 1.179303 0.06236362
v 0.854661 0.06892169 0.08964062
v 0.6168146 0.4611784 0.07936573
v 0.3668318 0.9207436 0.06635761
v 0.2779341 1.177345 0.05697727
v 0.9964075 -0.9209141 -0.00673008
v 1.008862 -1.199544 0.07885838
v 0.9718924 -1.190874 -0.004698753
v 1.02604 -0.9285024 0.07610416
v 1.021218 -0.5567621 0.05794239
v 1.034482 -0.5584739 0.08035755
v 1.009397 -0.5538028 0.02469921
v 0.9367399 -0.2766231 0.06270504
v 1.010415 -0.5392326 0.0007257462
v 0.9216986 -0.277037 0.02989292
v 0.9296179 -0.2760662 0.006419182
v 0.7369757 0.06397116 0.06180096
v 0.7048368 0.05712759 0.02779102
v 0.4031439 0.4700524 0.0245409
v 0.4409666 0.4735953 0.05806828
v 0.7674971 0.06846392 0.08453465
v 1.178735 -0.3869728 0.06136608
v 1.217584 -0.3007244 0.05198193
v 1.218017 -0.3648857 0.05064106
v 1.103066 -0.4228185 0.0850935
v 1.112317 -0.3255562 0.08261776
v 1.063264 -0.4386963 0.09353542
v 1.040957 -0.3373417 0.09519672
v 0.9935675 -0.4544967 0.08111286
v 0.9646864 -0.343758 0.07879162
v 0.9440908 -0.343758 0.06324482
v 0.9729719 -0.4544967 0.06556606
v 0.9729719 -0.4544967 0.06556606
v 0.9293776 -0.343758 0.01822948
v 0.9440908 -0.343758 0.06324482
v 0.9582586 -0.4544967 0.02055073
v 0.9357882 -0.343758 -0.03241062
v 0.9646692 -0.4544967 -0.03008938
v 1.271636 -0.3392147 -0.05413723
v 1.24994 -0.3007244 0.008898735
v 1.271203 -0.3007244 -0.05279446
v 1.250373 -0.3492979 0.007557869
v 1.217584 -0.3007244 0.05198193
v 1.218017 -0.3648857 0.05064106
v 1.216681 -0.3672184 0.05029392
v 1.170695 -0.3898443 0.05998707
v 0.9406652 -0.3424343 0.0203371
v 0.9357882 -0.343758 -0.03241062
v 0.9465628 -0.3424343 -0.02624798
v 0.9293776 -0.343758 0.01822948
v 0.9542017 -0.3424343 0.06174755
v 0.9440908 -0.343758 0.06324482
v 0.9731474 -0.3424343 0.07604885
v 0.9646864 -0.343758 0.07879162
v 1.043309 -0.336532 0.09113789
v 1.040957 -0.3373417 0.09519672
v 1.108953 -0.3256906 0.07956791
v 1.112317 -0.3255562 0.08261776
v 1.205787 -0.3028473 0.05138683
v 1.217584 -0.3007244 0.05198193
v 1.235551 -0.3028473 0.01175404
v 1.24994 -0.3007244 0.008898735
v 1.255111 -0.3028473 -0.04499912
v 1.271203 -0.3007244 -0.05279446
v 1.218017 -0.3648857 0.05064106
v 1.170695 -0.3898443 0.05998707
v 1.178735 -0.3869728 0.06136608
v 1.102305 -0.4222416 0.08143139
v 1.103066 -0.4228185 0.0850935
v 1.066331 -0.4365925 0.08906269
v 1.063264 -0.4386963 0.09353542
v 1.003339 -0.4508728 0.07783604
v 0.9935675 -0.4544967 0.08111286
v 0.984725 -0.4508728 0.06378269
v 0.9729719 -0.4544967 0.06556606
v 0.971427 -0.4508728 0.02309895
v 0.9582586 -0.4544967 0.02055073
v 0.9772196 -0.4508728 -0.0226717
v 0.9646692 -0.4544967 -0.03008938
v 1.216681 -0.3672184 0.05029392
v 1.250373 -0.3492979 0.007557869
v 1.240817 -0.3504385 0.0113554
v 1.271636 -0.3392147 -0.05413723
v 1.260036 -0.3403543 -0.04440594
v -1.327483 1.166127 0.06144428
v 1.338117 1.166127 0.06144428
v 1.338117 1.183056 0.03814411
v -1.327483 1.183056 0.03814411
v -1.327483 1.183056 0.03814411
v 1.338117 1.183056 0.03814411
v 1.338117 1.210448 0.0470438
v -1.327483 1.210448 0.0470438
v -1.327483 1.210448 0.0470438
v 1.338117 1.210448 0.0470438
v 1.338117 1.210448 0.07584476
v -1.327483 1.210448 0.07584476
v -1.327483 1.210448 0.07584476
v 1.338117 1.210448 0.07584476
v 1.338117 1.183056 0.08474636
v -1.327483 1.183056 0.08474636
v -1.327483 1.183056 0.08474636
v 1.338117 1.183056 0.08474636
v 1.338117 1.166127 0.06144428
v -1.327483 1.166127 0.06144428
v 1.298486 1.161911 0.09196949
v 1.344214 1.220602 0.09196949
v 1.344214 1.161911 0.09196949
v 1.298486 1.220602 0.09196949
v 1.298486 1.128134 -0.1036577
v 1.344214 1.161911 0.09196949
v 1.344214 1.128134 -0.1036577
v 1.298486 1.161911 0.09196949
v 1.344214 1.128134 -0.1036577
v 1.344214 1.220602 0.09196949
v 1.344214 1.254378 -0.1036577
v 1.344214 1.161911 0.09196949
v 1.344214 1.254378 -0.1036577
v 1.298486 1.220602 0.09196949
v 1.298486 1.254378 -0.1036577
v 1.344214 1.220602 0.09196949
v 1.298486 1.254378 -0.1036577
v 1.298486 1.161911 0.09196949
v 1.298486 1.128134 -0.1036577
v 1.298486 1.220602 0.09196949
v -1.344216 1.161911 0.09196949
v -1.29849 1.220602 0.09196949
v -1.29849 1.161911 0.09196949
v -1.344216 1.220602 0.09196949
v -1.344216 1.128134 -0.1036577
v -1.29849 1.161911 0.09196949
v -1.29849 1.128134 -0.1036577
v -1.344216 1.161911 0.09196949
v -1.29849 1.128134 -0.1036577
v -1.29849 1.220602 0.09196949
v -1.29849 1.254378 -0.1036577
v -1.29849 1.161911 0.09196949
v -1.29849 1.254378 -0.1036577
v -1.344216 1.220602 0.09196949
v -1.344216 1.254378 -0.1036577
v -1.29849 1.220602 0.09196949
v -1.344216 1.254378 -0.1036577
v -1.344216 1.161911 0.09196949
v -1.344216 1.128134 -0.1036577
v -1.344216 1.220602 0.09196949
v -0.6962919 0.4545504 0.1006956
v -0.7312365 0.4459254 0.04754162
v -0.6037645 0.8933617 0.05028057
v -0.8988142 0.06304324 0.0940218
v -1.126956 -0.2565674 0.04330921
v -1.147618 -0.2486509 0.008364677
v -1.054105 0.06979907 0.02175808
v -1.143855 -0.5672821 0.04360485
v -1.120452 -0.2571777 0.05152416
v -1.001534 0.06482184 0.0269022
v -0.8349504 0.4462057 0.0374651
v -0.05035877 1.186112 0.05735302
v 0.00814724 1.186112 0.0569582
v -0.1288385 0.9251658 0.04178143
v -0.1653128 0.925306 0.05390263
v -0.3937864 0.4700524 0.0245409
v -0.09335423 1.186112 0.05252552
v -0.4316072 0.4735953 0.05806828
v -0.2081881 0.9251658 0.06825161
v -0.1403151 1.18528 0.05523014
v -0.7581377 0.06846392 0.08453465
v -0.2549887 0.9245583 0.07153416
v -0.1996527 1.180961 0.05861759
v -0.5373163 0.4732319 0.08668613
v -0.9739714 -0.2697996 0.08498096
v -0.9273806 -0.2766231 0.06270504
v -1.011861 -0.5567621 0.05794239
v -1.025125 -0.5584739 0.08035755
v -1.014804 -0.267423 0.0922842
v -0.8153009 0.07163203 0.08816624
v -1.077689 -0.258386 0.08702946
v -1.056079 -0.559131 0.08683491
v -1.016683 -0.9285024 0.07610416
v -1.02658 -0.9319729 0.08133411
v -0.999505 -1.199544 0.07885838
v -1.014876 -1.20594 0.08470249
v -1.079532 -0.5610937 0.0818243
v -1.034549 -0.9339241 0.07205677
v -1.041114 -1.220658 0.06969738
v -1.076886 -0.9406217 0.05630207
v -1.068719 -1.235108 0.06530285
v -1.101138 -0.9514145 0.03010654
v -1.108907 -0.562858 0.07152271
v -1.134137 -0.5662464 0.04448223
v -1.120452 -0.2571777 0.05152416
v -1.143855 -0.5672821 0.04360485
v -1.116097 -0.958382 0.042449
v -1.090112 -1.244991 0.0368166
v -1.111306 -1.252854 0.0545454
v -1.123593 -0.9522127 0.04689884
v -1.179692 -1.246237 0.02104282
v -1.172753 -0.5527834 0.02153301
v -1.147618 -0.2486509 0.008364677
v -1.163993 -0.9331878 0.01922512
v -1.190854 -0.9220861 0.0387907
v -1.227683 -1.238846 0.05676365
v -1.159177 -0.2437376 0.008524895
v -1.217597 -0.9036955 0.0510397
v -1.282418 -1.251666 0.0109663
v -1.086295 0.07344782 -0.003546715
v -1.054105 0.06979907 0.02175808
v -1.196778 -0.2320246 0.02790356
v -1.201484 -0.5317863 0.03217793
v -1.227897 0.07868445 0.01592541
v -1.235011 -0.530002 0.008353233
v -1.250188 -0.9073261 0.006556511
v -1.272656 -0.9054607 -0.03816128
v -1.306243 -1.254379 -0.03394032
v -1.254653 -0.5178818 -0.03488445
v -1.247092 -0.2359155 -0.02611446
v -1.261697 0.4535462 -0.003739357
v -1.266147 1.18447 0.04387569
v -1.242347 1.18447 0.05744076
v -1.180448 0.07967055 0.04431629
v -1.211595 1.18447 0.06020069
v -1.186419 1.184168 0.0600462
v -1.147965 0.08098662 0.03208256
v -1.13325 0.4659067 0.03477383
v -1.136668 1.181865 0.05664158
v -1.113929 0.07738459 -0.007544518
v -1.068051 0.9128882 0.06676579
v -1.068675 1.176427 0.05387592
v -1.018954 1.172537 0.05052662
v -1.077323 0.4667059 0.01850605
v -1.024688 0.9102589 0.05003071
v -0.9465017 1.17195 0.05668926
v -1.036761 0.4638706 0.02865887
v -1.003102 0.4590489 0.03452206
v -0.8666487 1.167597 0.05154705
v -1.022645 0.06652319 0.02819157
v -1.126956 -0.2565674 0.04330921
v -1.001534 0.06482184 0.0269022
v -0.9395971 0.452767 0.0440855
v -0.8733511 0.4492422 0.01932621
v -0.8349504 0.4462057 0.0374651
v -0.8214178 0.8997561 0.041255
v -0.8022451 1.164725 0.05686665
v -0.7398672 1.168212 0.05636501
v -0.7745543 0.4430186 0.05150127
v -0.650836 1.169889 0.0635004
v -0.9389467 0.0649153 0.05773449
v -0.7312365 0.4459254 0.04754162
v -0.6037645 0.8933617 0.05028057
v -0.8988142 0.06304324 0.0940218
v -0.5336561 1.162429 0.0619669
v -0.488307 0.9121758 0.08925724
v -0.426919 1.175068 0.06991863
v -0.6962919 0.4545504 0.1006956
v -0.6508265 0.4574772 0.1036558
v -0.4241476 0.919027 0.08276272
v -0.3419752 1.179303 0.06236362
v -0.8453016 0.06892169 0.08964062
v -0.6074572 0.4611784 0.07936573
v -0.3574724 0.9207436 0.06635761
v -0.2685766 1.177345 0.05697727
v -0.9870481 -0.9209141 -0.00673008
v -0.9625349 -1.190874 -0.004698753
v -0.999505 -1.199544 0.07885838
v -1.016683 -0.9285024 0.07610416
v -1.011861 -0.5567621 0.05794239
v -1.025125 -0.5584739 0.08035755
v -1.000037 -0.5538028 0.02469921
v -1.001058 -0.5392326 0.0007257462
v -0.9273806 -0.2766231 0.06270504
v -0.9123392 -0.277037 0.02989292
v -0.9202604 -0.2760662 0.006419182
v -0.7276182 0.06397116 0.06180096
v -0.7581377 0.06846392 0.08453465
v -0.4316072 0.4735953 0.05806828
v -0.6954794 0.05712759 0.02779102
v -0.3937864 0.4700524 0.0245409
v -1.169377 -0.3869728 0.06136608
v -1.208659 -0.3648857 0.05064106
v -1.208226 -0.3007244 0.05198193
v -1.093709 -0.4228185 0.0850935
v -1.10296 -0.3255562 0.08261776
v -1.053905 -0.4386963 0.09353542
v -1.0316 -0.3373417 0.09519672
v -0.98421 -0.4544967 0.08111286
v -0.9553289 -0.343758 0.07879162
v -0.9347334 -0.343758 0.06324482
v -0.9636145 -0.4544967 0.06556606
v -0.9636145 -0.4544967 0.06556606
v -0.9347334 -0.343758 0.06324482
v -0.9200182 -0.343758 0.01822948
v -0.9488993 -0.4544967 0.02055073
v -0.9264288 -0.343758 -0.03241062
v -0.9553118 -0.4544967 -0.03008938
v -1.262279 -0.3392147 -0.05413723
v -1.261846 -0.3007244 -0.05279446
v -1.240581 -0.3007244 0.008898735
v -1.241014 -0.3492979 0.007557869
v -1.208226 -0.3007244 0.05198193
v -1.208659 -0.3648857 0.05064106
v -1.207322 -0.3672184 0.05029392
v -1.161338 -0.3898443 0.05998707
v -0.9313078 -0.3424343 0.0203371
v -0.9372034 -0.3424343 -0.02624798
v -0.9264288 -0.343758 -0.03241062
v -0.9200182 -0.343758 0.01822948
v -0.9448423 -0.3424343 0.06174755
v -0.9347334 -0.343758 0.06324482
v -0.963788 -0.3424343 0.07604885
v -0.9553289 -0.343758 0.07879162
v -1.033952 -0.336532 0.09113789
v -1.0316 -0.3373417 0.09519672
v -1.099595 -0.3256906 0.07956791
v -1.10296 -0.3255562 0.08261776
v -1.196429 -0.3028473 0.05138683
v -1.208226 -0.3007244 0.05198193
v -1.226193 -0.3028473 0.01175404
v -1.240581 -0.3007244 0.008898735
v -1.245753 -0.3028473 -0.04499912
v -1.261846 -0.3007244 -0.05279446
v -1.208659 -0.3648857 0.05064106
v -1.169377 -0.3869728 0.06136608
v -1.161338 -0.3898443 0.05998707
v -1.092948 -0.4222416 0.08143139
v -1.093709 -0.4228185 0.0850935
v -1.056973 -0.4365925 0.08906269
v -1.053905 -0.4386963 0.09353542
v -0.9939814 -0.4508728 0.07783604
v -0.98421 -0.4544967 0.08111286
v -0.9753675 -0.4508728 0.06378269
v -0.9636145 -0.4544967 0.06556606
v -0.9620676 -0.4508728 0.02309895
v -0.9488993 -0.4544967 0.02055073
v -0.9678621 -0.4508728 -0.0226717
v -0.9553118 -0.4544967 -0.03008938
v -1.207322 -0.3672184 0.05029392
v -1.23146 -0.3504385 0.0113554
v -1.241014 -0.3492979 0.007557869
v -1.262279 -0.3392147 -0.05413723
v -1.250678 -0.3403543 -0.04440594

vn -0.5913086 0.0005979538 -0.8061523
vn -0.08288574 0.002353668 -0.996582
vn 0.0401001 0.02485657 -0.9990234
vn 0.3168945 0.06982422 -0.9458008
vn 0.442627 0.236084 -0.8652344
vn 0.6972656 0.1727295 -0.6953125
vn 0.5913086 0.0005979538 -0.8061523
vn -0.0401001 0.02485657 -0.9990234
vn 0.08288574 0.002353668 -0.996582
vn 0.4023438 0.1210938 -0.9077148
vn 0.6972656 0.1727295 -0.6953125
vn 0.442627 0.236084 -0.8652344
vn -0.4750977 0.1815186 -0.8608398
vn -0.1452637 0.05126953 -0.9882813
vn -0.4509277 0.1929932 -0.871582
vn -0.3571777 0.1864014 -0.9150391
vn -0.7954102 0.1495361 -0.5874023
vn -0.4108887 0.06787109 -0.9091797
vn -0.4394531 0.09973145 -0.8925781
vn -0.3703613 -0.007347107 -0.9287109
vn -0.6972656 0.1727295 -0.6953125
vn -0.418457 0.1800537 -0.8901367
vn -0.3168945 0.06982422 -0.9458008
vn -0.02415466 -0.02955627 -0.9995117
vn 0.2922363 -0.1673584 -0.9414063
vn 0.006744385 -0.06158447 -0.9980469
vn 0.3078613 -0.1542969 -0.9389648
vn 0.590332 -0.375 -0.7148438
vn -0.02949524 0.03007507 -0.9990234
vn 0.4489746 -0.2866211 -0.8461914
vn 0.1987305 -0.06896973 -0.9775391
vn 0.05654907 0.03616333 -0.9975586
vn 0.3081055 -0.1933594 -0.9316406
vn 0.02201843 0.02336121 -0.9995117
vn 0.01821899 0.04330444 -0.9990234
vn 0.1391602 -0.06365967 -0.9882813
vn 0.2822266 -0.1274414 -0.9506836
vn 0.6523438 -0.2998047 -0.6962891
vn 0.5766602 -0.3828125 -0.7216797
vn 0.8959961 -0.1040039 -0.4316406
vn 0.5654297 -0.05142212 -0.8232422
vn 0.02999878 -0.01332092 -0.9995117
vn -0.01968384 0.0249939 -0.9995117
vn -0.009773254 -0.02441406 -0.9995117
vn 0.746582 0.03427124 -0.6645508
vn -0.4023438 0.1210938 -0.9077148
vn -0.2736816 -0.03234863 -0.9614258
vn -0.1743164 -0.02230835 -0.984375
vn 0.6499023 0.05493164 -0.7583008
vn -0.1956787 0.01357269 -0.9804688
vn -0.5668945 -0.04998779 -0.8222656
vn -0.2963867 0.01707458 -0.9550781
vn -0.5444336 -0.04129028 -0.8378906
vn -0.5913086 0.0005979538 -0.8061523
vn -0.08288574 0.002353668 -0.996582
vn -0.5512695 -0.03710938 -0.8334961
vn -0.4243164 -0.03747559 -0.9047852
vn -0.6972656 0.1727295 -0.6953125
vn -0.3703613 -0.007347107 -0.9287109
vn -0.442627 0.236084 -0.8652344
vn -0.3168945 0.06982422 -0.9458008
vn 0.581543 0.04135132 -0.8125
vn 0.0401001 0.02485657 -0.9990234
vn 0.08337402 0.02684021 -0.9960938
vn -0.0100174 0.02934265 -0.9995117
vn 0.05895996 -0.008583069 -0.9980469
vn 0.0703125 0.02763367 -0.9970703
vn -0.4394531 0.09973145 -0.8925781
vn -0.000494957 -0.005771637 -1
vn 0.5087891 0.002658844 -0.8608398
vn -0.06158447 0.007633209 -0.9980469
vn 0.2602539 0.004398346 -0.965332
vn -0.2349854 0.04656982 -0.9707031
vn -0.7993164 0.06835938 -0.597168
vn -0.3908691 0.04556274 -0.9194336
vn -0.4108887 0.06787109 -0.9091797
vn 0.1129761 -0.01205444 -0.9936523
vn -0.3222656 0.02505493 -0.9462891
vn -0.6567383 -0.0319519 -0.753418
vn -0.7734375 0.02787781 -0.6333008
vn -0.8520508 0.06091309 -0.5200195
vn -0.890625 0.06329346 -0.4506836
vn -0.8818359 0.09051514 -0.4624023
vn -0.9072266 0.02148438 -0.4196777
vn -0.9208984 0.004657745 -0.3901367
vn -0.8115234 -0.04260254 -0.5830078
vn -0.5058594 -0.03927612 -0.8618164
vn -0.3056641 -0.02896118 -0.9516602
vn -0.07757568 -0.04052734 -0.9960938
vn -0.04275513 -0.01556396 -0.9990234
vn 0.04095459 -0.02160645 -0.9990234
vn 0.5708008 -0.04943848 -0.8193359
vn 0.282959 -0.05435181 -0.9575195
vn 0.03128052 0.001306534 -0.9995117
vn 0.3254395 -0.02702332 -0.9453125
vn 0.06463623 -0.04238892 -0.9970703
vn 0.05706787 0.04891968 -0.9970703
vn 0.01021576 0.02174377 -0.9995117
vn 0.02189636 -0.07519531 -0.9970703
vn 0.1784668 -0.04525757 -0.9829102
vn -0.001447678 -0.02085876 -1
vn -0.2169189 -0.03469849 -0.9755859
vn -0.1549072 -0.01407623 -0.987793
vn -0.003541946 -0.04290771 -0.9990234
vn -0.06311035 0.01715088 -0.9980469
vn -0.7954102 0.1495361 -0.5874023
vn -0.418457 0.1800537 -0.8901367
vn 0.1075439 -0.03890991 -0.9936523
vn -0.07104492 0.01473999 -0.9975586
vn -0.1046753 -0.02574158 -0.9941406
vn -0.03427124 -0.05630493 -0.9980469
vn -0.05310059 -0.02502441 -0.9980469
vn -0.05136108 0.008201599 -0.9985352
vn -0.02156067 -0.02502441 -0.9995117
vn -0.4509277 0.1929932 -0.871582
vn -0.1452637 0.05126953 -0.9882813
vn -0.3571777 0.1864014 -0.9150391
vn -0.0793457 0.02896118 -0.996582
vn -0.09179688 0.05618286 -0.9941406
vn 0.01860046 0.06787109 -0.9975586
vn -0.4750977 0.1815186 -0.8608398
vn 0.2272949 -0.1110229 -0.9672852
vn 0.1757813 -0.01980591 -0.984375
vn 0.09210205 0.02590942 -0.9956055
vn 0.09716797 -0.06982422 -0.9926758
vn 0.4719238 -0.2250977 -0.8525391
vn 0.1361084 -0.01876831 -0.9907227
vn 0.01294708 0.03204346 -0.9995117
vn 0.9399414 0.03552246 -0.3393555
vn 0.6499023 0.05493164 -0.7583008
vn 0.9077148 0.08551025 -0.4106445
vn 0.746582 0.03427124 -0.6645508
vn 0.8959961 -0.1040039 -0.4316406
vn 0.5654297 -0.05142212 -0.8232422
vn 0.9848633 -0.1160889 -0.1269531
vn 0.6523438 -0.2998047 -0.6962891
vn 0.9707031 -0.1833496 0.1560059
vn 0.9038086 -0.4248047 -0.05578613
vn 0.8696289 -0.3925781 0.2993164
vn 0.5766602 -0.3828125 -0.7216797
vn 0.6557617 -0.4616699 -0.597168
vn 0.590332 -0.375 -0.7148438
vn 0.4489746 -0.2866211 -0.8461914
vn 0.3081055 -0.1933594 -0.9316406
vn -0.3068848 -0.03475952 -0.9511719
vn -0.5898438 -0.01281738 -0.8076172
vn -0.6171875 -0.2304688 -0.7524414
vn -0.2353516 -0.001656532 -0.9716797
vn -0.2387695 0.005847931 -0.9711914
vn -0.003234863 -0.02198792 -0.9995117
vn 0.0214386 -0.01141357 -0.9995117
vn 0.3820801 -0.09033203 -0.9199219
vn 0.4365234 -0.09509277 -0.8945313
vn 0.8139648 -0.2008057 -0.5454102
vn 0.7797852 -0.1907959 -0.5966797
vn 0.7797852 -0.1907959 -0.5966797
vn 0.9643555 -0.2497559 -0.08618164
vn 0.8139648 -0.2008057 -0.5454102
vn 0.9633789 -0.2492676 -0.09814453
vn 0.9599609 -0.2529297 0.121521
vn 0.9599609 -0.2529297 0.121521
vn -0.9453125 -0.0006613731 -0.3259277
vn -0.8818359 -0.005184174 -0.4714355
vn -0.9453125 -0.0007228851 -0.3259277
vn -0.875 -0.01136017 -0.4838867
vn -0.5898438 -0.01281738 -0.8076172
vn -0.6171875 -0.2304688 -0.7524414
vn -0.5 -0.4006348 -0.7675781
vn -0.347168 -0.3293457 -0.8779297
vn 0.1196289 0.9926758 -0.01730347
vn 0.1137695 0.9931641 0.0144043
vn 0.1137695 0.9931641 0.0144043
vn 0.1177979 0.9931641 -0.007400513
vn 0.1138916 0.987793 -0.1044922
vn 0.1188354 0.9902344 -0.07281494
vn 0.1102905 0.9848633 -0.1350098
vn 0.1083984 0.9838867 -0.140625
vn 0.1313477 0.9838867 -0.1202393
vn 0.1209717 0.984375 -0.1263428
vn 0.1551514 0.9794922 -0.1280518
vn 0.1705322 0.9746094 -0.1452637
vn 0.1806641 0.9799805 -0.08514404
vn 0.1719971 0.980957 0.08966064
vn 0.1655273 0.9804688 0.1049805
vn 0.15979 0.984375 0.07312012
vn 0.15625 0.9863281 0.05383301
vn 0.15625 0.9863281 0.05383301
vn -0.3684082 -0.8442383 0.3894043
vn -0.362793 -0.9008789 0.2385254
vn -0.3681641 -0.8549805 0.3659668
vn -0.3432617 -0.9140625 0.215332
vn -0.3408203 -0.9150391 0.2149658
vn -0.3027344 -0.925293 0.2276611
vn -0.2744141 -0.9287109 0.2486572
vn -0.251709 -0.9277344 0.2753906
vn -0.2402344 -0.9223633 0.3032227
vn -0.2546387 -0.9394531 0.2302246
vn -0.2675781 -0.9492188 0.164917
vn -0.2722168 -0.9614258 0.03915405
vn -0.2683105 -0.9633789 0.01686096
vn -0.2592773 -0.965332 -0.0328064
vn -0.2592773 -0.965332 -0.0328064
vn 0.06210327 -0.9018555 0.4272461
vn -0.03842163 -0.9794922 0.1975098
vn 0.03491211 -0.9326172 0.3588867
vn 0.04681396 -0.9804688 0.1900635
vn 0.07336426 -0.9765625 0.2019043
vn 0 -0.809082 0.5878906
vn 0 -0.809082 0.5878906
vn 0 -0.809082 0.5878906
vn 0 -0.809082 0.5878906
vn 0 0.309082 0.9511719
vn 0 0.309082 0.9511719
vn 0 0.309082 0.9511719
vn 0 0.309082 0.9511719
vn 0 1 0
vn 0 1 0
vn 0 1 0
vn 0 1 0
vn 0 0.309082 -0.9511719
vn 0 0.309082 -0.9511719
vn 0 0.309082 -0.9511719
vn 0 0.309082 -0.9511719
vn 0 -0.809082 -0.5878906
vn 0 -0.809082 -0.5878906
vn 0 -0.809082 -0.5878906
vn 0 -0.809082 -0.5878906
vn 0 0 -1
vn 0 0 -1
vn 0 0 -1
vn 0 0 -1
vn 0 -0.9853516 -0.170166
vn 0 -0.9853516 -0.170166
vn 0 -0.9853516 -0.170166
vn 0 -0.9853516 -0.170166
vn -1 0 0
vn -1 0 0
vn -1 0 0
vn -1 0 0
vn 0 0.9853516 -0.170166
vn 0 0.9853516 -0.170166
vn 0 0.9853516 -0.170166
vn 0 0.9853516 -0.170166
vn 1 0 0
vn 1 0 0
vn 1 0 0
vn 1 0 0
vn 0 0 -1
vn 0 0 -1
vn 0 0 -1
vn 0 0 -1
vn 0 -0.9853516 -0.170166
vn 0 -0.9853516 -0.170166
vn 0 -0.9853516 -0.170166
vn 0 -0.9853516 -0.170166
vn -1 0 0
vn -1 0 0
vn -1 0 0
vn -1 0 0
vn 0 0.9853516 -0.170166
vn 0 0.9853516 -0.170166
vn 0 0.9853516 -0.170166
vn 0 0.9853516 -0.170166
vn 1 0 0
vn 1 0 0
vn 1 0 0
vn 1 0 0
vn 0.4750977 0.1815186 -0.8608398
vn 0.4509277 0.1929932 -0.871582
vn 0.1452637 0.05126953 -0.9882813
vn 0.3571777 0.1864014 -0.9150391
vn 0.7954102 0.1495361 -0.5874023
vn 0.4394531 0.09973145 -0.8925781
vn 0.4108887 0.06787109 -0.9091797
vn 0.3703613 -0.007347107 -0.9287109
vn 0.6972656 0.1727295 -0.6953125
vn 0.418457 0.1800537 -0.8901367
vn 0.3168945 0.06982422 -0.9458008
vn 0.02415466 -0.02955627 -0.9995117
vn -0.006744385 -0.06158447 -0.9980469
vn -0.2922363 -0.1673584 -0.9414063
vn -0.3078613 -0.1542969 -0.9389648
vn -0.590332 -0.375 -0.7148438
vn 0.02949524 0.03007507 -0.9990234
vn -0.4489746 -0.2866211 -0.8461914
vn -0.1987305 -0.06896973 -0.9775391
vn -0.05654907 0.03616333 -0.9975586
vn -0.3081055 -0.1933594 -0.9316406
vn -0.02201843 0.02336121 -0.9995117
vn -0.01821899 0.04330444 -0.9990234
vn -0.1391602 -0.06365967 -0.9882813
vn -0.2822266 -0.1274414 -0.9506836
vn -0.6523438 -0.2998047 -0.6962891
vn -0.8959961 -0.1040039 -0.4316406
vn -0.5654297 -0.05142212 -0.8232422
vn -0.02999878 -0.01332092 -0.9995117
vn 0.01968384 0.0249939 -0.9995117
vn 0.4023438 0.1210938 -0.9077148
vn 0.009773254 -0.02441406 -0.9995117
vn -0.746582 0.03427124 -0.6645508
vn 0.1743164 -0.02230835 -0.984375
vn -0.6499023 0.05493164 -0.7583008
vn 0.1956787 0.01357269 -0.9804688
vn 0.2736816 -0.03234863 -0.9614258
vn 0.5668945 -0.04998779 -0.8222656
vn 0.2963867 0.01707458 -0.9550781
vn 0.5444336 -0.04129028 -0.8378906
vn 0.5913086 0.0005979538 -0.8061523
vn 0.08288574 0.002353668 -0.996582
vn 0.5512695 -0.03710938 -0.8334961
vn 0.4243164 -0.03747559 -0.9047852
vn 0.6972656 0.1727295 -0.6953125
vn 0.3703613 -0.007347107 -0.9287109
vn -0.581543 0.04135132 -0.8125
vn -0.0401001 0.02485657 -0.9990234
vn -0.08337402 0.02684021 -0.9960938
vn 0.0100174 0.02934265 -0.9995117
vn -0.05895996 -0.008583069 -0.9980469
vn -0.07025146 0.02763367 -0.9970703
vn 0.4394531 0.09973145 -0.8925781
vn 0.0004968643 -0.005771637 -1
vn -0.5087891 0.002658844 -0.8608398
vn 0.06158447 0.007633209 -0.9980469
vn -0.2602539 0.004398346 -0.965332
vn 0.2349854 0.04656982 -0.9707031
vn 0.7993164 0.06835938 -0.597168
vn 0.3908691 0.04556274 -0.9194336
vn 0.4108887 0.06787109 -0.9091797
vn -0.1129761 -0.01205444 -0.9936523
vn 0.3222656 0.02505493 -0.9462891
vn 0.6567383 -0.0319519 -0.753418
vn 0.7734375 0.02787781 -0.6333008
vn 0.8520508 0.06091309 -0.5200195
vn 0.890625 0.06329346 -0.4506836
vn 0.8818359 0.09051514 -0.4624023
vn 0.9072266 0.02148438 -0.4196777
vn 0.9208984 0.004657745 -0.3901367
vn 0.8115234 -0.04260254 -0.5830078
vn 0.5058594 -0.03927612 -0.8618164
vn 0.3056641 -0.02896118 -0.9516602
vn 0.07757568 -0.04052734 -0.9960938
vn 0.04275513 -0.01556396 -0.9990234
vn -0.04095459 -0.02160645 -0.9990234
vn -0.5708008 -0.04943848 -0.8193359
vn -0.282959 -0.05435181 -0.9575195
vn -0.03128052 0.001306534 -0.9995117
vn -0.3254395 -0.02702332 -0.9453125
vn -0.06463623 -0.04238892 -0.9970703
vn -0.05706787 0.04891968 -0.9970703
vn -0.01021576 0.02174377 -0.9995117
vn -0.0218811 -0.07519531 -0.9970703
vn -0.1784668 -0.04525757 -0.9829102
vn 0.001447678 -0.02085876 -1
vn 0.2169189 -0.03469849 -0.9755859
vn 0.1549072 -0.01407623 -0.987793
vn 0.003541946 -0.04290771 -0.9990234
vn 0.06311035 0.01715088 -0.9980469
vn 0.7954102 0.1495361 -0.5874023
vn 0.418457 0.1800537 -0.8901367
vn -0.1075439 -0.03890991 -0.9936523
vn 0.07104492 0.01473999 -0.9975586
vn 0.3168945 0.06982422 -0.9458008
vn 0.1046753 -0.02574158 -0.9941406
vn 0.03427124 -0.05630493 -0.9980469
vn 0.05310059 -0.02502441 -0.9980469
vn 0.05136108 0.008201599 -0.9985352
vn 0.02156067 -0.02502441 -0.9995117
vn 0.442627 0.236084 -0.8652344
vn 0.4509277 0.1929932 -0.871582
vn 0.1452637 0.05126953 -0.9882813
vn 0.3571777 0.1864014 -0.9150391
vn 0.0793457 0.02896118 -0.996582
vn 0.09179688 0.05618286 -0.9941406
vn -0.01860046 0.06787109 -0.9975586
vn 0.4750977 0.1815186 -0.8608398
vn -0.2272949 -0.1110229 -0.9672852
vn -0.1757813 -0.01980591 -0.984375
vn -0.09210205 0.02590942 -0.9956055
vn -0.09716797 -0.06982422 -0.9926758
vn -0.4719238 -0.2250977 -0.8525391
vn -0.1361084 -0.01876831 -0.9907227
vn -0.01294708 0.03204346 -0.9995117
vn -0.9399414 0.03552246 -0.3393555
vn -0.9077148 0.08551025 -0.4106445
vn -0.6499023 0.05493164 -0.7583008
vn -0.746582 0.03427124 -0.6645508
vn -0.8959961 -0.1040039 -0.4316406
vn -0.5654297 -0.05142212 -0.8232422
vn -0.9848633 -0.1160889 -0.1269531
vn -0.9707031 -0.1833496 0.1560059
vn -0.6523438 -0.2998047 -0.6962891
vn -0.9038086 -0.4248047 -0.05578613
vn -0.8696289 -0.3925781 0.2993164
vn -0.5766602 -0.3828125 -0.7216797
vn -0.3081055 -0.1933594 -0.9316406
vn -0.4489746 -0.2866211 -0.8461914
vn -0.6557617 -0.4616699 -0.597168
vn -0.590332 -0.375 -0.7148438
vn 0.3068848 -0.03475952 -0.9511719
vn 0.6171875 -0.2304688 -0.7524414
vn 0.5898438 -0.01281738 -0.8076172
vn 0.2353516 -0.001656532 -0.9716797
vn 0.2387695 0.005847931 -0.9711914
vn 0.003234863 -0.02198792 -0.9995117
vn -0.0214386 -0.01141357 -0.9995117
vn -0.3820801 -0.09033203 -0.9199219
vn -0.4365234 -0.09509277 -0.8945313
vn -0.8139648 -0.2008057 -0.5454102
vn -0.7797852 -0.1907959 -0.5966797
vn -0.7797852 -0.1907959 -0.5966797
vn -0.8139648 -0.2008057 -0.5454102
vn -0.9643555 -0.2497559 -0.08618164
vn -0.9633789 -0.2492676 -0.09814453
vn -0.9599609 -0.2529297 0.121521
vn -0.9599609 -0.2529297 0.121521
vn 0.9453125 -0.000664711 -0.3259277
vn 0.9453125 -0.000726223 -0.3259277
vn 0.8818359 -0.005184174 -0.4714355
vn 0.875 -0.01136017 -0.4838867
vn 0.5898438 -0.01281738 -0.8076172
vn 0.6171875 -0.2304688 -0.7524414
vn 0.5 -0.4006348 -0.7675781
vn 0.347168 -0.3293457 -0.8779297
vn -0.1196289 0.9926758 -0.01730347
vn -0.1137695 0.9931641 0.0144043
vn -0.1137695 0.9931641 0.0144043
vn -0.1177979 0.9931641 -0.007400513
vn -0.1138916 0.987793 -0.1044922
vn -0.1188965 0.9902344 -0.07281494
vn -0.1102905 0.9848633 -0.1350098
vn -0.1083984 0.9838867 -0.140625
vn -0.1313477 0.9838867 -0.1202393
vn -0.1209717 0.984375 -0.1263428
vn -0.1551514 0.9794922 -0.1280518
vn -0.1705322 0.9746094 -0.1452637
vn -0.1806641 0.9799805 -0.08514404
vn -0.1719971 0.980957 0.08966064
vn -0.1655273 0.9804688 0.1049805
vn -0.15979 0.984375 0.07312012
vn -0.15625 0.9863281 0.05383301
vn -0.15625 0.9863281 0.05383301
vn 0.3684082 -0.8442383 0.3894043
vn 0.3681641 -0.8549805 0.3659668
vn 0.362793 -0.9008789 0.2385254
vn 0.3432617 -0.9140625 0.215332
vn 0.3408203 -0.9150391 0.2149658
vn 0.3027344 -0.925293 0.2276611
vn 0.2744141 -0.9287109 0.2486572
vn 0.251709 -0.9277344 0.2753906
vn 0.2402344 -0.9223633 0.3032227
vn 0.2546387 -0.9394531 0.2302246
vn 0.2675781 -0.9492188 0.164917
vn 0.2722168 -0.9614258 0.03915405
vn 0.2683105 -0.9633789 0.01686096
vn 0.2592773 -0.965332 -0.0328064
vn 0.2592773 -0.965332 -0.0328064
vn -0.06210327 -0.9018555 0.4272461
vn -0.03491211 -0.9326172 0.3588867
vn 0.03842163 -0.9794922 0.1975098
vn -0.04681396 -0.9804688 0.1900635
vn -0.07336426 -0.9765625 0.2019043

vt 0.4291992 0.5141602
vt 0.4370117 0.5693359
vt 0.4360352 0.5126953
vt 0.3781738 0.8457031
vt 0.3984375 0.7724609
vt 0.4350586 0.7094727
vt 0.4291992 0.5141602
vt 0.4360352 0.5126953
vt 0.4370117 0.5693359
vt 0.4240723 0.7080078
vt 0.4350586 0.7094727
vt 0.3984375 0.7724609
vt 0.3474121 0.8442383
vt 0.3295898 0.925293
vt 0.3588867 0.8452148
vt 0.3876953 0.7705078
vt 0.4372559 0.7099609
vt 0.4226074 0.7753906
vt 0.4453125 0.7124023
vt 0.4438477 0.6464844
vt 0.4350586 0.7094727
vt 0.4123535 0.7744141
vt 0.3781738 0.8457031
vt 0.2163086 0.9804688
vt 0.2320557 0.9316406
vt 0.2053223 0.9799805
vt 0.2392578 0.9321289
vt 0.2819824 0.8481445
vt 0.2243652 0.9804688
vt 0.2910156 0.8505859
vt 0.2476807 0.9326172
vt 0.2331543 0.9804688
vt 0.3583984 0.7719727
vt 0.2563477 0.9326172
vt 0.2442627 0.9804688
vt 0.3129883 0.8496094
vt 0.4040527 0.7050781
vt 0.3942871 0.703125
vt 0.3505859 0.7700195
vt 0.4111328 0.6474609
vt 0.4165039 0.6479492
vt 0.4123535 0.7060547
vt 0.3710938 0.7709961
vt 0.4228516 0.6479492
vt 0.416748 0.5737305
vt 0.4240723 0.7080078
vt 0.4277344 0.6474609
vt 0.4189453 0.5732422
vt 0.4145508 0.5209961
vt 0.4177246 0.5200195
vt 0.4213867 0.5727539
vt 0.423584 0.5170898
vt 0.4299316 0.5717773
vt 0.4291992 0.5141602
vt 0.4370117 0.5693359
vt 0.4343262 0.6474609
vt 0.4418945 0.6464844
vt 0.4350586 0.7094727
vt 0.4438477 0.6464844
vt 0.3984375 0.7724609
vt 0.3781738 0.8457031
vt 0.4406738 0.5683594
vt 0.4360352 0.5126953
vt 0.4414063 0.5107422
vt 0.4423828 0.5693359
vt 0.4562988 0.5126953
vt 0.451416 0.6499023
vt 0.4453125 0.7124023
vt 0.4516602 0.5737305
vt 0.4580078 0.5756836
vt 0.4677734 0.5141602
vt 0.4477539 0.7133789
vt 0.4638672 0.5795898
vt 0.4819336 0.512207
vt 0.4301758 0.7763672
vt 0.4226074 0.7753906
vt 0.456543 0.7163086
vt 0.4587402 0.6547852
vt 0.4619141 0.7792969
vt 0.467041 0.6557617
vt 0.4748535 0.5795898
vt 0.4846191 0.5810547
vt 0.4919434 0.5126953
vt 0.4765625 0.6586914
vt 0.4729004 0.7163086
vt 0.4663086 0.8520508
vt 0.454834 0.9912109
vt 0.4494629 0.9907227
vt 0.4516602 0.7792969
vt 0.4436035 0.9902344
vt 0.4387207 0.9897461
vt 0.4450684 0.7788086
vt 0.4372559 0.8520508
vt 0.4291992 0.9887695
vt 0.4355469 0.7773438
vt 0.4191895 0.9365234
vt 0.4160156 0.9868164
vt 0.40625 0.9858398
vt 0.4260254 0.8515625
vt 0.4104004 0.9355469
vt 0.392334 0.9848633
vt 0.4179688 0.8505859
vt 0.4116211 0.8496094
vt 0.3769531 0.9829102
vt 0.4165039 0.7749023
vt 0.4372559 0.7099609
vt 0.4123535 0.7744141
vt 0.3994141 0.8481445
vt 0.3862305 0.8466797
vt 0.3713379 0.9311523
vt 0.3647461 0.9814453
vt 0.3527832 0.9814453
vt 0.3669434 0.8447266
vt 0.3356934 0.9804688
vt 0.3588867 0.8452148
vt 0.3295898 0.925293
vt 0.3876953 0.7705078
vt 0.3127441 0.9780273
vt 0.3054199 0.9272461
vt 0.2915039 0.9794922
vt 0.3474121 0.8442383
vt 0.3388672 0.8442383
vt 0.2929688 0.9277344
vt 0.2741699 0.9804688
vt 0.3771973 0.7705078
vt 0.329834 0.8442383
vt 0.279541 0.9272461
vt 0.2587891 0.9799805
vt 0.4001465 0.5751953
vt 0.4145508 0.5209961
vt 0.3969727 0.5229492
vt 0.416748 0.5737305
vt 0.4111328 0.6474609
vt 0.4165039 0.6479492
vt 0.4040527 0.6474609
vt 0.3942871 0.703125
vt 0.3991699 0.6494141
vt 0.3876953 0.7011719
vt 0.3835449 0.6982422
vt 0.3505859 0.7700195
vt 0.3413086 0.7666016
vt 0.2819824 0.8481445
vt 0.2910156 0.8505859
vt 0.3583984 0.7719727
vt 0.124939 0.5493164
vt 0.1138916 0.534668
vt 0.116333 0.546875
vt 0.1414795 0.5522461
vt 0.1352539 0.534668
vt 0.1495361 0.5537109
vt 0.149292 0.5336914
vt 0.163208 0.5537109
vt 0.1643066 0.53125
vt 0.1691895 0.5307617
vt 0.1676025 0.5527344
vt 0.1676025 0.5527344
vt 0.1779785 0.5307617
vt 0.1691895 0.5307617
vt 0.1763916 0.5527344
vt 0.1876221 0.53125
vt 0.1861572 0.5537109
vt 0.09277344 0.5463867
vt 0.1040649 0.5371094
vt 0.0916748 0.5390625
vt 0.1055298 0.5463867
vt 0.1138916 0.534668
vt 0.116333 0.546875
vt 0.1165161 0.5473633
vt 0.1262207 0.550293
vt 0.1774902 0.5288086
vt 0.1876221 0.53125
vt 0.1866455 0.5288086
vt 0.1779785 0.5307617
vt 0.168335 0.5292969
vt 0.1691895 0.5307617
vt 0.1630859 0.5302734
vt 0.1643066 0.53125
vt 0.1489258 0.5327148
vt 0.149292 0.5336914
vt 0.1357422 0.5336914
vt 0.1352539 0.534668
vt 0.1155396 0.5332031
vt 0.1138916 0.534668
vt 0.1054688 0.534668
vt 0.1040649 0.5371094
vt 0.09375 0.5361328
vt 0.0916748 0.5390625
vt 0.116333 0.546875
vt 0.1262207 0.550293
vt 0.124939 0.5493164
vt 0.1412354 0.5532227
vt 0.1414795 0.5522461
vt 0.1488037 0.5541992
vt 0.1495361 0.5537109
vt 0.1617432 0.5546875
vt 0.163208 0.5537109
vt 0.166748 0.5551758
vt 0.1676025 0.5527344
vt 0.1755371 0.5551758
vt 0.1763916 0.5527344
vt 0.1845703 0.5561523
vt 0.1861572 0.5537109
vt 0.1165161 0.5473633
vt 0.1055298 0.5463867
vt 0.1069336 0.5473633
vt 0.09277344 0.5463867
vt 0.09533691 0.5478516
vt 0.02711487 0.9926758
vt 0.02711487 0.5131836
vt 0.01873779 0.5131836
vt 0.01873779 0.9931641
vt 0.06060791 0.9926758
vt 0.06060791 0.5126953
vt 0.05224609 0.5131836
vt 0.05224609 0.9926758
vt 0.05224609 0.9926758
vt 0.05224609 0.5131836
vt 0.04385376 0.5131836
vt 0.04385376 0.9926758
vt 0.04385376 0.9926758
vt 0.04385376 0.5131836
vt 0.03549194 0.5131836
vt 0.03549194 0.9926758
vt 0.03549194 0.9926758
vt 0.03549194 0.5131836
vt 0.02711487 0.5131836
vt 0.02711487 0.9926758
vt 0.2868652 0.5966797
vt 0.276123 0.6044922
vt 0.2868652 0.6044922
vt 0.276123 0.5966797
vt 0.3227539 0.5966797
vt 0.2868652 0.6044922
vt 0.3227539 0.6044922
vt 0.2868652 0.5966797
vt 0.3227539 0.6044922
vt 0.2849121 0.6152344
vt 0.3188477 0.6269531
vt 0.2868652 0.6044922
vt 0.2403564 0.6044922
vt 0.276123 0.5966797
vt 0.2403564 0.5966797
vt 0.276123 0.6044922
vt 0.3188477 0.5742188
vt 0.2868652 0.5966797
vt 0.3227539 0.5966797
vt 0.2849121 0.5859375
vt 0.2868652 0.5400391
vt 0.276123 0.5483398
vt 0.2868652 0.5483398
vt 0.276123 0.5400391
vt 0.3227539 0.5400391
vt 0.2868652 0.5483398
vt 0.3227539 0.5483398
vt 0.2868652 0.5400391
vt 0.3227539 0.5483398
vt 0.2849121 0.5585938
vt 0.3188477 0.5708008
vt 0.2868652 0.5483398
vt 0.2403564 0.5483398
vt 0.276123 0.5400391
vt 0.2403564 0.5400391
vt 0.276123 0.5483398
vt 0.3188477 0.5175781
vt 0.2868652 0.5400391
vt 0.3227539 0.5400391
vt 0.2849121 0.5292969
vt 0.3474121 0.8442383
vt 0.3588867 0.8452148
vt 0.3295898 0.925293
vt 0.3876953 0.7705078
vt 0.4372559 0.7099609
vt 0.4453125 0.7124023
vt 0.4226074 0.7753906
vt 0.4438477 0.6464844
vt 0.4350586 0.7094727
vt 0.4123535 0.7744141
vt 0.3781738 0.8457031
vt 0.2163086 0.9804688
vt 0.2053223 0.9799805
vt 0.2320557 0.9316406
vt 0.2392578 0.9321289
vt 0.2819824 0.8481445
vt 0.2243652 0.9804688
vt 0.2910156 0.8505859
vt 0.2476807 0.9326172
vt 0.2331543 0.9804688
vt 0.3583984 0.7719727
vt 0.2563477 0.9326172
vt 0.2442627 0.9804688
vt 0.3129883 0.8496094
vt 0.4040527 0.7050781
vt 0.3942871 0.703125
vt 0.4111328 0.6474609
vt 0.4165039 0.6479492
vt 0.4123535 0.7060547
vt 0.3710938 0.7709961
vt 0.4240723 0.7080078
vt 0.4228516 0.6479492
vt 0.416748 0.5737305
vt 0.4189453 0.5732422
vt 0.4145508 0.5209961
vt 0.4177246 0.5200195
vt 0.4277344 0.6474609
vt 0.4213867 0.5727539
vt 0.423584 0.5170898
vt 0.4299316 0.5717773
vt 0.4291992 0.5141602
vt 0.4370117 0.5693359
vt 0.4343262 0.6474609
vt 0.4418945 0.6464844
vt 0.4350586 0.7094727
vt 0.4438477 0.6464844
vt 0.4406738 0.5683594
vt 0.4360352 0.5126953
vt 0.4414063 0.5107422
vt 0.4423828 0.5693359
vt 0.4562988 0.5126953
vt 0.451416 0.6499023
vt 0.4453125 0.7124023
vt 0.4516602 0.5737305
vt 0.4580078 0.5756836
vt 0.4677734 0.5141602
vt 0.4477539 0.7133789
vt 0.4638672 0.5795898
vt 0.4819336 0.512207
vt 0.4301758 0.7763672
vt 0.4226074 0.7753906
vt 0.456543 0.7163086
vt 0.4587402 0.6547852
vt 0.4619141 0.7792969
vt 0.467041 0.6557617
vt 0.4748535 0.5795898
vt 0.4846191 0.5810547
vt 0.4919434 0.5126953
vt 0.4765625 0.6586914
vt 0.4729004 0.7163086
vt 0.4663086 0.8520508
vt 0.454834 0.9912109
vt 0.4494629 0.9907227
vt 0.4516602 0.7792969
vt 0.4436035 0.9902344
vt 0.4387207 0.9897461
vt 0.4450684 0.7788086
vt 0.4372559 0.8520508
vt 0.4291992 0.9887695
vt 0.4355469 0.7773438
vt 0.4191895 0.9365234
vt 0.4160156 0.9868164
vt 0.40625 0.9858398
vt 0.4260254 0.8515625
vt 0.4104004 0.9355469
vt 0.392334 0.9848633
vt 0.4179688 0.8505859
vt 0.4116211 0.8496094
vt 0.3769531 0.9829102
vt 0.4165039 0.7749023
vt 0.4372559 0.7099609
vt 0.4123535 0.7744141
vt 0.3994141 0.8481445
vt 0.3862305 0.8466797
vt 0.3781738 0.8457031
vt 0.3713379 0.9311523
vt 0.3647461 0.9814453
vt 0.3527832 0.9814453
vt 0.3669434 0.8447266
vt 0.3356934 0.9804688
vt 0.3984375 0.7724609
vt 0.3588867 0.8452148
vt 0.3295898 0.925293
vt 0.3876953 0.7705078
vt 0.3127441 0.9780273
vt 0.3054199 0.9272461
vt 0.2915039 0.9794922
vt 0.3474121 0.8442383
vt 0.3388672 0.8442383
vt 0.2929688 0.9277344
vt 0.2741699 0.9804688
vt 0.3771973 0.7705078
vt 0.329834 0.8442383
vt 0.279541 0.9272461
vt 0.2587891 0.9799805
vt 0.4001465 0.5751953
vt 0.3969727 0.5229492
vt 0.4145508 0.5209961
vt 0.416748 0.5737305
vt 0.4111328 0.6474609
vt 0.4165039 0.6479492
vt 0.4040527 0.6474609
vt 0.3991699 0.6494141
vt 0.3942871 0.703125
vt 0.3876953 0.7011719
vt 0.3835449 0.6982422
vt 0.3505859 0.7700195
vt 0.3583984 0.7719727
vt 0.2910156 0.8505859
vt 0.3413086 0.7666016
vt 0.2819824 0.8481445
vt 0.124939 0.5493164
vt 0.116333 0.546875
vt 0.1138916 0.534668
vt 0.1414795 0.5522461
vt 0.1352539 0.534668
vt 0.1495361 0.5537109
vt 0.149292 0.5336914
vt 0.163208 0.5537109
vt 0.1643066 0.53125
vt 0.1691895 0.5307617
vt 0.1676025 0.5527344
vt 0.1676025 0.5527344
vt 0.1691895 0.5307617
vt 0.1779785 0.5307617
vt 0.1763916 0.5527344
vt 0.1876221 0.53125
vt 0.1861572 0.5537109
vt 0.09277344 0.5463867
vt 0.0916748 0.5390625
vt 0.1040649 0.5371094
vt 0.1055298 0.5463867
vt 0.1138916 0.534668
vt 0.116333 0.546875
vt 0.1165161 0.5473633
vt 0.1262207 0.550293
vt 0.1774902 0.5288086
vt 0.1866455 0.5288086
vt 0.1876221 0.53125
vt 0.1779785 0.5307617
vt 0.168335 0.5292969
vt 0.1691895 0.5307617
vt 0.1630859 0.5302734
vt 0.1643066 0.53125
vt 0.1489258 0.5327148
vt 0.149292 0.5336914
vt 0.1357422 0.5336914
vt 0.1352539 0.534668
vt 0.1155396 0.5332031
vt 0.1138916 0.534668
vt 0.1054688 0.534668
vt 0.1040649 0.5371094
vt 0.09375 0.5361328
vt 0.0916748 0.5390625
vt 0.116333 0.546875
vt 0.124939 0.5493164
vt 0.1262207 0.550293
vt 0.1412354 0.5532227
vt 0.1414795 0.5522461
vt 0.1488037 0.5541992
vt 0.1495361 0.5537109
vt 0.1617432 0.5546875
vt 0.163208 0.5537109
vt 0.166748 0.5551758
vt 0.1676025 0.5527344
vt 0.1755371 0.5551758
vt 0.1763916 0.5527344
vt 0.1845703 0.5561523
vt 0.1861572 0.5537109
vt 0.1165161 0.5473633
vt 0.1069336 0.5473633
vt 0.1055298 0.5463867
vt 0.09277344 0.5463867
vt 0.09533691 0.5478516

g Curtains_1984_12
usemtl Curtains_1984_12
usemap Curtains_1984_12
f 1/1/1 3/3/3 2/2/2
f 4/4/4 6/6/6 5/5/5
f 7/7/7 9/9/9 8/8/8
f 10/10/10 12/12/12 11/11/11
f 13/13/13 15/15/15 14/14/14
f 15/15/15 13/13/13 16/16/16
f 17/17/17 19/19/19 18/18/18
f 20/20/20 19/19/19 17/17/17
f 20/20/20 17/17/17 21/21/21
f 21/21/21 17/17/17 22/22/22
f 22/22/22 23/23/23 21/21/21
f 24/24/24 26/26/26 25/25/25
f 25/25/25 27/27/27 24/24/24
f 27/27/27 25/25/25 28/28/28
f 29/29/29 24/24/24 27/27/27
f 28/28/28 30/30/30 27/27/27
f 27/27/27 31/31/31 29/29/29
f 31/31/31 27/27/27 30/30/30
f 32/32/32 29/29/29 31/31/31
f 30/30/30 33/33/33 31/31/31
f 31/31/31 34/34/34 32/32/32
f 34/34/34 31/31/31 33/33/33
f 35/35/35 32/32/32 34/34/34
f 33/33/33 36/36/36 34/34/34
f 35/35/35 34/34/34 36/36/36
f 36/36/36 33/33/33 37/37/37
f 38/38/38 37/37/37 33/33/33
f 33/33/33 39/39/39 38/38/38
f 37/37/37 38/38/38 40/40/40
f 40/40/40 41/41/41 37/37/37
f 37/37/37 42/42/42 36/36/36
f 42/42/42 37/37/37 41/41/41
f 36/36/36 43/43/43 35/35/35
f 43/43/43 36/36/36 42/42/42
f 41/41/41 44/44/44 42/42/42
f 44/44/44 41/41/41 45/45/45
f 42/42/42 46/46/46 43/43/43
f 46/46/46 42/42/42 44/44/44
f 44/44/44 47/47/47 46/46/46
f 45/45/45 48/48/48 44/44/44
f 47/47/47 44/44/44 48/48/48
f 48/48/48 45/45/45 49/49/49
f 49/49/49 50/50/50 48/48/48
f 51/51/51 48/48/48 50/50/50
f 48/48/48 51/51/51 47/47/47
f 50/50/50 52/52/52 51/51/51
f 53/53/53 51/51/51 52/52/52
f 47/47/47 51/51/51 53/53/53
f 52/52/52 54/54/54 53/53/53
f 55/55/55 53/53/53 54/54/54
f 53/53/53 56/56/56 47/47/47
f 47/47/47 56/56/56 46/46/46
f 57/57/57 56/56/56 53/53/53
f 53/53/53 55/55/55 57/57/57
f 56/56/56 57/57/57 58/58/58
f 58/58/58 46/46/46 56/56/56
f 59/59/59 57/57/57 55/55/55
f 57/57/57 59/59/59 58/58/58
f 46/46/46 58/58/58 60/60/60
f 61/61/61 60/60/60 58/58/58
f 55/55/55 62/62/62 59/59/59
f 62/62/62 55/55/55 63/63/63
f 63/63/63 64/64/64 62/62/62
f 64/64/64 65/65/65 62/62/62
f 59/59/59 62/62/62 65/65/65
f 65/65/65 64/64/64 66/66/66
f 65/65/65 67/67/67 59/59/59
f 68/68/68 59/59/59 67/67/67
f 66/66/66 69/69/69 65/65/65
f 67/67/67 65/65/65 69/69/69
f 66/66/66 70/70/70 69/69/69
f 67/67/67 69/69/69 70/70/70
f 70/70/70 66/66/66 71/71/71
f 67/67/67 72/72/72 68/68/68
f 72/72/72 67/67/67 70/70/70
f 71/71/71 73/73/73 70/70/70
f 71/71/71 74/74/74 73/73/73
f 75/75/75 68/68/68 72/72/72
f 75/75/75 76/76/76 68/68/68
f 70/70/70 77/77/77 72/72/72
f 73/73/73 78/78/78 70/70/70
f 77/77/77 70/70/70 78/78/78
f 79/79/79 77/77/77 78/78/78
f 80/80/80 78/78/78 73/73/73
f 78/78/78 80/80/80 79/79/79
f 81/81/81 73/73/73 74/74/74
f 73/73/73 81/81/81 80/80/80
f 82/82/82 81/81/81 74/74/74
f 74/74/74 83/83/83 82/82/82
f 81/81/81 82/82/82 84/84/84
f 84/84/84 80/80/80 81/81/81
f 80/80/80 84/84/84 85/85/85
f 85/85/85 79/79/79 80/80/80
f 79/79/79 85/85/85 86/86/86
f 79/79/79 86/86/86 87/87/87
f 87/87/87 88/88/88 79/79/79
f 89/89/89 79/79/79 88/88/88
f 79/79/79 89/89/89 77/77/77
f 88/88/88 90/90/90 89/89/89
f 90/90/90 91/91/91 89/89/89
f 89/89/89 92/92/92 77/77/77
f 72/72/72 77/77/77 92/92/92
f 93/93/93 89/89/89 91/91/91
f 89/89/89 93/93/93 92/92/92
f 91/91/91 94/94/94 93/93/93
f 92/92/92 95/95/95 72/72/72
f 95/95/95 92/92/92 93/93/93
f 72/72/72 95/95/95 75/75/75
f 93/93/93 94/94/94 96/96/96
f 97/97/97 96/96/96 94/94/94
f 96/96/96 97/97/97 98/98/98
f 93/93/93 99/99/99 95/95/95
f 75/75/75 95/95/95 99/99/99
f 96/96/96 99/99/99 93/93/93
f 98/98/98 100/100/100 96/96/96
f 99/99/99 96/96/96 100/100/100
f 101/101/101 100/100/100 98/98/98
f 99/99/99 102/102/102 75/75/75
f 100/100/100 102/102/102 99/99/99
f 76/76/76 75/75/75 102/102/102
f 100/100/100 101/101/101 103/103/103
f 103/103/103 102/102/102 100/100/100
f 102/102/102 103/103/103 76/76/76
f 103/103/103 101/101/101 104/104/104
f 105/105/105 76/76/76 103/103/103
f 76/76/76 105/105/105 106/106/106
f 105/105/105 107/107/107 106/106/106
f 103/103/103 108/108/108 105/105/105
f 107/107/107 105/105/105 108/108/108
f 104/104/104 108/108/108 103/103/103
f 108/108/108 109/109/109 107/107/107
f 109/109/109 108/108/108 104/104/104
f 61/61/61 107/107/107 109/109/109
f 104/104/104 110/110/110 109/109/109
f 61/61/61 109/109/109 110/110/110
f 111/111/111 110/110/110 104/104/104
f 112/112/112 110/110/110 111/111/111
f 110/110/110 112/112/112 61/61/61
f 113/113/113 61/61/61 112/112/112
f 112/112/112 114/114/114 113/113/113
f 61/61/61 113/113/113 60/60/60
f 115/115/115 113/113/113 114/114/114
f 113/113/113 115/115/115 60/60/60
f 114/114/114 116/116/116 115/115/115
f 117/117/117 60/60/60 115/115/115
f 114/114/114 118/118/118 116/116/116
f 60/60/60 117/117/117 46/46/46
f 119/119/119 116/116/116 118/118/118
f 118/118/118 120/120/120 119/119/119
f 116/116/116 119/119/119 121/121/121
f 122/122/122 117/117/117 121/121/121
f 117/117/117 122/122/122 46/46/46
f 122/122/122 121/121/121 119/119/119
f 123/123/123 119/119/119 120/120/120
f 119/119/119 123/123/123 122/122/122
f 120/120/120 124/124/124 123/123/123
f 122/122/122 125/125/125 46/46/46
f 125/125/125 43/43/43 46/46/46
f 122/122/122 126/126/126 125/125/125
f 126/126/126 122/122/122 123/123/123
f 43/43/43 125/125/125 126/126/126
f 127/127/127 123/123/123 124/124/124
f 123/123/123 127/127/127 126/126/126
f 43/43/43 126/126/126 127/127/127
f 124/124/124 128/128/128 127/127/127
f 127/127/127 35/35/35 43/43/43
f 35/35/35 127/127/127 128/128/128
f 129/129/129 131/131/131 130/130/130
f 130/130/130 132/132/132 129/129/129
f 129/129/129 132/132/132 133/133/133
f 132/132/132 134/134/134 133/133/133
f 133/133/133 135/135/135 129/129/129
f 135/135/135 133/133/133 136/136/136
f 135/135/135 137/137/137 129/129/129
f 136/136/136 138/138/138 135/135/135
f 137/137/137 135/135/135 138/138/138
f 138/138/138 139/139/139 137/137/137
f 138/138/138 136/136/136 140/140/140
f 139/139/139 138/138/138 141/141/141
f 140/140/140 141/141/141 138/138/138
f 139/139/139 141/141/141 142/142/142
f 143/143/143 142/142/142 141/141/141
f 141/141/141 140/140/140 143/143/143
f 144/144/144 143/143/143 140/140/140
f 145/145/145 147/147/147 146/146/146
f 148/148/148 145/145/145 146/146/146
f 146/146/146 149/149/149 148/148/148
f 150/150/150 148/148/148 149/149/149
f 149/149/149 151/151/151 150/150/150
f 152/152/152 150/150/150 151/151/151
f 151/151/151 153/153/153 152/152/152
f 152/152/152 153/153/153 154/154/154
f 154/154/154 155/155/155 152/152/152
f 156/156/156 158/158/158 157/157/157
f 157/157/157 159/159/159 156/156/156
f 159/159/159 157/157/157 160/160/160
f 160/160/160 161/161/161 159/159/159
f 162/162/162 164/164/164 163/163/163
f 163/163/163 165/165/165 162/162/162
f 165/165/165 163/163/163 166/166/166
f 166/166/166 167/167/167 165/165/165
f 165/165/165 167/167/167 168/168/168
f 169/169/169 168/168/168 167/167/167
f 170/170/170 172/172/172 171/171/171
f 171/171/171 173/173/173 170/170/170
f 174/174/174 170/170/170 173/173/173
f 173/173/173 175/175/175 174/174/174
f 176/176/176 174/174/174 175/175/175
f 175/175/175 177/177/177 176/176/176
f 178/178/178 176/176/176 177/177/177
f 177/177/177 179/179/179 178/178/178
f 180/180/180 178/178/178 179/179/179
f 179/179/179 181/181/181 180/180/180
f 182/182/182 180/180/180 181/181/181
f 181/181/181 183/183/183 182/182/182
f 184/184/184 182/182/182 183/183/183
f 183/183/183 185/185/185 184/184/184
f 186/186/186 184/184/184 185/185/185
f 185/185/185 187/187/187 186/186/186
f 188/188/188 190/190/190 189/189/189
f 191/191/191 189/189/189 190/190/190
f 190/190/190 192/192/192 191/191/191
f 193/193/193 191/191/191 192/192/192
f 192/192/192 194/194/194 193/193/193
f 195/195/195 193/193/193 194/194/194
f 194/194/194 196/196/196 195/195/195
f 197/197/197 195/195/195 196/196/196
f 196/196/196 198/198/198 197/197/197
f 199/199/199 197/197/197 198/198/198
f 198/198/198 200/200/200 199/199/199
f 201/201/201 199/199/199 200/200/200
f 200/200/200 202/202/202 201/201/201
f 203/203/203 205/205/205 204/204/204
f 206/206/206 204/204/204 205/205/205
f 205/205/205 207/207/207 206/206/206
f 208/208/208 210/210/210 209/209/209
f 208/208/208 211/211/211 210/210/210
f 212/212/212 214/214/214 213/213/213
f 212/212/212 215/215/215 214/214/214
f 216/216/216 218/218/218 217/217/217
f 216/216/216 219/219/219 218/218/218
f 220/220/220 222/222/222 221/221/221
f 220/220/220 223/223/223 222/222/222
f 224/224/224 226/226/226 225/225/225
f 224/224/224 227/227/227 226/226/226
f 228/228/228 230/230/230 229/229/229
f 229/229/229 231/231/231 228/228/228
f 232/232/232 234/234/234 233/233/233
f 233/233/233 235/235/235 232/232/232
f 236/236/236 238/238/238 237/237/237
f 237/237/237 239/239/239 236/236/236
f 240/240/240 242/242/242 241/241/241
f 241/241/241 243/243/243 240/240/240
f 244/244/244 246/246/246 245/245/245
f 245/245/245 247/247/247 244/244/244
f 248/248/248 250/250/250 249/249/249
f 249/249/249 251/251/251 248/248/248
f 252/252/252 254/254/254 253/253/253
f 253/253/253 255/255/255 252/252/252
f 256/256/256 258/258/258 257/257/257
f 257/257/257 259/259/259 256/256/256
f 260/260/260 262/262/262 261/261/261
f 261/261/261 263/263/263 260/260/260
f 264/264/264 266/266/266 265/265/265
f 265/265/265 267/267/267 264/264/264
f 268/268/268 270/270/270 269/269/269
f 269/269/269 271/271/271 268/268/268
f 272/272/272 274/274/274 273/273/273
f 275/275/275 272/272/272 273/273/273
f 275/275/275 276/276/276 272/272/272
f 276/276/276 277/277/277 272/272/272
f 277/277/277 276/276/276 278/278/278
f 279/279/279 281/281/281 280/280/280
f 281/281/281 279/279/279 282/282/282
f 282/282/282 283/283/283 281/281/281
f 284/284/284 282/282/282 279/279/279
f 283/283/283 282/282/282 285/285/285
f 282/282/282 284/284/284 286/286/286
f 286/286/286 285/285/285 282/282/282
f 287/287/287 286/286/286 284/284/284
f 285/285/285 286/286/286 288/288/288
f 286/286/286 287/287/287 289/289/289
f 289/289/289 288/288/288 286/286/286
f 290/290/290 289/289/289 287/287/287
f 288/288/288 289/289/289 291/291/291
f 290/290/290 291/291/291 289/289/289
f 291/291/291 292/292/292 288/288/288
f 293/293/293 288/288/288 292/292/292
f 292/292/292 294/294/294 293/293/293
f 294/294/294 292/292/292 295/295/295
f 292/292/292 291/291/291 296/296/296
f 296/296/296 295/295/295 292/292/292
f 291/291/291 290/290/290 297/297/297
f 297/297/297 296/296/296 291/291/291
f 296/296/296 297/297/297 298/298/298
f 298/298/298 299/299/299 296/296/296
f 295/295/295 296/296/296 299/299/299
f 299/299/299 300/300/300 295/295/295
f 300/300/300 299/299/299 301/301/301
f 301/301/301 302/302/302 300/300/300
f 302/302/302 301/301/301 303/303/303
f 304/304/304 301/301/301 299/299/299
f 299/299/299 298/298/298 304/304/304
f 305/305/305 303/303/303 301/301/301
f 301/301/301 304/304/304 305/305/305
f 303/303/303 305/305/305 306/306/306
f 307/307/307 306/306/306 305/305/305
f 304/304/304 307/307/307 305/305/305
f 306/306/306 307/307/307 308/308/308
f 309/309/309 308/308/308 307/307/307
f 307/307/307 304/304/304 310/310/310
f 304/304/304 298/298/298 310/310/310
f 311/311/311 307/307/307 310/310/310
f 307/307/307 311/311/311 309/309/309
f 310/310/310 312/312/312 311/311/311
f 312/312/312 310/310/310 298/298/298
f 311/311/311 312/312/312 313/313/313
f 313/313/313 309/309/309 311/311/311
f 309/309/309 313/313/313 314/314/314
f 314/314/314 315/315/315 309/309/309
f 315/315/315 314/314/314 316/316/316
f 316/316/316 314/314/314 317/317/317
f 313/313/313 317/317/317 314/314/314
f 317/317/317 318/318/318 316/316/316
f 317/317/317 313/313/313 319/319/319
f 320/320/320 319/319/319 313/313/313
f 318/318/318 317/317/317 321/321/321
f 319/319/319 321/321/321 317/317/317
f 318/318/318 321/321/321 322/322/322
f 319/319/319 322/322/322 321/321/321
f 322/322/322 323/323/323 318/318/318
f 319/319/319 320/320/320 324/324/324
f 324/324/324 322/322/322 319/319/319
f 323/323/323 322/322/322 325/325/325
f 323/323/323 325/325/325 326/326/326
f 327/327/327 324/324/324 320/320/320
f 327/327/327 320/320/320 328/328/328
f 322/322/322 324/324/324 329/329/329
f 325/325/325 322/322/322 330/330/330
f 329/329/329 330/330/330 322/322/322
f 331/331/331 330/330/330 329/329/329
f 332/332/332 325/325/325 330/330/330
f 330/330/330 331/331/331 332/332/332
f 333/333/333 326/326/326 325/325/325
f 325/325/325 332/332/332 333/333/333
f 334/334/334 326/326/326 333/333/333
f 326/326/326 334/334/334 335/335/335
f 333/333/333 336/336/336 334/334/334
f 336/336/336 333/333/333 332/332/332
f 332/332/332 337/337/337 336/336/336
f 337/337/337 332/332/332 331/331/331
f 331/331/331 338/338/338 337/337/337
f 331/331/331 339/339/339 338/338/338
f 339/339/339 331/331/331 340/340/340
f 341/341/341 340/340/340 331/331/331
f 331/331/331 329/329/329 341/341/341
f 340/340/340 341/341/341 342/342/342
f 342/342/342 341/341/341 343/343/343
f 341/341/341 329/329/329 344/344/344
f 324/324/324 344/344/344 329/329/329
f 345/345/345 343/343/343 341/341/341
f 341/341/341 344/344/344 345/345/345
f 343/343/343 345/345/345 346/346/346
f 344/344/344 324/324/324 347/347/347
f 347/347/347 345/345/345 344/344/344
f 324/324/324 327/327/327 347/347/347
f 345/345/345 348/348/348 346/346/346
f 349/349/349 346/346/346 348/348/348
f 348/348/348 350/350/350 349/349/349
f 345/345/345 347/347/347 351/351/351
f 327/327/327 351/351/351 347/347/347
f 348/348/348 345/345/345 351/351/351
f 350/350/350 348/348/348 352/352/352
f 351/351/351 352/352/352 348/348/348
f 353/353/353 350/350/350 352/352/352
f 351/351/351 327/327/327 354/354/354
f 352/352/352 351/351/351 354/354/354
f 328/328/328 354/354/354 327/327/327
f 352/352/352 355/355/355 353/353/353
f 355/355/355 352/352/352 354/354/354
f 354/354/354 328/328/328 355/355/355
f 355/355/355 356/356/356 353/353/353
f 357/357/357 355/355/355 328/328/328
f 328/328/328 358/358/358 357/357/357
f 357/357/357 358/358/358 359/359/359
f 355/355/355 357/357/357 360/360/360
f 359/359/359 360/360/360 357/357/357
f 356/356/356 355/355/355 360/360/360
f 360/360/360 359/359/359 361/361/361
f 361/361/361 356/356/356 360/360/360
f 362/362/362 361/361/361 359/359/359
f 356/356/356 361/361/361 363/363/363
f 362/362/362 363/363/363 361/361/361
f 364/364/364 356/356/356 363/363/363
f 365/365/365 364/364/364 363/363/363
f 363/363/363 362/362/362 365/365/365
f 366/366/366 365/365/365 362/362/362
f 365/365/365 366/366/366 367/367/367
f 362/362/362 368/368/368 366/366/366
f 369/369/369 367/367/367 366/366/366
f 366/366/366 368/368/368 369/369/369
f 367/367/367 369/369/369 370/370/370
f 371/371/371 369/369/369 368/368/368
f 367/367/367 370/370/370 372/372/372
f 368/368/368 298/298/298 371/371/371
f 373/373/373 372/372/372 370/370/370
f 372/372/372 373/373/373 374/374/374
f 370/370/370 375/375/375 373/373/373
f 376/376/376 375/375/375 371/371/371
f 371/371/371 298/298/298 376/376/376
f 376/376/376 373/373/373 375/375/375
f 377/377/377 374/374/374 373/373/373
f 373/373/373 376/376/376 377/377/377
f 374/374/374 377/377/377 378/378/378
f 376/376/376 298/298/298 379/379/379
f 379/379/379 298/298/298 297/297/297
f 376/376/376 379/379/379 380/380/380
f 380/380/380 377/377/377 376/376/376
f 297/297/297 380/380/380 379/379/379
f 381/381/381 378/378/378 377/377/377
f 377/377/377 380/380/380 381/381/381
f 297/297/297 381/381/381 380/380/380
f 378/378/378 381/381/381 382/382/382
f 381/381/381 297/297/297 290/290/290
f 290/290/290 382/382/382 381/381/381
f 383/383/383 385/385/385 384/384/384
f 385/385/385 383/383/383 386/386/386
f 383/383/383 387/387/387 386/386/386
f 386/386/386 387/387/387 388/388/388
f 387/387/387 383/383/383 389/389/389
f 389/389/389 383/383/383 390/390/390
f 389/389/389 391/391/391 387/387/387
f 390/390/390 392/392/392 389/389/389
f 391/391/391 389/389/389 392/392/392
f 392/392/392 390/390/390 393/393/393
f 392/392/392 394/394/394 391/391/391
f 395/395/395 391/391/391 394/394/394
f 395/395/395 394/394/394 396/396/396
f 393/393/393 397/397/397 392/392/392
f 394/394/394 392/392/392 397/397/397
f 397/397/397 396/396/396 394/394/394
f 393/393/393 398/398/398 397/397/397
f 396/396/396 397/397/397 398/398/398
f 399/399/399 401/401/401 400/400/400
f 402/402/402 401/401/401 399/399/399
f 401/401/401 402/402/402 403/403/403
f 404/404/404 403/403/403 402/402/402
f 403/403/403 404/404/404 405/405/405
f 406/406/406 405/405/405 404/404/404
f 405/405/405 406/406/406 407/407/407
f 406/406/406 408/408/408 407/407/407
f 408/408/408 406/406/406 409/409/409
f 410/410/410 412/412/412 411/411/411
f 412/412/412 410/410/410 413/413/413
f 413/413/413 414/414/414 412/412/412
f 414/414/414 413/413/413 415/415/415
f 416/416/416 418/418/418 417/417/417
f 418/418/418 416/416/416 419/419/419
f 419/419/419 420/420/420 418/418/418
f 420/420/420 419/419/419 421/421/421
f 419/419/419 422/422/422 421/421/421
f 423/423/423 421/421/421 422/422/422
f 424/424/424 426/426/426 425/425/425
f 426/426/426 424/424/424 427/427/427
f 428/428/428 427/427/427 424/424/424
f 427/427/427 428/428/428 429/429/429
f 430/430/430 429/429/429 428/428/428
f 429/429/429 430/430/430 431/431/431
f 432/432/432 431/431/431 430/430/430
f 431/431/431 432/432/432 433/433/433
f 434/434/434 433/433/433 432/432/432
f 433/433/433 434/434/434 435/435/435
f 436/436/436 435/435/435 434/434/434
f 435/435/435 436/436/436 437/437/437
f 438/438/438 437/437/437 436/436/436
f 437/437/437 438/438/438 439/439/439
f 440/440/440 439/439/439 438/438/438
f 439/439/439 440/440/440 441/441/441
f 442/442/442 444/444/444 443/443/443
f 445/445/445 443/443/443 444/444/444
f 443/443/443 445/445/445 446/446/446
f 447/447/447 446/446/446 445/445/445
f 446/446/446 447/447/447 448/448/448
f 449/449/449 448/448/448 447/447/447
f 448/448/448 449/449/449 450/450/450
f 451/451/451 450/450/450 449/449/449
f 450/450/450 451/451/451 452/452/452
f 453/453/453 452/452/452 451/451/451
f 452/452/452 453/453/453 454/454/454
f 455/455/455 454/454/454 453/453/453
f 454/454/454 455/455/455 456/456/456
f 457/457/457 459/459/459 458/458/458
f 460/460/460 458/458/458 459/459/459
f 458/458/458 460/460/460 461/461/461
