#Fireplace_1950_27.obj

v 1.03391 -2.48088 0.6319427
v 0.9330177 -2.48088 -0.6319075
v 1.03391 -2.48088 -0.6319304
v 0.9330177 -2.48088 0.1858759
v -1.03391 -2.48088 0.6319427
v -0.9330177 -2.48088 0.1858759
v -1.03391 -2.48088 -0.6319304
v -0.9330177 -2.48088 -0.6319075
v -1.03391 -2.515381 -0.6319313
v -1.03391 -2.48088 0.6319427
v -1.03391 -2.515381 0.6319427
v -1.03391 -2.48088 -0.6319304
v -1.03391 -2.515381 0.6319427
v 1.03391 -2.48088 0.6319427
v 1.03391 -2.515381 0.6319427
v -1.03391 -2.48088 0.6319427
v 1.03391 -2.515381 0.6319427
v 1.03391 -2.48088 -0.6319304
v 1.03391 -2.515381 -0.6319313
v 1.03391 -2.48088 0.6319427
v 0.9330177 -2.48088 0.1858759
v 0.9330177 -1.122535 -0.6319075
v 0.9330177 -2.48088 -0.6319075
v 0.9330177 -1.122535 0.1858759
v -0.9330177 -2.48088 -0.6319075
v -0.9330177 -1.122535 0.1858759
v -0.9330177 -2.48088 0.1858759
v -0.9330177 -1.122535 -0.6319075
v -0.9330177 -1.122535 0.1858759
v 1.035254 -1.122535 0.2881126
v 0.9330177 -1.122535 0.1858759
v -1.035254 -1.122535 0.2881126
v 0.9330177 -1.122535 0.1858759
v 1.035254 -1.122535 -0.6319427
v 0.9330177 -1.122535 -0.6319075
v 1.035254 -1.122535 0.2881126
v -0.9330177 -1.122535 -0.6319075
v -1.035254 -1.122535 0.2881126
v -0.9330177 -1.122535 0.1858759
v -1.035254 -1.122535 -0.6319427
v -1.035254 -1.122535 0.2881126
v 1.035254 -1.053536 0.2881126
v 1.035254 -1.122535 0.2881126
v -1.035254 -1.053536 0.2881126
v 1.035254 -1.122535 0.2881126
v 1.035254 -1.053536 -0.6319427
v 1.035254 -1.122535 -0.6319427
v 1.035254 -1.053536 0.2881126
v -1.035254 -1.122535 -0.6319427
v -1.035254 -1.053536 0.2881126
v -1.035254 -1.122535 0.2881126
v -1.035254 -1.053536 -0.6319427
v 1.035254 -1.053536 0.2881126
v 0.6902542 -1.053536 -0.6319427
v 1.035254 -1.053536 -0.6319427
v 0.6902542 -1.053536 0.1782274
v -1.035254 -1.053536 0.2881126
v -0.6902542 -1.053536 0.1782274
v -1.035254 -1.053536 -0.6319427
v -0.6902542 -1.053536 -0.6319427
v -0.6902542 -1.053536 0.1782274
v 0.5522547 -0.3635356 0.04022789
v 0.6902542 -1.053536 0.1782274
v -0.5522547 -0.3635356 0.04022789
v 0.6902542 -1.053536 0.1782274
v 0.5522547 -0.3635356 -0.6319427
v 0.6902542 -1.053536 -0.6319427
v 0.5522547 -0.3635356 0.04022789
v -0.6902542 -1.053536 -0.6319427
v -0.5522547 -0.3635356 0.04022789
v -0.6902542 -1.053536 0.1782274
v -0.5522547 -0.3635356 -0.6319427
v -0.5522547 1.249482 0.04022694
v 0.5522547 0.3664639 0.04022694
v -0.5522547 0.3664639 0.04022694
v 0.5522547 1.249482 0.04022694
v 0.5522547 1.249482 0.04022694
v 0.5522547 0.3664639 -0.6319427
v 0.5522547 0.3664639 0.04022694
v 0.5522547 1.249482 -0.6319427
v -0.5522547 1.249482 -0.6319427
v -0.5522547 0.3664639 0.04022694
v -0.5522547 0.3664639 -0.6319427
v -0.5522547 1.249482 0.04022694
v 0.5522547 1.249482 0.04022694
v 0.6902542 1.249482 -0.6319427
v 0.5522547 1.249482 -0.6319427
v 0.6902542 1.249482 0.1782265
v -0.5522547 1.249482 0.04022694
v -0.6902542 1.249482 0.1782265
v -0.5522547 1.249482 -0.6319427
v -0.6902542 1.249482 -0.6319427
v -0.6902542 1.249482 0.1782265
v 0.6902542 1.320709 0.1782265
v 0.6902542 1.249482 0.1782265
v -0.6902542 1.320709 0.1782265
v 0.6902542 1.249482 0.1782265
v 0.6902542 1.320709 -0.6319427
v 0.6902542 1.249482 -0.6319427
v 0.6902542 1.320709 0.1782265
v -0.6902542 1.249482 -0.6319427
v -0.6902542 1.320709 0.1782265
v -0.6902542 1.249482 0.1782265
v -0.6902542 1.320709 -0.6319427
v 0.5215931 -1.564192 0.1858759
v 0.9330177 -2.48088 0.1858759
v 0.5215931 -2.48088 0.1858759
v 0.9330177 -1.122535 0.1858759
v 0.2607965 -1.48691 0.1858759
v -2.276248E-17 -1.444715 0.1858759
v -0.9330177 -1.122535 0.1858759
v -0.2607965 -1.48691 0.1858759
v -0.5215931 -1.564192 0.1858759
v -0.5215931 -2.48088 0.1858759
v -0.9330177 -2.48088 0.1858759
v -0.5215931 -2.48088 0.1858759
v 0.5215931 -2.48088 0.1513758
v 0.5215931 -2.48088 0.1858759
v -0.5215931 -2.48088 0.1513758
v 0.5215931 -2.48088 0.1858759
v 0.5215931 -1.564192 0.1513758
v 0.5215931 -1.564192 0.1858759
v 0.5215931 -2.48088 0.1513758
v -0.5215931 -1.564192 0.1858759
v -0.5215931 -2.48088 0.1513758
v -0.5215931 -2.48088 0.1858759
v -0.5215931 -1.564192 0.1513758
v -0.2607965 -1.48691 0.1513758
v -0.5215931 -1.219191 0.1513758
v -0.5215931 -1.564192 0.1513758
v -1.853757E-17 -1.444715 0.1513758
v 0.2607965 -1.48691 0.1513758
v 0.5215931 -1.219191 0.1513758
v 0.5215931 -1.564192 0.1513758
v -0.8665924 -2.48088 -0.5386238
v 0.8665924 -1.219191 -0.5386238
v 0.8665924 -2.48088 -0.5386238
v -0.8665924 -1.219191 -0.5386238
v 0.8665924 -2.48088 -0.5386238
v 0.8665924 -1.219191 0.1513758
v 0.8665924 -2.48088 0.1513758
v 0.8665924 -1.219191 -0.5386238
v -0.8665924 -2.48088 -0.5386238
v -0.8665924 -1.219191 0.1513758
v -0.8665924 -1.219191 -0.5386238
v -0.8665924 -2.48088 0.1513758
v 0.8665924 -1.219191 0.1513758
v -0.8665924 -1.219191 -0.5386238
v -0.8665924 -1.219191 0.1513758
v 0.8665924 -1.219191 -0.5386238
v -0.8665924 -2.48088 -0.5386238
v 0.8665924 -2.48088 0.1513758
v -0.8665924 -2.48088 0.1513758
v 0.8665924 -2.48088 -0.5386238
v -0.5215931 -1.564192 0.1858759
v -0.2607965 -1.48691 0.1513758
v -0.5215931 -1.564192 0.1513758
v -0.2607965 -1.48691 0.1858759
v -1.853757E-17 -1.444715 0.1513758
v -2.276248E-17 -1.444715 0.1858759
v 0.2607965 -1.48691 0.1513758
v 0.2607965 -1.48691 0.1858759
v 0.5215931 -1.564192 0.1513758
v 0.5215931 -1.564192 0.1858759
v -0.5215931 -1.219191 0.1513758
v -0.8665924 -2.48088 0.1513758
v -0.5215931 -2.48088 0.1513758
v -0.8665924 -1.219191 0.1513758
v 0.5215931 -2.48088 0.1513758
v 0.8665924 -1.219191 0.1513758
v 0.5215931 -1.219191 0.1513758
v 0.8665924 -2.48088 0.1513758
v 0.6399765 -1.450711 0.2554274
v 0.6399765 -2.480789 0.1856308
v 0.6399765 -2.480789 0.2554274
v 0.6399765 -1.450711 0.1856308
v -0.6402254 -2.480789 0.2554274
v -0.6402254 -1.450711 0.1856308
v -0.6402254 -1.450711 0.2554274
v -0.6402254 -2.480789 0.1856308
v 0.5220547 -1.561924 0.2554274
v 0.6399765 -2.480789 0.2554274
v 0.5220547 -2.480811 0.2554274
v 0.6399765 -1.450711 0.2554274
v 0.3353291 -1.386528 0.2554274
v 0.2961321 -1.497741 0.2554274
v 0.1676025 -1.360073 0.2554274
v 0.1480036 -1.471287 0.2554274
v -0.0001239777 -1.459052 0.2554274
v -0.0001239777 -1.347837 0.2554274
v -0.1678505 -1.360073 0.2554274
v -0.1482525 -1.471287 0.2554274
v -0.29638 -1.497741 0.2554274
v -0.335577 -1.386528 0.2554274
v -0.5223026 -1.561925 0.2554274
v -0.6402254 -1.450711 0.2554274
v -0.5223026 -2.480812 0.2554274
v -0.6402254 -2.480789 0.2554274
v 0.5220547 -1.561924 0.1872835
v 0.5220547 -2.480811 0.2554274
v 0.5220547 -2.480811 0.1872835
v 0.5220547 -1.561924 0.2554274
v -0.5223026 -2.480812 0.1872835
v -0.5223026 -1.561925 0.2554274
v -0.5223026 -1.561925 0.1872835
v -0.5223026 -2.480812 0.2554274
v -0.6402254 -1.450711 0.1856308
v -0.335577 -1.386528 0.2554274
v -0.6402254 -1.450711 0.2554274
v -0.335577 -1.386528 0.1856308
v -0.1678505 -1.360073 0.2554274
v -0.1678505 -1.360073 0.1856308
v -0.0001239777 -1.347837 0.2554274
v -0.0001239777 -1.347837 0.1856308
v 0.1676025 -1.360073 0.2554274
v 0.1676025 -1.360073 0.1856308
v 0.3353291 -1.386528 0.2554274
v 0.3353291 -1.386528 0.1856308
v 0.6399765 -1.450711 0.2554274
v 0.6399765 -1.450711 0.1856308
v -0.5223026 -1.561925 0.2554274
v -0.29638 -1.497741 0.1872835
v -0.5223026 -1.561925 0.1872835
v -0.29638 -1.497741 0.2554274
v -0.1482525 -1.471287 0.1872835
v -0.1482525 -1.471287 0.2554274
v -0.0001239777 -1.459052 0.1872835
v -0.0001239777 -1.459052 0.2554274
v 0.1480036 -1.471287 0.1872835
v 0.1480036 -1.471287 0.2554274
v 0.2961321 -1.497741 0.1872835
v 0.2961321 -1.497741 0.2554274
v 0.5220547 -1.561924 0.1872835
v 0.5220547 -1.561924 0.2554274
v 0.1357651 -2.483647 -0.3593397
v 0.07567215 -2.457074 -0.4127016
v 0.1037979 -2.483647 -0.3913069
v 0.1665955 -2.414078 -0.3185196
v 0.1567173 -2.457074 -0.3283987
v 0.1357651 -2.344508 -0.3593397
v 0.1567173 -2.371081 -0.3283987
v 0.07793522 -2.371081 -0.4171696
v 0.06805706 -2.414078 -0.4270477
v 0.1015339 -2.344508 -0.3868389
v 0.1665955 -2.414078 -0.3185196
v -0.3004255 -2.371081 0.1254749
v 0.1567173 -2.371081 -0.3283987
v -0.2905474 -2.414078 0.1353531
v 0.1567173 -2.457074 -0.3283987
v -0.3004255 -2.457074 0.1254749
v 0.1357651 -2.483647 -0.3593397
v -0.3292217 -2.483647 0.1007748
v -0.3300762 -2.344508 0.1034117
v 0.1567173 -2.371081 -0.3283987
v -0.3004255 -2.371081 0.1254749
v 0.1357651 -2.344508 -0.3593397
v -0.3658152 -2.344508 0.07429028
v 0.1015339 -2.344508 -0.3868389
v -0.3946972 -2.371081 0.0504837
v 0.1015339 -2.344508 -0.3868389
v -0.3658152 -2.344508 0.07429028
v 0.07793522 -2.371081 -0.4171696
v -0.4045753 -2.414078 0.04060459
v 0.06805706 -2.414078 -0.4270477
v -0.3946972 -2.457074 0.0504837
v 0.07567215 -2.457074 -0.4127016
v 0.07567215 -2.457074 -0.4127016
v -0.3620434 -2.483647 0.07144356
v 0.1037979 -2.483647 -0.3913069
v -0.3946972 -2.457074 0.0504837
v 0.1037979 -2.483647 -0.3913069
v -0.3292217 -2.483647 0.1007748
v 0.1357651 -2.483647 -0.3593397
v -0.3620434 -2.483647 0.07144356
v -0.2905474 -2.414078 0.1353531
v -0.3300762 -2.344508 0.1034117
v -0.3004255 -2.371081 0.1254749
v -0.3292217 -2.483647 0.1007748
v -0.3004255 -2.457074 0.1254749
v -0.3946972 -2.371081 0.0504837
v -0.3658152 -2.344508 0.07429028
v -0.3946972 -2.457074 0.0504837
v -0.4045753 -2.414078 0.04060459
v -0.3620434 -2.483647 0.07144356
v 0.2461796 -2.474819 -0.02035332
v 0.2897472 -2.460454 -0.09148979
v 0.2685099 -2.481709 -0.05905437
v 0.2358913 -2.398838 0.01936626
v 0.230113 -2.442052 0.007407188
v 0.2872066 -2.341866 -0.02035332
v 0.2554693 -2.359882 0.007407188
v 0.319767 -2.379723 -0.0903635
v 0.3139896 -2.422937 -0.1023226
v 0.3048735 -2.347317 -0.06017971
v 0.2358913 -2.398838 0.01936626
v -0.270319 -2.197633 -0.3275595
v 0.2554693 -2.359882 0.007407188
v -0.289897 -2.236588 -0.3156004
v 0.230113 -2.442052 0.007407188
v -0.2956743 -2.279802 -0.3275595
v 0.2461796 -2.474819 -0.02035332
v -0.2871952 -2.310229 -0.3614378
v -0.2488098 -2.176461 -0.3616362
v 0.2554693 -2.359882 0.007407188
v -0.270319 -2.197633 -0.3275595
v 0.2872066 -2.341866 -0.02035332
v -0.2299843 -2.18227 -0.4033155
v 0.3048735 -2.347317 -0.06017971
v -0.222353 -2.212435 -0.4370632
v 0.3048735 -2.347317 -0.06017971
v -0.2299843 -2.18227 -0.4033155
v 0.319767 -2.379723 -0.0903635
v -0.2281313 -2.255648 -0.4490223
v 0.3139896 -2.422937 -0.1023226
v -0.2477093 -2.294603 -0.4370632
v 0.2897472 -2.460454 -0.09148979
v 0.2897472 -2.460454 -0.09148979
v -0.2675066 -2.316304 -0.4003363
v 0.2685099 -2.481709 -0.05905437
v -0.2477093 -2.294603 -0.4370632
v 0.2685099 -2.481709 -0.05905437
v -0.2871952 -2.310229 -0.3614378
v 0.2461796 -2.474819 -0.02035332
v -0.2675066 -2.316304 -0.4003363
v -0.289897 -2.236588 -0.3156004
v -0.2488098 -2.176461 -0.3616362
v -0.270319 -2.197633 -0.3275595
v -0.2871952 -2.310229 -0.3614378
v -0.2956743 -2.279802 -0.3275595
v -0.222353 -2.212435 -0.4370632
v -0.2299843 -2.18227 -0.4033155
v -0.2477093 -2.294603 -0.4370632
v -0.2281313 -2.255648 -0.4490223
v -0.2675066 -2.316304 -0.4003363
v 0.06436253 -2.480191 0.1278048
v 0.1223249 -2.460251 0.1233759
v 0.09668159 -2.479521 0.1221094
v 0.03038502 -2.433637 0.1524811
v 0.03846836 -2.461225 0.1366396
v 0.07052422 -2.390243 0.1733742
v 0.04227638 -2.405635 0.1648035
v 0.1278133 -2.406208 0.1543694
v 0.1358967 -2.433797 0.1385279
v 0.1011629 -2.388023 0.1648493
v 0.03038502 -2.433637 0.1524811
v -0.03263474 -2.192918 -0.2449446
v 0.04227638 -2.405635 0.1648035
v -0.0445261 -2.220921 -0.257267
v 0.03846836 -2.461225 0.1366396
v -0.03644276 -2.248509 -0.2731085
v 0.06436253 -2.480191 0.1278048
v -0.01092243 -2.26417 -0.2884169
v -0.005953789 -2.173425 -0.2442579
v 0.04227638 -2.405635 0.1648035
v -0.03263474 -2.192918 -0.2449446
v 0.07052422 -2.390243 0.1733742
v 0.02627563 -2.1712 -0.2530098
v 0.1011629 -2.388023 0.1648493
v 0.05130672 -2.186641 -0.2686863
v 0.1011629 -2.388023 0.1648493
v 0.02627563 -2.1712 -0.2530098
v 0.1278133 -2.406208 0.1543694
v 0.05939007 -2.214228 -0.2845278
v 0.1358967 -2.433797 0.1385279
v 0.0474987 -2.242232 -0.2968502
v 0.1223249 -2.460251 0.1233759
v 0.1223249 -2.460251 0.1233759
v 0.02020264 -2.262703 -0.2955217
v 0.09668159 -2.479521 0.1221094
v 0.0474987 -2.242232 -0.2968502
v 0.09668159 -2.479521 0.1221094
v -0.01092243 -2.26417 -0.2884169
v 0.06436253 -2.480191 0.1278048
v 0.02020264 -2.262703 -0.2955217
v -0.0445261 -2.220921 -0.257267
v -0.005953789 -2.173425 -0.2442579
v -0.03263474 -2.192918 -0.2449446
v -0.01092243 -2.26417 -0.2884169
v -0.03644276 -2.248509 -0.2731085
v 0.05130672 -2.186641 -0.2686863
v 0.02627563 -2.1712 -0.2530098
v 0.0474987 -2.242232 -0.2968502
v 0.05939007 -2.214228 -0.2845278
v 0.02020264 -2.262703 -0.2955217
v -0.3088579 -2.457587 -0.3036804
v -0.3407087 -2.44096 -0.2538223
v -0.3243713 -2.458961 -0.2747869
v -0.3059292 -2.407687 -0.3415232
v -0.2992496 -2.436744 -0.327796
v -0.3459854 -2.364928 -0.3192091
v -0.322196 -2.379478 -0.3373938
v -0.3669586 -2.38511 -0.2639742
v -0.3602791 -2.414167 -0.250247
v -0.3581953 -2.364886 -0.2897606
v -0.3059292 -2.407687 -0.3415232
v 0.05163288 -2.194257 -0.1259727
v -0.322196 -2.379478 -0.3373938
v 0.0678997 -2.222466 -0.1301031
v -0.2992496 -2.436744 -0.327796
v 0.07457924 -2.251524 -0.1163759
v -0.3088579 -2.457587 -0.3036804
v 0.07037354 -2.269536 -0.08829021
v 0.03511429 -2.176129 -0.1038189
v -0.322196 -2.379478 -0.3373938
v 0.05163288 -2.194257 -0.1259727
v -0.3459854 -2.364928 -0.3192091
v 0.02209854 -2.176177 -0.07298279
v -0.3581953 -2.364886 -0.2897606
v 0.01849174 -2.193972 -0.04503536
v -0.3581953 -2.364886 -0.2897606
v 0.02209854 -2.176177 -0.07298279
v -0.3669586 -2.38511 -0.2639742
v 0.02517033 -2.223031 -0.03130817
v -0.3602791 -2.414167 -0.250247
v 0.04143715 -2.251239 -0.03543854
v -0.3407087 -2.44096 -0.2538223
v -0.3407087 -2.44096 -0.2538223
v 0.05672836 -2.270161 -0.05939674
v -0.3243713 -2.458961 -0.2747869
v 0.04143715 -2.251239 -0.03543854
v -0.3243713 -2.458961 -0.2747869
v 0.07037354 -2.269536 -0.08829021
v -0.3088579 -2.457587 -0.3036804
v 0.05672836 -2.270161 -0.05939674
v 0.0678997 -2.222466 -0.1301031
v 0.03511429 -2.176129 -0.1038189
v 0.05163288 -2.194257 -0.1259727
v 0.07037354 -2.269536 -0.08829021
v 0.07457924 -2.251524 -0.1163759
v 0.01849174 -2.193972 -0.04503536
v 0.02209854 -2.176177 -0.07298279
v 0.04143715 -2.251239 -0.03543854
v 0.02517033 -2.223031 -0.03130817
v 0.05672836 -2.270161 -0.05939674
v 0.4518661 -2.479329 0.2058477
v 0.4228373 -2.193116 0.2058477
v 0.4228373 -2.479329 0.2058477
v 0.4373512 -2.165557 0.2058477
v 0.4518661 -2.193116 0.2058477
v 0.4518661 -2.479329 0.2166014
v 0.4373512 -2.165557 0.2166014
v 0.4518661 -2.193116 0.2166014
v 0.4228373 -2.193116 0.2166014
v 0.4228373 -2.479329 0.2166014
v 0.4518661 -2.193116 0.2166014
v 0.4518661 -2.479329 0.2058477
v 0.4518661 -2.479329 0.2166014
v 0.4518661 -2.193116 0.2058477
v 0.4373512 -2.165557 0.2058477
v 0.4373512 -2.165557 0.2166014
v 0.4228373 -2.193116 0.2058477
v 0.4228373 -2.479329 0.2166014
v 0.4228373 -2.479329 0.2058477
v 0.4228373 -2.193116 0.2166014
v 0.4373512 -2.165557 0.2166014
v 0.4373512 -2.165557 0.2058477
v 0.3552666 -2.479329 0.2058477
v 0.3262367 -2.193116 0.2058477
v 0.3262367 -2.479329 0.2058477
v 0.3407516 -2.165557 0.2058477
v 0.3552666 -2.193116 0.2058477
v 0.3552666 -2.479329 0.2166014
v 0.3407516 -2.165557 0.2166014
v 0.3552666 -2.193116 0.2166014
v 0.3262367 -2.193116 0.2166014
v 0.3262367 -2.479329 0.2166014
v 0.3552666 -2.193116 0.2166014
v 0.3552666 -2.479329 0.2058477
v 0.3552666 -2.479329 0.2166014
v 0.3552666 -2.193116 0.2058477
v 0.3407516 -2.165557 0.2058477
v 0.3407516 -2.165557 0.2166014
v 0.3262367 -2.193116 0.2058477
v 0.3262367 -2.479329 0.2166014
v 0.3262367 -2.479329 0.2058477
v 0.3262367 -2.193116 0.2166014
v 0.3407516 -2.165557 0.2166014
v 0.3407516 -2.165557 0.2058477
v 0.258666 -2.479329 0.2058477
v 0.2296371 -2.193116 0.2058477
v 0.2296371 -2.479329 0.2058477
v 0.2441511 -2.165557 0.2058477
v 0.258666 -2.193116 0.2058477
v 0.258666 -2.479329 0.2166014
v 0.2441511 -2.165557 0.2166014
v 0.258666 -2.193116 0.2166014
v 0.2296371 -2.193116 0.2166014
v 0.2296371 -2.479329 0.2166014
v 0.258666 -2.193116 0.2166014
v 0.258666 -2.479329 0.2058477
v 0.258666 -2.479329 0.2166014
v 0.258666 -2.193116 0.2058477
v 0.2441511 -2.165557 0.2058477
v 0.2441511 -2.165557 0.2166014
v 0.2296371 -2.193116 0.2058477
v 0.2296371 -2.479329 0.2166014
v 0.2296371 -2.479329 0.2058477
v 0.2296371 -2.193116 0.2166014
v 0.2441511 -2.165557 0.2166014
v 0.2441511 -2.165557 0.2058477
v 0.1620665 -2.479329 0.2058477
v 0.1330366 -2.193116 0.2058477
v 0.1330366 -2.479329 0.2058477
v 0.1475515 -2.165557 0.2058477
v 0.1620665 -2.193116 0.2058477
v 0.1620665 -2.479329 0.2166014
v 0.1475515 -2.165557 0.2166014
v 0.1620665 -2.193116 0.2166014
v 0.1330366 -2.193116 0.2166014
v 0.1330366 -2.479329 0.2166014
v 0.1620665 -2.193116 0.2166014
v 0.1620665 -2.479329 0.2058477
v 0.1620665 -2.479329 0.2166014
v 0.1620665 -2.193116 0.2058477
v 0.1475515 -2.165557 0.2058477
v 0.1475515 -2.165557 0.2166014
v 0.1330366 -2.193116 0.2058477
v 0.1330366 -2.479329 0.2166014
v 0.1330366 -2.479329 0.2058477
v 0.1330366 -2.193116 0.2166014
v 0.1475515 -2.165557 0.2166014
v 0.1475515 -2.165557 0.2058477
v 0.06546593 -2.479329 0.2058477
v 0.03643703 -2.193116 0.2058477
v 0.03643703 -2.479329 0.2058477
v 0.05095196 -2.165557 0.2058477
v 0.06546593 -2.193116 0.2058477
v 0.06546593 -2.479329 0.2166014
v 0.05095196 -2.165557 0.2166014
v 0.06546593 -2.193116 0.2166014
v 0.03643703 -2.193116 0.2166014
v 0.03643703 -2.479329 0.2166014
v 0.06546593 -2.193116 0.2166014
v 0.06546593 -2.479329 0.2058477
v 0.06546593 -2.479329 0.2166014
v 0.06546593 -2.193116 0.2058477
v 0.05095196 -2.165557 0.2058477
v 0.05095196 -2.165557 0.2166014
v 0.03643703 -2.193116 0.2058477
v 0.03643703 -2.479329 0.2166014
v 0.03643703 -2.479329 0.2058477
v 0.03643703 -2.193116 0.2166014
v 0.05095196 -2.165557 0.2166014
v 0.05095196 -2.165557 0.2058477
v -0.03113365 -2.479329 0.2058477
v -0.0601635 -2.193116 0.2058477
v -0.0601635 -2.479329 0.2058477
v -0.04564857 -2.165557 0.2058477
v -0.03113365 -2.193116 0.2058477
v -0.03113365 -2.479329 0.2166014
v -0.04564857 -2.165557 0.2166014
v -0.03113365 -2.193116 0.2166014
v -0.0601635 -2.193116 0.2166014
v -0.0601635 -2.479329 0.2166014
v -0.03113365 -2.193116 0.2166014
v -0.03113365 -2.479329 0.2058477
v -0.03113365 -2.479329 0.2166014
v -0.03113365 -2.193116 0.2058477
v -0.04564857 -2.165557 0.2058477
v -0.04564857 -2.165557 0.2166014
v -0.0601635 -2.193116 0.2058477
v -0.0601635 -2.479329 0.2166014
v -0.0601635 -2.479329 0.2058477
v -0.0601635 -2.193116 0.2166014
v -0.04564857 -2.165557 0.2166014
v -0.04564857 -2.165557 0.2058477
v -0.1277342 -2.479329 0.2058477
v -0.1567631 -2.193116 0.2058477
v -0.1567631 -2.479329 0.2058477
v -0.1422482 -2.165557 0.2058477
v -0.1277342 -2.193116 0.2058477
v -0.1277342 -2.479329 0.2166014
v -0.1422482 -2.165557 0.2166014
v -0.1277342 -2.193116 0.2166014
v -0.1567631 -2.193116 0.2166014
v -0.1567631 -2.479329 0.2166014
v -0.1277342 -2.193116 0.2166014
v -0.1277342 -2.479329 0.2058477
v -0.1277342 -2.479329 0.2166014
v -0.1277342 -2.193116 0.2058477
v -0.1422482 -2.165557 0.2058477
v -0.1422482 -2.165557 0.2166014
v -0.1567631 -2.193116 0.2058477
v -0.1567631 -2.479329 0.2166014
v -0.1567631 -2.479329 0.2058477
v -0.1567631 -2.193116 0.2166014
v -0.1422482 -2.165557 0.2166014
v -0.1422482 -2.165557 0.2058477
v -0.2243338 -2.479329 0.2058477
v -0.2533627 -2.193116 0.2058477
v -0.2533627 -2.479329 0.2058477
v -0.2388487 -2.165557 0.2058477
v -0.2243338 -2.193116 0.2058477
v -0.2243338 -2.479329 0.2166014
v -0.2388487 -2.165557 0.2166014
v -0.2243338 -2.193116 0.2166014
v -0.2533627 -2.193116 0.2166014
v -0.2533627 -2.479329 0.2166023
v -0.2243338 -2.193116 0.2166014
v -0.2243338 -2.479329 0.2058477
v -0.2243338 -2.479329 0.2166014
v -0.2243338 -2.193116 0.2058477
v -0.2388487 -2.165557 0.2058477
v -0.2388487 -2.165557 0.2166014
v -0.2533627 -2.193116 0.2058477
v -0.2533627 -2.479329 0.2166023
v -0.2533627 -2.479329 0.2058477
v -0.2533627 -2.193116 0.2166014
v -0.2388487 -2.165557 0.2166014
v -0.2388487 -2.165557 0.2058477
v -0.3209343 -2.479329 0.2058477
v -0.3499632 -2.193116 0.2058477
v -0.3499632 -2.479329 0.2058477
v -0.3354483 -2.165557 0.2058477
v -0.3209343 -2.193116 0.2058477
v -0.3209343 -2.479329 0.2166023
v -0.3354483 -2.165557 0.2166023
v -0.3209343 -2.193116 0.2166023
v -0.3499632 -2.193116 0.2166023
v -0.3499632 -2.479329 0.2166023
v -0.3209343 -2.193116 0.2166023
v -0.3209343 -2.479329 0.2058477
v -0.3209343 -2.479329 0.2166023
v -0.3209343 -2.193116 0.2058477
v -0.3354483 -2.165557 0.2058477
v -0.3354483 -2.165557 0.2166023
v -0.3499632 -2.193116 0.2058477
v -0.3499632 -2.479329 0.2166023
v -0.3499632 -2.479329 0.2058477
v -0.3499632 -2.193116 0.2166023
v -0.3354483 -2.165557 0.2166023
v -0.3354483 -2.165557 0.2058477
v -0.4175339 -2.479329 0.2058477
v -0.4465628 -2.193116 0.2058477
v -0.4465628 -2.479329 0.2058477
v -0.4320488 -2.165557 0.2058477
v -0.4175339 -2.193116 0.2058477
v -0.4175339 -2.479329 0.2166023
v -0.4320488 -2.165557 0.2166014
v -0.4175339 -2.193116 0.2166014
v -0.4465628 -2.193116 0.2166014
v -0.4465628 -2.479329 0.2166023
v -0.4175339 -2.193116 0.2166014
v -0.4175339 -2.479329 0.2058477
v -0.4175339 -2.479329 0.2166023
v -0.4175339 -2.193116 0.2058477
v -0.4320488 -2.165557 0.2058477
v -0.4320488 -2.165557 0.2166014
v -0.4465628 -2.193116 0.2058477
v -0.4465628 -2.479329 0.2166023
v -0.4465628 -2.479329 0.2058477
v -0.4465628 -2.193116 0.2166014
v -0.4320488 -2.165557 0.2166014
v -0.4320488 -2.165557 0.2058477
v 0.5242348 -2.222231 0.1880255
v -0.5229607 -2.25126 0.1880255
v 0.5242348 -2.25126 0.1880255
v -0.5229607 -2.222231 0.1880255
v 0.5242348 -2.222231 0.2064524
v -0.5229607 -2.25126 0.2064524
v -0.5229607 -2.222231 0.2064524
v 0.5242348 -2.25126 0.2064524
v 0.5242348 -2.25126 0.2064524
v -0.5229607 -2.25126 0.1880255
v -0.5229607 -2.25126 0.2064524
v 0.5242348 -2.25126 0.1880255
v -0.5229607 -2.222231 0.2064524
v 0.5242348 -2.222231 0.1880255
v 0.5242348 -2.222231 0.2064524
v -0.5229607 -2.222231 0.1880255
v 0.5242348 -2.382816 0.1880255
v -0.5229607 -2.411845 0.1880255
v 0.5242348 -2.411845 0.1880255
v -0.5229607 -2.382816 0.1880255
v 0.5242348 -2.382816 0.2064524
v -0.5229607 -2.411845 0.2064524
v -0.5229607 -2.382816 0.2064524
v 0.5242348 -2.411845 0.2064524
v 0.5242348 -2.411845 0.2064524
v -0.5229607 -2.411845 0.1880255
v -0.5229607 -2.411845 0.2064524
v 0.5242348 -2.411845 0.1880255
v -0.5229607 -2.382816 0.2064524
v 0.5242348 -2.382816 0.1880255
v 0.5242348 -2.382816 0.2064524
v -0.5229607 -2.382816 0.1880255
v 0.5203829 -2.479329 0.2058477
v 0.491354 -2.103085 0.2058477
v 0.491354 -2.479329 0.2058477
v 0.505868 -2.075526 0.2058477
v 0.5203829 -2.103085 0.2058477
v 0.5203829 -2.479329 0.2242756
v 0.505868 -2.075526 0.2242756
v 0.5203829 -2.103085 0.2242756
v 0.491354 -2.103085 0.2242756
v 0.491354 -2.479329 0.2242756
v 0.5203829 -2.103085 0.2242756
v 0.5203829 -2.479329 0.2058477
v 0.5203829 -2.479329 0.2242756
v 0.5203829 -2.103085 0.2058477
v 0.505868 -2.075526 0.2058477
v 0.505868 -2.075526 0.2242756
v 0.491354 -2.103085 0.2058477
v 0.491354 -2.479329 0.2242756
v 0.491354 -2.479329 0.2058477
v 0.491354 -2.103085 0.2242756
v 0.505868 -2.075526 0.2242756
v 0.505868 -2.075526 0.2058477
v -0.4879017 -2.479329 0.2058477
v -0.5169315 -2.103085 0.2058477
v -0.5169315 -2.479329 0.2058477
v -0.5024166 -2.075526 0.2058477
v -0.4879017 -2.103085 0.2058477
v -0.4879017 -2.479329 0.2242756
v -0.5024166 -2.075526 0.2242756
v -0.4879017 -2.103085 0.2242756
v -0.5169315 -2.103085 0.2242756
v -0.5169315 -2.479329 0.2242756
v -0.4879017 -2.103085 0.2242756
v -0.4879017 -2.479329 0.2058477
v -0.4879017 -2.479329 0.2242756
v -0.4879017 -2.103085 0.2058477
v -0.5024166 -2.075526 0.2058477
v -0.5024166 -2.075526 0.2242756
v -0.5169315 -2.103085 0.2058477
v -0.5169315 -2.479329 0.2242756
v -0.5169315 -2.479329 0.2058477
v -0.5169315 -2.103085 0.2242756
v -0.5024166 -2.075526 0.2242756
v -0.5024166 -2.075526 0.2058477
v -0.5522547 -0.3635356 0.04022789
v 0.5522547 0.3664639 0.04022694
v 0.5522547 -0.3635356 0.04022789
v -0.5522547 0.3664639 0.04022694
v 0.5522547 -0.3635356 0.04022789
v 0.5522547 0.3664639 -0.6319427
v 0.5522547 -0.3635356 -0.6319427
v 0.5522547 0.3664639 0.04022694
v -0.5522547 -0.3635356 -0.6319427
v -0.5522547 0.3664639 0.04022694
v -0.5522547 -0.3635356 0.04022789
v -0.5522547 0.3664639 -0.6319427

vn 0 1 0
vn 0 1 0
vn 0 1 0
vn -1.251698E-06 1 0
vn 0 1 0
vn 7.748604E-07 1 0
vn 0 1 0
vn 0 1 0
vn 1 0 0
vn 1 0 0
vn 1 0 0
vn 1 0 0
vn 0 0 -1
vn 0 0 -1
vn 0 0 -1
vn 0 0 -1
vn -1 0 0
vn -1 0 0
vn -1 0 0
vn -1 0 0
vn -1 0 0
vn -1 0 0
vn -1 0 0
vn -1 0 0
vn 1 0 0
vn 1 0 0
vn 1 0 0
vn 1 0 0
vn 0 -1 0
vn 0 -1 0
vn 0 -1 0
vn 0 -1 0
vn 0 -1 0
vn 0 -1 0
vn 0 -1 0
vn 0 -1 0
vn 0 -1 0
vn 0 -1 0
vn 0 -1 0
vn 0 -1 0
vn 0 -9.536743E-07 -1
vn 0 -9.536743E-07 -1
vn 0 -9.536743E-07 -1
vn 0 -9.536743E-07 -1
vn -1 0 0
vn -1 0 0
vn -1 0 0
vn -1 0 0
vn 1 0 0
vn 1 0 0
vn 1 0 0
vn 1 0 0
vn 0 1 0
vn 0 1 0
vn 0 1 0
vn 0 1 0
vn 0 1 0
vn 0 1 0
vn 0 1 0
vn 0 1 0
vn 0 0.196167 -0.9804688
vn 0 0.104248 -0.9946289
vn 0 0.196167 -0.9804688
vn 0 0.104248 -0.9946289
vn -0.9804688 0.196167 0
vn -0.9951172 0.09851074 0
vn -0.9804688 0.196167 0
vn -0.9946289 0.104248 0
vn 0.9804688 0.196167 0
vn 0.9946289 0.104248 0
vn 0.9804688 0.196167 0
vn 0.9951172 0.09851074 0
vn 0 0 -1
vn 0 0.104248 -0.9946289
vn 0 0.104248 -0.9946289
vn 0 0 -1
vn -1 0 0
vn -0.9951172 0.09851074 0
vn -0.9946289 0.104248 0
vn -1 0 0
vn 1 0 0
vn 0.9946289 0.104248 0
vn 0.9951172 0.09851074 0
vn 1 0 0
vn 0 -1 0
vn 0 -1 0
vn 0 -1 0
vn 0 -1 0
vn 0 -1 0
vn 0 -1 0
vn 0 -1 0
vn 0 -1 0
vn 0 0 -1
vn 0 0 -1
vn 0 0 -1
vn 0 0 -1
vn -1 0 0
vn -1 0 0
vn -1 0 0
vn -1 0 0
vn 1 0 0
vn 1 0 0
vn 1 0 0
vn 1 0 0
vn 0 0 -1
vn 0 0 -1
vn 0 0 -1
vn 0 0 -1
vn 0 0 -1
vn 0 0 -1
vn 0 0 -1
vn 0 0 -1
vn 0 0 -1
vn 0 0 -1
vn 0 0 -1
vn 0 1 0
vn 0 1 0
vn 0 1 0
vn 0 1 0
vn 1 0 0
vn 1 0 0
vn 1 0 0
vn 1 0 0
vn -1 0 0
vn -1 0 0
vn -1 0 0
vn -1 0 0
vn 0 0 1
vn 0 0 1
vn 0 0 1
vn 0 0 1
vn 0 0 1
vn 0 0 1
vn 0 0 1
vn 0 0 -1
vn 0 0 -1
vn 0 0 -1
vn 0 0 -1
vn 1 0 0
vn 1 0 0
vn 1 0 0
vn 1 0 0
vn -1 0 0
vn -1 0 0
vn -1 0 0
vn -1 0 0
vn 0 -1 0
vn 0 -1 0
vn 0 -1 0
vn 0 -1 0
vn 0 1 0
vn 0 1 0
vn 0 1 0
vn 0 1 0
vn -0.2841797 -0.9589844 0
vn -0.2224121 -0.9750977 0
vn -0.2841797 -0.9589844 0
vn -0.2224121 -0.9750977 0
vn 0 -1 0
vn 0 -1 0
vn 0.2224121 -0.9750977 0
vn 0.2224121 -0.9750977 0
vn 0.2841797 -0.9589844 0
vn 0.2841797 -0.9589844 0
vn 0 0 1
vn 0 0 1
vn 0 0 1
vn 0 0 1
vn 0 0 1
vn 0 0 1
vn 0 0 1
vn 0 0 1
vn -1 0 0
vn -1 0 0
vn -1 0 0
vn -1 0 0
vn 1 0 0
vn 1 0 0
vn 1 0 0
vn 1 0 0
vn 0 0 -1
vn 0 0 -1
vn 0 0 -1
vn 0 0 -1
vn 0 0 -1
vn 0 0 -1
vn 0 0 -1
vn 0 0 -1
vn 0 0 -1
vn 0 0 -1
vn 0 0 -1
vn 0 0 -1
vn 0 0 -1
vn 0 0 -1
vn 0 0 -1
vn 0 0 -1
vn 0 0 -1
vn 0 0 -1
vn 1 0 0
vn 1 0 0
vn 1 0 0
vn 1 0 0
vn -1 0 0
vn -1 0 0
vn -1 0 0
vn -1 0 0
vn 0.2061768 0.9785156 0
vn 0.1810303 0.9833984 0
vn 0.2061768 0.9785156 0
vn 0.1810303 0.9833984 0
vn 0.1143799 0.9936523 0
vn 0.1143799 0.9936523 0
vn 0 1 0
vn 0 1 0
vn -0.1143799 0.9936523 0
vn -0.1143799 0.9936523 0
vn -0.1810303 0.9833984 0
vn -0.1810303 0.9833984 0
vn -0.2061768 0.9785156 0
vn -0.2061768 0.9785156 0
vn -0.2731934 -0.9619141 0
vn -0.2248535 -0.9746094 0
vn -0.2731934 -0.9619141 0
vn -0.2248535 -0.9746094 0
vn -0.1291504 -0.9916992 0
vn -0.1291504 -0.9916992 0
vn 0 -1 0
vn 0 -1 0
vn 0.1291504 -0.9916992 0
vn 0.1291504 -0.9916992 0
vn 0.2248535 -0.9746094 0
vn 0.2248535 -0.9746094 0
vn 0.2731934 -0.9619141 0
vn 0.2731934 -0.9619141 0
vn -0.7592773 0.02511597 0.6499023
vn -0.6669922 -0.03717041 0.7441406
vn -0.6679688 0.01750183 0.7441406
vn -0.7714844 0 0.6362305
vn -0.7900391 0.009170532 0.6132813
vn -0.7231445 -0.007511139 0.6904297
vn -0.7900391 -0.009170532 0.6132813
vn -0.7285156 0.04333496 0.6835938
vn -0.7060547 -0.05441284 0.7060547
vn -0.6889648 0.06121826 0.722168
vn -0.7045898 0 -0.7094727
vn -0.5649414 0.5976563 -0.5688477
vn -0.5634766 0.6005859 -0.5673828
vn -0.7045898 0 -0.7094727
vn -0.5634766 -0.6005859 -0.5673828
vn -0.5634766 -0.5996094 -0.5683594
vn -0.2062988 -0.9560547 -0.2077637
vn -0.2033691 -0.9575195 -0.2055664
vn -0.2020264 0.9580078 -0.2034912
vn -0.5634766 0.6005859 -0.5673828
vn -0.5649414 0.5976563 -0.5688477
vn -0.2141113 0.9526367 -0.2155762
vn 0.227417 0.9462891 0.2304688
vn 0.2095947 0.9545898 0.2119141
vn 0.5708008 0.5839844 0.5771484
vn 0.2095947 0.9545898 0.2119141
vn 0.227417 0.9462891 0.2304688
vn 0.5693359 0.5874023 0.5751953
vn 0.703125 0 0.7109375
vn 0.7026367 -0.004161835 0.7114258
vn 0.5732422 -0.578125 0.5805664
vn 0.5654297 -0.5942383 0.5722656
vn 0.5654297 -0.5942383 0.5722656
vn 0.227417 -0.9458008 0.230835
vn 0.2164307 -0.9516602 0.2177734
vn 0.5732422 -0.578125 0.5805664
vn 0.2164307 -0.9516602 0.2177734
vn -0.2033691 -0.9575195 -0.2055664
vn -0.2062988 -0.9560547 -0.2077637
vn 0.227417 -0.9458008 0.230835
vn 0.6533203 0 -0.7568359
vn 0.625 -0.03561401 -0.7797852
vn 0.6362305 -0.007175446 -0.7714844
vn 0.65625 -0.01405334 -0.7543945
vn 0.6494141 -0.01686096 -0.7602539
vn 0.6225586 -0.03201294 -0.7822266
vn 0.6259766 -0.03050232 -0.7792969
vn 0.5996094 -0.009483337 -0.800293
vn 0.625 0 -0.7807617
vn 0.6196289 -0.03771973 -0.7836914
vn -0.784668 -0.2158203 -0.581543
vn -0.8320313 -0.2956543 -0.4689941
vn -0.8486328 -0.2435303 -0.4699707
vn -0.7666016 -0.2365723 -0.5966797
vn -0.7524414 -0.2226563 -0.6196289
vn -0.8041992 -0.2561035 -0.5366211
vn -0.7470703 -0.2401123 -0.6196289
vn -0.8139648 -0.2058105 -0.5429688
vn -0.8007813 -0.3039551 -0.5161133
vn -0.8457031 -0.1968994 -0.4958496
vn 0.4968262 0.1533203 -0.8540039
vn 0.22229 0.6938477 -0.6850586
vn 0.2202148 0.6962891 -0.6831055
vn 0.4968262 0.1533203 -0.8540039
vn 0.5742188 -0.4511719 -0.6831055
vn 0.574707 -0.4499512 -0.6835938
vn 0.4274902 -0.8686523 -0.25
vn 0.4262695 -0.8701172 -0.2467041
vn -0.1400146 0.9594727 -0.244873
vn 0.2202148 0.6962891 -0.6831055
vn 0.22229 0.6938477 -0.6850586
vn -0.1300049 0.9570313 -0.2595215
vn -0.4406738 0.8540039 0.276123
vn -0.4299316 0.8662109 0.2543945
vn -0.5771484 0.4331055 0.6923828
vn -0.4299316 0.8662109 0.2543945
vn -0.4406738 0.8540039 0.276123
vn -0.5766602 0.4367676 0.6904297
vn -0.498291 -0.1538086 0.8535156
vn -0.4978027 -0.157959 0.8525391
vn -0.2368164 -0.6777344 0.6958008
vn -0.2260742 -0.6914063 0.6860352
vn -0.2260742 -0.6914063 0.6860352
vn 0.1168823 -0.9541016 0.276123
vn 0.1281738 -0.956543 0.262207
vn -0.2368164 -0.6777344 0.6958008
vn 0.1281738 -0.956543 0.262207
vn 0.4262695 -0.8701172 -0.2467041
vn 0.4274902 -0.8686523 -0.25
vn 0.1168823 -0.9541016 0.276123
vn 0.8520508 0.2629395 0.4528809
vn 0.8769531 0.2333984 0.4196777
vn 0.8632813 0.2590332 0.4328613
vn 0.8544922 0.2489014 0.4560547
vn 0.8588867 0.2474365 0.4484863
vn 0.8774414 0.2373047 0.416748
vn 0.8754883 0.2381592 0.4206543
vn 0.8828125 0.2624512 0.3901367
vn 0.8676758 0.2675781 0.4194336
vn 0.8803711 0.2321777 0.4135742
vn -0.08856201 -0.432373 -0.8974609
vn -0.2149658 -0.4858398 -0.847168
vn -0.2175293 -0.4372559 -0.8725586
vn -0.06848145 -0.4545898 -0.8881836
vn -0.04006958 -0.4455566 -0.8945313
vn -0.1403809 -0.4616699 -0.8759766
vn -0.03894043 -0.4619141 -0.8862305
vn -0.1351318 -0.4160156 -0.8994141
vn -0.1601563 -0.5024414 -0.8496094
vn -0.1900635 -0.3986816 -0.8969727
vn 0.9853516 -0.01881409 -0.1704102
vn 0.753418 0.5170898 -0.4060059
vn 0.7509766 0.5195313 -0.4072266
vn 0.9853516 -0.01881409 -0.1704102
vn 0.8242188 -0.5498047 0.1346436
vn 0.8251953 -0.5483398 0.1345215
vn 0.3466797 -0.8569336 0.3813477
vn 0.3432617 -0.8574219 0.3830566
vn 0.223999 0.8476563 -0.480957
vn 0.7509766 0.5195313 -0.4072266
vn 0.753418 0.5170898 -0.4060059
vn 0.2412109 0.8427734 -0.4816895
vn -0.376709 0.8481445 -0.3725586
vn -0.3520508 0.8554688 -0.3803711
vn -0.8354492 0.534668 -0.126709
vn -0.3520508 0.8554688 -0.3803711
vn -0.376709 0.8481445 -0.3725586
vn -0.8334961 0.5375977 -0.1282959
vn -0.9853516 0.01803589 0.1688232
vn -0.9853516 0.01383209 0.1697998
vn -0.769043 -0.5004883 0.3979492
vn -0.7563477 -0.5146484 0.4033203
vn -0.7563477 -0.5146484 0.4033203
vn -0.2617188 -0.8369141 0.4807129
vn -0.2443848 -0.8417969 0.4816895
vn -0.769043 -0.5004883 0.3979492
vn -0.2443848 -0.8417969 0.4816895
vn 0.3432617 -0.8574219 0.3830566
vn 0.3466797 -0.8569336 0.3813477
vn -0.2617188 -0.8369141 0.4807129
vn 0.2352295 0.4519043 0.8603516
vn 0.2727051 0.4177246 0.8666992
vn 0.2573242 0.4443359 0.8579102
vn 0.232666 0.4396973 0.8676758
vn 0.2410889 0.4367676 0.8666992
vn 0.2756348 0.4206543 0.8642578
vn 0.2714844 0.4223633 0.8647461
vn 0.3024902 0.4387207 0.8461914
vn 0.2712402 0.449707 0.8510742
vn 0.2790527 0.4152832 0.8657227
vn 0.7709961 -0.3686523 0.5195313
vn 0.8115234 -0.4316406 0.394043
vn 0.831543 -0.3818359 0.4033203
vn 0.7519531 -0.3903809 0.53125
vn 0.7392578 -0.3793945 0.5566406
vn 0.7871094 -0.4018555 0.4680176
vn 0.7324219 -0.3962402 0.5537109
vn 0.8007813 -0.3544922 0.482666
vn 0.7797852 -0.4455566 0.4399414
vn 0.8330078 -0.3400879 0.4367676
vn -0.4755859 0.04327393 0.878418
vn -0.1617432 0.5825195 0.7963867
vn -0.1594238 0.5854492 0.7949219
vn -0.4755859 0.04327393 0.878418
vn -0.6010742 -0.5161133 0.6103516
vn -0.6010742 -0.5151367 0.6108398
vn -0.4907227 -0.8642578 0.1102905
vn -0.4897461 -0.8652344 0.1066895
vn 0.2158203 0.8911133 0.3991699
vn -0.1594238 0.5854492 0.7949219
vn -0.1617432 0.5825195 0.7963867
vn 0.2056885 0.887207 0.4135742
vn 0.5024414 0.8535156 -0.1385498
vn 0.4929199 0.8623047 -0.1149292
vn 0.6020508 0.5 -0.6225586
vn 0.4929199 0.8623047 -0.1149292
vn 0.5024414 0.8535156 -0.1385498
vn 0.6015625 0.5029297 -0.6201172
vn 0.4768066 -0.04394531 -0.8779297
vn 0.4763184 -0.04818726 -0.8779297
vn 0.1772461 -0.5664063 -0.8046875
vn 0.1656494 -0.5805664 -0.7973633
vn 0.1656494 -0.5805664 -0.7973633
vn -0.192627 -0.8823242 -0.4296875
vn -0.2038574 -0.8862305 -0.4160156
vn 0.1772461 -0.5664063 -0.8046875
vn -0.2038574 -0.8862305 -0.4160156
vn -0.4897461 -0.8652344 0.1066895
vn -0.4907227 -0.8642578 0.1102905
vn -0.192627 -0.8823242 -0.4296875
vn -0.8334961 0.3981934 -0.3833008
vn -0.8603516 0.3654785 -0.3549805
vn -0.8452148 0.3918457 -0.3637695
vn -0.8369141 0.3852539 -0.3886719
vn -0.8413086 0.3828125 -0.3813477
vn -0.8603516 0.3688965 -0.3513184
vn -0.8583984 0.3701172 -0.3549805
vn -0.8632813 0.3894043 -0.3208008
vn -0.8481445 0.3984375 -0.3491211
vn -0.8637695 0.3635254 -0.3491211
vn 0 0 1
vn 0 0 1
vn 0 0 1
vn 0 0 1
vn 0 0 1
vn 0 0 -1
vn 0 0 -1
vn 0 0 -1
vn 0 0 -1
vn 0 0 -1
vn -0.9707031 0.2399902 0
vn -1 0 0
vn -1 0 0
vn -0.9707031 0.2399902 0
vn -0.8847656 0.4660645 0
vn -0.8847656 0.4660645 0
vn 0.9707031 0.2399902 0
vn 1 0 0
vn 1 0 0
vn 0.9707031 0.2399902 0
vn 0.8847656 0.4660645 0
vn 0.8847656 0.4660645 0
vn 0 0 1
vn 0 0 1
vn 0 0 1
vn 0 0 1
vn 0 0 1
vn 0 0 -1
vn 0 0 -1
vn 0 0 -1
vn 0 0 -1
vn 0 0 -1
vn -0.9707031 0.2399902 0
vn -1 0 0
vn -1 0 0
vn -0.9707031 0.2399902 0
vn -0.8847656 0.4660645 0
vn -0.8847656 0.4660645 0
vn 0.9707031 0.2399902 0
vn 1 0 0
vn 1 0 0
vn 0.9707031 0.2399902 0
vn 0.8847656 0.4660645 0
vn 0.8847656 0.4660645 0
vn 0 0 1
vn 0 0 1
vn 0 0 1
vn 0 0 1
vn 0 0 1
vn 0 0 -1
vn 0 0 -1
vn 0 0 -1
vn 0 0 -1
vn 0 0 -1
vn -0.9707031 0.2399902 -1.490116E-06
vn -1 0 0
vn -1 0 0
vn -0.9707031 0.2399902 -1.490116E-06
vn -0.8847656 0.4660645 -1.370907E-06
vn -0.8847656 0.4660645 -1.370907E-06
vn 0.9707031 0.2399902 1.490116E-06
vn 1 0 0
vn 1 0 0
vn 0.9707031 0.2399902 1.490116E-06
vn 0.8847656 0.4660645 1.370907E-06
vn 0.8847656 0.4660645 1.370907E-06
vn 0 0 1
vn 0 0 1
vn 0 0 1
vn 0 0 1
vn 0 0 1
vn 0 0 -1
vn 0 0 -1
vn 0 0 -1
vn 0 0 -1
vn 0 0 -1
vn -0.9707031 0.2399902 -1.013279E-06
vn -1 0 0
vn -1 0 0
vn -0.9707031 0.2399902 -1.490116E-06
vn -0.8847656 0.4660645 1.847744E-06
vn -0.8847656 0.4660645 2.682209E-06
vn 0.9707031 0.2399902 0
vn 1 0 0
vn 1 0 0
vn 0.9707031 0.2399902 0
vn 0.8847656 0.4660645 -2.145767E-06
vn 0.8847656 0.4660645 -2.682209E-06
vn 0 0 1
vn 0 0 1
vn 0 0 1
vn 0 0 1
vn 0 0 1
vn 0 0 -1
vn 0 0 -1
vn 0 0 -1
vn 0 0 -1
vn 0 0 -1
vn -0.9707031 0.2399902 0
vn -1 0 0
vn -1 0 0
vn -0.9707031 0.2399902 0
vn -0.8847656 0.4660645 0
vn -0.8847656 0.4660645 0
vn 0.9707031 0.2399902 0
vn 1 0 0
vn 1 0 0
vn 0.9707031 0.2399902 0
vn 0.8847656 0.4660645 0
vn 0.8847656 0.4660645 0
vn 0 0 1
vn 0 0 1
vn 0 0 1
vn 0 0 1
vn 0 0 1
vn 0 0 -1
vn 0 0 -1
vn 0 0 -1
vn 0 0 -1
vn 0 0 -1
vn -0.9707031 0.2399902 0
vn -1 0 0
vn -1 0 0
vn -0.9707031 0.2399902 0
vn -0.8847656 0.4660645 0
vn -0.8847656 0.4660645 0
vn 0.9707031 0.2399902 0
vn 1 0 0
vn 1 0 0
vn 0.9707031 0.2399902 0
vn 0.8847656 0.4660645 0
vn 0.8847656 0.4660645 0
vn 0 0 1
vn 0 0 1
vn 0 0 1
vn 0 0 1
vn 0 0 1
vn 0 0 -1
vn 0 0 -1
vn 0 0 -1
vn 0 0 -1
vn 0 0 -1
vn -0.9707031 0.2399902 1.114607E-05
vn -1 0 0
vn -1 0 0
vn -0.9707031 0.2399902 1.186132E-05
vn -0.8847656 0.4660645 6.556511E-06
vn -0.8847656 0.4660645 5.424023E-06
vn 0.9707031 0.2399902 -7.152557E-07
vn 1 0 -1.192093E-05
vn 1 0 -1.221895E-05
vn 0.9707031 0.2399902 0
vn 0.8847656 0.4660645 -4.291534E-06
vn 0.8847656 0.4660645 -5.424023E-06
vn 2.145767E-06 0 1
vn 0 0 1
vn 2.264977E-06 0 1
vn 0 0 1
vn 0 0 1
vn -2.145767E-06 0 -1
vn 0 0 -1
vn 0 0 -1
vn 0 0 -1
vn -2.264977E-06 0 -1
vn -0.9707031 0.2399902 1.060963E-05
vn -1 0 6.258488E-06
vn -1 0 6.139278E-06
vn -0.9707031 0.2399902 1.186132E-05
vn -0.8847656 0.4660645 2.264977E-06
vn -0.8847656 0.4660645 0
vn 0.9707031 0.2399902 -5.245209E-06
vn 1 0 0
vn 1 0 0
vn 0.9707031 0.2399902 -5.960464E-06
vn 0.8847656 0.4660645 -1.132488E-06
vn 0.8847656 0.4660645 0
vn 0 0 1
vn 0 0 1
vn 0 0 1
vn 0 0 1
vn 0 0 1
vn 0 0 -1
vn 0 0 -1
vn 0 0 -1
vn 0 0 -1
vn 0 0 -1
vn -0.9707031 0.2399902 5.841255E-06
vn -1 0 0
vn -1 0 0
vn -0.9707031 0.2399902 5.960464E-06
vn -0.8847656 0.4660645 5.424023E-06
vn -0.8847656 0.4660645 5.424023E-06
vn 0.9707031 0.2399902 -7.152557E-07
vn 1 0 -1.192093E-05
vn 1 0 -1.221895E-05
vn 0.9707031 0.2399902 0
vn 0.8847656 0.4660645 -4.291534E-06
vn 0.8847656 0.4660645 -5.424023E-06
vn 0 0 1
vn 0 0 1
vn 0 0 1
vn 0 0 1
vn 0 0 1
vn 0 0 -1
vn 0 0 -1
vn 0 0 -1
vn 0 0 -1
vn 0 0 -1
vn -0.9707031 0.2399902 5.841255E-06
vn -1 0 0
vn -1 0 0
vn -0.9707031 0.2399902 5.960464E-06
vn -0.8847656 0.4660645 5.424023E-06
vn -0.8847656 0.4660645 5.424023E-06
vn 0.9707031 0.2399902 -7.152557E-07
vn 1 0 -1.192093E-05
vn 1 0 -1.221895E-05
vn 0.9707031 0.2399902 0
vn 0.8847656 0.4660645 -4.291534E-06
vn 0.8847656 0.4660645 -5.424023E-06
vn 0 0 1
vn 0 0 1
vn 0 0 1
vn 0 0 1
vn 0 0 -1
vn 0 0 -1
vn 0 0 -1
vn 0 0 -1
vn 0 -1 0
vn 0 -1 0
vn 0 -1 0
vn 0 -1 0
vn 0 1 0
vn 0 1 0
vn 0 1 0
vn 0 1 0
vn 0 0 1
vn 0 0 1
vn 0 0 1
vn 0 0 1
vn 0 0 -1
vn 0 0 -1
vn 0 0 -1
vn 0 0 -1
vn 0 -1 0
vn 0 -1 0
vn 0 -1 0
vn 0 -1 0
vn 0 1 -3.576279E-06
vn 0 1 -3.576279E-06
vn 0 1 -3.576279E-06
vn 0 1 -3.576279E-06
vn 0 0 1
vn 0 0 1
vn 0 0 1
vn 0 0 1
vn 0 0 1
vn 0 0 -1
vn 0 0 -1
vn 0 0 -1
vn 0 0 -1
vn 0 0 -1
vn -0.9707031 0.2399902 0
vn -1 0 0
vn -1 0 0
vn -0.9707031 0.2399902 0
vn -0.8847656 0.4660645 0
vn -0.8847656 0.4660645 0
vn 0.9707031 0.2399902 0
vn 1 0 0
vn 1 0 0
vn 0.9707031 0.2399902 0
vn 0.8847656 0.4660645 0
vn 0.8847656 0.4660645 0
vn 0 0 1
vn 0 0 1
vn 0 0 1
vn 0 0 1
vn 0 0 1
vn 0 0 -1
vn 0 0 -1
vn 0 0 -1
vn 0 0 -1
vn 0 0 -1
vn -0.9707031 0.2399902 0
vn -1 0 0
vn -1 0 0
vn -0.9707031 0.2399902 0
vn -0.8847656 0.4660645 0
vn -0.8847656 0.4660645 0
vn 0.9707031 0.2399902 0
vn 1 0 -3.457069E-06
vn 1 0 -3.576279E-06
vn 0.9707031 0.2399902 0
vn 0.8847656 0.4660645 0
vn 0.8847656 0.4660645 0
vn 0 0 -1
vn 0 0 -1
vn 0 0 -1
vn 0 0 -1
vn -1 0 0
vn -1 0 0
vn -1 0 0
vn -1 0 0
vn 1 0 0
vn 1 0 0
vn 1 0 0
vn 1 0 0

vt 0.9375 0.5844727
vt 0.9311523 0.6762695
vt 0.9379883 0.6757813
vt 0.9301758 0.6171875
vt 0.7880859 0.5849609
vt 0.7954102 0.6171875
vt 0.7880859 0.6762695
vt 0.7949219 0.6762695
vt 0.7856445 0.6762695
vt 0.7880859 0.5849609
vt 0.7856445 0.5849609
vt 0.7880859 0.6762695
vt 0.7880859 0.5820313
vt 0.9375 0.5844727
vt 0.9375 0.5820313
vt 0.7880859 0.5849609
vt 0.9404297 0.5844727
vt 0.9379883 0.6757813
vt 0.9404297 0.6757813
vt 0.9375 0.5844727
vt 0.8227539 0.8369141
vt 0.9101563 0.9892578
vt 0.9135742 0.8388672
vt 0.8198242 0.9873047
vt 0.5219727 0.8354492
vt 0.6132813 0.9853516
vt 0.6123047 0.8349609
vt 0.5224609 0.9858398
vt 0.8056641 0.496582
vt 0.9477539 0.5039063
vt 0.9399414 0.496582
vt 0.7978516 0.5039063
vt 0.9604492 0.5166016
vt 0.9526367 0.5756836
vt 0.9604492 0.5756836
vt 0.9526367 0.5092773
vt 0.7856445 0.5756836
vt 0.7929688 0.5092773
vt 0.7856445 0.5166016
vt 0.7929688 0.5756836
vt 0.7978516 0.5039063
vt 0.9477539 0.5092773
vt 0.9477539 0.5039063
vt 0.7978516 0.5092773
vt 0.9526367 0.5092773
vt 0.9477539 0.5756836
vt 0.9526367 0.5756836
vt 0.9477539 0.5092773
vt 0.7929688 0.5756836
vt 0.7978516 0.5092773
vt 0.7929688 0.5092773
vt 0.7978516 0.5756836
vt 0.9477539 0.5092773
vt 0.9228516 0.5756836
vt 0.9477539 0.5756836
vt 0.9223633 0.5170898
vt 0.7978516 0.5092773
vt 0.8227539 0.5170898
vt 0.7978516 0.5756836
vt 0.8227539 0.5756836
vt 0.6416016 0.6796875
vt 0.5859375 0.6469727
vt 0.5825195 0.6816406
vt 0.6396484 0.6464844
vt 0.5825195 0.6816406
vt 0.5541992 0.644043
vt 0.546875 0.6748047
vt 0.5859375 0.6469727
vt 0.6728516 0.6767578
vt 0.6396484 0.6464844
vt 0.6416016 0.6796875
vt 0.6733398 0.6455078
vt 0.6411133 0.5166016
vt 0.5864258 0.5581055
vt 0.640625 0.5571289
vt 0.5864258 0.5175781
vt 0.5864258 0.5175781
vt 0.5546875 0.5585938
vt 0.5864258 0.5581055
vt 0.5551758 0.5195313
vt 0.675293 0.5180664
vt 0.640625 0.5571289
vt 0.6748047 0.5585938
vt 0.6411133 0.5166016
vt 0.5864258 0.5175781
vt 0.5517578 0.5175781
vt 0.5551758 0.5195313
vt 0.5844727 0.5087891
vt 0.6411133 0.5166016
vt 0.6435547 0.5078125
vt 0.675293 0.5180664
vt 0.6791992 0.5131836
vt 0.6435547 0.5078125
vt 0.5820313 0.5053711
vt 0.5844727 0.5087891
vt 0.644043 0.5043945
vt 0.5844727 0.5087891
vt 0.5483398 0.5151367
vt 0.5517578 0.5175781
vt 0.5820313 0.5053711
vt 0.6791992 0.5131836
vt 0.644043 0.5043945
vt 0.6435547 0.5078125
vt 0.6801758 0.5097656
vt 0.7749023 0.9375
vt 0.8227539 0.8369141
vt 0.7773438 0.8359375
vt 0.8198242 0.9873047
vt 0.7460938 0.9453125
vt 0.7167969 0.9501953
vt 0.6132813 0.9853516
vt 0.6875 0.9453125
vt 0.6586914 0.9365234
vt 0.6582031 0.8349609
vt 0.6123047 0.8349609
vt 0.9975586 0.5717773
vt 1 0.4968262
vt 0.9975586 0.496582
vt 1 0.5717773
vt 0.9970703 0.7822266
vt 0.9995117 0.7158203
vt 0.9970703 0.7158203
vt 0.9995117 0.7822266
vt 0.9970703 0.6381836
vt 1 0.5717773
vt 0.9975586 0.5717773
vt 0.9995117 0.6381836
vt 0.9624023 0.6137695
vt 0.9814453 0.5952148
vt 0.956543 0.5952148
vt 0.965332 0.6328125
vt 0.9624023 0.6518555
vt 0.9819336 0.6704102
vt 0.9570313 0.6704102
vt 0.8105469 0.7197266
vt 0.878418 0.7695313
vt 0.8789063 0.7197266
vt 0.8105469 0.769043
vt 0.8789063 0.7197266
vt 0.9282227 0.6928711
vt 0.8789063 0.6928711
vt 0.9282227 0.7197266
vt 0.8105469 0.7197266
vt 0.7836914 0.769043
vt 0.8105469 0.769043
vt 0.7836914 0.7197266
vt 0.878418 0.7963867
vt 0.8105469 0.769043
vt 0.8105469 0.7963867
vt 0.878418 0.7695313
vt 0.8105469 0.7197266
vt 0.8789063 0.6928711
vt 0.8110352 0.6928711
vt 0.8789063 0.7197266
vt 0.9970703 0.6381836
vt 0.9995117 0.6577148
vt 0.9995117 0.6381836
vt 0.9970703 0.6577148
vt 0.9995117 0.6772461
vt 0.9970703 0.6772461
vt 0.9995117 0.6962891
vt 0.9970703 0.6962891
vt 0.9995117 0.7158203
vt 0.9970703 0.7158203
vt 0.7700195 0.769043
vt 0.7836914 0.7197266
vt 0.7700195 0.7197266
vt 0.7836914 0.769043
vt 0.8789063 0.6791992
vt 0.9282227 0.6928711
vt 0.9282227 0.6791992
vt 0.8789063 0.6928711
vt 0.6835938 0.8154297
vt 0.7080078 0.703125
vt 0.7001953 0.7021484
vt 0.6914063 0.8168945
vt 0.5229492 0.7006836
vt 0.5332031 0.8154297
vt 0.5405273 0.8139648
vt 0.5151367 0.7021484
vt 0.6723633 0.8012695
vt 0.7001953 0.7021484
vt 0.6870117 0.7001953
vt 0.6835938 0.8154297
vt 0.6489258 0.8178711
vt 0.6464844 0.8046875
vt 0.6303711 0.8183594
vt 0.6293945 0.8061523
vt 0.6123047 0.8066406
vt 0.6123047 0.8188477
vt 0.59375 0.8183594
vt 0.5952148 0.8056641
vt 0.578125 0.8041992
vt 0.5751953 0.8168945
vt 0.5522461 0.800293
vt 0.5405273 0.8139648
vt 0.5356445 0.6987305
vt 0.5229492 0.7006836
vt 0.6650391 0.800293
vt 0.6870117 0.7001953
vt 0.6796875 0.6987305
vt 0.6723633 0.8012695
vt 0.543457 0.6977539
vt 0.5522461 0.800293
vt 0.5595703 0.7988281
vt 0.5356445 0.6987305
vt 0.5400391 0.8217773
vt 0.5751953 0.8168945
vt 0.5405273 0.8139648
vt 0.574707 0.824707
vt 0.59375 0.8183594
vt 0.5932617 0.8261719
vt 0.6123047 0.8188477
vt 0.6118164 0.8266602
vt 0.6303711 0.8183594
vt 0.6308594 0.8261719
vt 0.6489258 0.8178711
vt 0.6494141 0.8256836
vt 0.6835938 0.8154297
vt 0.684082 0.8232422
vt 0.5522461 0.800293
vt 0.5791016 0.7963867
vt 0.5532227 0.7924805
vt 0.578125 0.8041992
vt 0.5957031 0.7983398
vt 0.5952148 0.8056641
vt 0.6123047 0.7988281
vt 0.6123047 0.8066406
vt 0.6289063 0.7983398
vt 0.6293945 0.8061523
vt 0.6455078 0.7973633
vt 0.6464844 0.8046875
vt 0.6713867 0.7939453
vt 0.6723633 0.8012695
vt 0.9682617 0.7890625
vt 0.9384766 0.7792969
vt 0.9511719 0.7890625
vt 0.9873047 0.7631836
vt 0.9819336 0.7792969
vt 0.9682617 0.7368164
vt 0.9819336 0.7470703
vt 0.9375 0.7470703
vt 0.9326172 0.7631836
vt 0.9521484 0.7368164
vt 0.9946289 0.8632813
vt 0.9282227 0.8798828
vt 0.9946289 0.8803711
vt 0.9282227 0.862793
vt 0.9946289 0.8466797
vt 0.9282227 0.8461914
vt 0.9956055 0.8295898
vt 0.9282227 0.8286133
vt 0.9272461 0.8964844
vt 0.9946289 0.8803711
vt 0.9282227 0.8798828
vt 0.9951172 0.8969727
vt 0.9262695 0.9135742
vt 0.9941406 0.9135742
vt 0.9257813 0.9306641
vt 0.9941406 0.9135742
vt 0.9262695 0.9135742
vt 0.9946289 0.9306641
vt 0.9257813 0.9477539
vt 0.9941406 0.9477539
vt 0.9257813 0.9648438
vt 0.9941406 0.9648438
vt 0.9941406 0.9648438
vt 0.9267578 0.9819336
vt 0.9946289 0.9814453
vt 0.9257813 0.9648438
vt 0.9956055 0.8125
vt 0.9282227 0.8286133
vt 0.9956055 0.8295898
vt 0.9277344 0.8125
vt 0.987793 0.7084961
vt 0.96875 0.734375
vt 0.9824219 0.7246094
vt 0.9682617 0.6826172
vt 0.9824219 0.6923828
vt 0.9375 0.7246094
vt 0.9516602 0.734375
vt 0.9375 0.6923828
vt 0.9326172 0.7084961
vt 0.9516602 0.6826172
vt 0.9682617 0.7890625
vt 0.9384766 0.7792969
vt 0.9511719 0.7890625
vt 0.9873047 0.7631836
vt 0.9819336 0.7792969
vt 0.9682617 0.7368164
vt 0.9819336 0.7470703
vt 0.9375 0.7470703
vt 0.9326172 0.7631836
vt 0.9521484 0.7368164
vt 0.9946289 0.8632813
vt 0.9282227 0.8798828
vt 0.9946289 0.8803711
vt 0.9282227 0.862793
vt 0.9946289 0.8466797
vt 0.9282227 0.8461914
vt 0.9956055 0.8295898
vt 0.9282227 0.8286133
vt 0.9272461 0.8964844
vt 0.9946289 0.8803711
vt 0.9282227 0.8798828
vt 0.9951172 0.8969727
vt 0.9262695 0.9135742
vt 0.9941406 0.9135742
vt 0.9257813 0.9306641
vt 0.9941406 0.9135742
vt 0.9262695 0.9135742
vt 0.9946289 0.9306641
vt 0.9257813 0.9477539
vt 0.9941406 0.9477539
vt 0.9257813 0.9648438
vt 0.9941406 0.9648438
vt 0.9941406 0.9648438
vt 0.9267578 0.9819336
vt 0.9946289 0.9814453
vt 0.9257813 0.9648438
vt 0.9956055 0.8125
vt 0.9282227 0.8286133
vt 0.9956055 0.8295898
vt 0.9277344 0.8125
vt 0.987793 0.7084961
vt 0.96875 0.734375
vt 0.9824219 0.7246094
vt 0.9682617 0.6826172
vt 0.9824219 0.6923828
vt 0.9375 0.7246094
vt 0.9516602 0.734375
vt 0.9375 0.6923828
vt 0.9326172 0.7084961
vt 0.9516602 0.6826172
vt 0.9682617 0.7890625
vt 0.9384766 0.7792969
vt 0.9511719 0.7890625
vt 0.9873047 0.7631836
vt 0.9819336 0.7792969
vt 0.9682617 0.7368164
vt 0.9819336 0.7470703
vt 0.9375 0.7470703
vt 0.9326172 0.7631836
vt 0.9521484 0.7368164
vt 0.9946289 0.8632813
vt 0.9282227 0.8798828
vt 0.9946289 0.8803711
vt 0.9282227 0.862793
vt 0.9946289 0.8466797
vt 0.9282227 0.8461914
vt 0.9956055 0.8295898
vt 0.9282227 0.8286133
vt 0.9272461 0.8964844
vt 0.9946289 0.8803711
vt 0.9282227 0.8798828
vt 0.9951172 0.8969727
vt 0.9262695 0.9135742
vt 0.9941406 0.9135742
vt 0.9257813 0.9306641
vt 0.9941406 0.9135742
vt 0.9262695 0.9135742
vt 0.9946289 0.9306641
vt 0.9257813 0.9477539
vt 0.9941406 0.9477539
vt 0.9257813 0.9648438
vt 0.9941406 0.9648438
vt 0.9941406 0.9648438
vt 0.9267578 0.9819336
vt 0.9946289 0.9814453
vt 0.9257813 0.9648438
vt 0.9956055 0.8125
vt 0.9282227 0.8286133
vt 0.9956055 0.8295898
vt 0.9277344 0.8125
vt 0.987793 0.7084961
vt 0.96875 0.734375
vt 0.9824219 0.7246094
vt 0.9682617 0.6826172
vt 0.9824219 0.6923828
vt 0.9375 0.7246094
vt 0.9516602 0.734375
vt 0.9375 0.6923828
vt 0.9326172 0.7084961
vt 0.9516602 0.6826172
vt 0.9682617 0.7890625
vt 0.9384766 0.7792969
vt 0.9511719 0.7890625
vt 0.9873047 0.7631836
vt 0.9819336 0.7792969
vt 0.9682617 0.7368164
vt 0.9819336 0.7470703
vt 0.9375 0.7470703
vt 0.9326172 0.7631836
vt 0.9521484 0.7368164
vt 0.9946289 0.8632813
vt 0.9282227 0.8798828
vt 0.9946289 0.8803711
vt 0.9282227 0.862793
vt 0.9946289 0.8466797
vt 0.9282227 0.8461914
vt 0.9956055 0.8295898
vt 0.9282227 0.8286133
vt 0.9272461 0.8964844
vt 0.9946289 0.8803711
vt 0.9282227 0.8798828
vt 0.9951172 0.8969727
vt 0.9262695 0.9135742
vt 0.9941406 0.9135742
vt 0.9257813 0.9306641
vt 0.9941406 0.9135742
vt 0.9262695 0.9135742
vt 0.9946289 0.9306641
vt 0.9257813 0.9477539
vt 0.9941406 0.9477539
vt 0.9257813 0.9648438
vt 0.9941406 0.9648438
vt 0.9941406 0.9648438
vt 0.9267578 0.9819336
vt 0.9946289 0.9814453
vt 0.9257813 0.9648438
vt 0.9956055 0.8125
vt 0.9282227 0.8286133
vt 0.9956055 0.8295898
vt 0.9277344 0.8125
vt 0.987793 0.7084961
vt 0.96875 0.734375
vt 0.9824219 0.7246094
vt 0.9682617 0.6826172
vt 0.9824219 0.6923828
vt 0.9375 0.7246094
vt 0.9516602 0.734375
vt 0.9375 0.6923828
vt 0.9326172 0.7084961
vt 0.9516602 0.6826172
vt 0.8168945 0.6606445
vt 0.8955078 0.6503906
vt 0.8168945 0.6508789
vt 0.9116211 0.6533203
vt 0.9038086 0.6577148
vt 0.8168945 0.6381836
vt 0.9121094 0.6450195
vt 0.9038086 0.6401367
vt 0.8950195 0.6474609
vt 0.8168945 0.6479492
vt 0.9038086 0.6401367
vt 0.8168945 0.6347656
vt 0.8168945 0.6381836
vt 0.9042969 0.637207
vt 0.9140625 0.6416016
vt 0.9121094 0.6450195
vt 0.8955078 0.6503906
vt 0.8168945 0.6479492
vt 0.8168945 0.6508789
vt 0.8950195 0.6474609
vt 0.9121094 0.6450195
vt 0.9116211 0.6533203
vt 0.8164063 0.6591797
vt 0.8950195 0.6508789
vt 0.8164063 0.6494141
vt 0.9111328 0.6538086
vt 0.902832 0.6582031
vt 0.8168945 0.6367188
vt 0.9121094 0.6455078
vt 0.9033203 0.640625
vt 0.8945313 0.6479492
vt 0.8164063 0.6464844
vt 0.9033203 0.640625
vt 0.8168945 0.6333008
vt 0.8168945 0.6367188
vt 0.9042969 0.637207
vt 0.9135742 0.6420898
vt 0.9121094 0.6455078
vt 0.8950195 0.6508789
vt 0.8164063 0.6464844
vt 0.8164063 0.6494141
vt 0.8945313 0.6479492
vt 0.9121094 0.6455078
vt 0.9111328 0.6538086
vt 0.8168945 0.6582031
vt 0.8950195 0.6499023
vt 0.8168945 0.6489258
vt 0.9116211 0.652832
vt 0.9033203 0.6577148
vt 0.8173828 0.6357422
vt 0.9121094 0.6445313
vt 0.9038086 0.6401367
vt 0.8950195 0.6469727
vt 0.8168945 0.6455078
vt 0.9038086 0.6401367
vt 0.8173828 0.6323242
vt 0.8173828 0.6357422
vt 0.9047852 0.6367188
vt 0.9140625 0.6411133
vt 0.9121094 0.6445313
vt 0.8950195 0.6499023
vt 0.8168945 0.6455078
vt 0.8168945 0.6489258
vt 0.8950195 0.6469727
vt 0.9121094 0.6445313
vt 0.9116211 0.652832
vt 0.8164063 0.6582031
vt 0.8950195 0.6499023
vt 0.8164063 0.6489258
vt 0.9111328 0.652832
vt 0.902832 0.6572266
vt 0.8168945 0.6357422
vt 0.9121094 0.6445313
vt 0.9033203 0.6396484
vt 0.8945313 0.6469727
vt 0.8164063 0.6455078
vt 0.9033203 0.6396484
vt 0.8168945 0.6323242
vt 0.8168945 0.6357422
vt 0.9042969 0.6367188
vt 0.9135742 0.6411133
vt 0.9121094 0.6445313
vt 0.8950195 0.6499023
vt 0.8164063 0.6455078
vt 0.8164063 0.6489258
vt 0.8945313 0.6469727
vt 0.9121094 0.6445313
vt 0.9111328 0.652832
vt 0.8168945 0.6586914
vt 0.8950195 0.6503906
vt 0.8168945 0.6494141
vt 0.9116211 0.6533203
vt 0.9033203 0.6577148
vt 0.8168945 0.6362305
vt 0.9121094 0.6450195
vt 0.9033203 0.6401367
vt 0.8950195 0.6474609
vt 0.8168945 0.6459961
vt 0.9033203 0.6401367
vt 0.8173828 0.6328125
vt 0.8168945 0.6362305
vt 0.9042969 0.637207
vt 0.9140625 0.6416016
vt 0.9121094 0.6450195
vt 0.8950195 0.6503906
vt 0.8168945 0.6459961
vt 0.8168945 0.6494141
vt 0.8950195 0.6474609
vt 0.9121094 0.6450195
vt 0.9116211 0.6533203
vt 0.8168945 0.6586914
vt 0.8955078 0.6503906
vt 0.8168945 0.6494141
vt 0.9116211 0.6533203
vt 0.9033203 0.6577148
vt 0.8173828 0.6362305
vt 0.9121094 0.6450195
vt 0.9038086 0.6401367
vt 0.8950195 0.6474609
vt 0.8168945 0.6459961
vt 0.9038086 0.6401367
vt 0.8173828 0.6328125
vt 0.8173828 0.6362305
vt 0.9047852 0.637207
vt 0.9140625 0.6416016
vt 0.9121094 0.6450195
vt 0.8955078 0.6503906
vt 0.8168945 0.6459961
vt 0.8168945 0.6494141
vt 0.8950195 0.6474609
vt 0.9121094 0.6450195
vt 0.9116211 0.6533203
vt 0.8168945 0.6586914
vt 0.8955078 0.6503906
vt 0.8168945 0.6489258
vt 0.9116211 0.6533203
vt 0.9033203 0.6577148
vt 0.8173828 0.6362305
vt 0.9121094 0.6450195
vt 0.9038086 0.6401367
vt 0.8950195 0.6474609
vt 0.8168945 0.6455078
vt 0.9038086 0.6401367
vt 0.8173828 0.6328125
vt 0.8173828 0.6362305
vt 0.9047852 0.6367188
vt 0.9140625 0.6416016
vt 0.9121094 0.6450195
vt 0.8955078 0.6503906
vt 0.8168945 0.6455078
vt 0.8168945 0.6489258
vt 0.8950195 0.6474609
vt 0.9121094 0.6450195
vt 0.9116211 0.6533203
vt 0.8168945 0.6601563
vt 0.8955078 0.6503906
vt 0.8168945 0.6508789
vt 0.9116211 0.652832
vt 0.9038086 0.6577148
vt 0.8168945 0.6376953
vt 0.9121094 0.6445313
vt 0.9033203 0.6401367
vt 0.8950195 0.6474609
vt 0.8168945 0.6474609
vt 0.9033203 0.6401367
vt 0.8168945 0.6342773
vt 0.8168945 0.6376953
vt 0.9042969 0.6367188
vt 0.9140625 0.6411133
vt 0.9121094 0.6445313
vt 0.8955078 0.6503906
vt 0.8168945 0.6474609
vt 0.8168945 0.6508789
vt 0.8950195 0.6474609
vt 0.9121094 0.6445313
vt 0.9116211 0.652832
vt 0.8164063 0.6586914
vt 0.8950195 0.6503906
vt 0.8164063 0.6494141
vt 0.9116211 0.6533203
vt 0.9033203 0.6577148
vt 0.8168945 0.6362305
vt 0.9121094 0.6450195
vt 0.9033203 0.6401367
vt 0.8950195 0.6474609
vt 0.8168945 0.6459961
vt 0.9033203 0.6401367
vt 0.8173828 0.6328125
vt 0.8168945 0.6362305
vt 0.9042969 0.637207
vt 0.9140625 0.6416016
vt 0.9121094 0.6450195
vt 0.8950195 0.6503906
vt 0.8168945 0.6459961
vt 0.8164063 0.6494141
vt 0.8950195 0.6474609
vt 0.9121094 0.6450195
vt 0.9116211 0.6533203
vt 0.8164063 0.6586914
vt 0.8950195 0.6503906
vt 0.8164063 0.6489258
vt 0.9116211 0.6533203
vt 0.9033203 0.6577148
vt 0.8168945 0.6362305
vt 0.9121094 0.6450195
vt 0.9033203 0.6401367
vt 0.8950195 0.6474609
vt 0.8164063 0.6455078
vt 0.9033203 0.6401367
vt 0.8168945 0.6328125
vt 0.8168945 0.6362305
vt 0.9042969 0.6367188
vt 0.9140625 0.6416016
vt 0.9121094 0.6450195
vt 0.8950195 0.6503906
vt 0.8164063 0.6455078
vt 0.8164063 0.6489258
vt 0.8950195 0.6474609
vt 0.9121094 0.6450195
vt 0.9116211 0.6533203
vt 0.7421875 0.6245117
vt 0.7392578 0.5078125
vt 0.7392578 0.6245117
vt 0.7421875 0.5078125
vt 0.7338867 0.6245117
vt 0.7368164 0.5078125
vt 0.7338867 0.5078125
vt 0.7368164 0.6245117
vt 0.7368164 0.6245117
vt 0.7392578 0.5078125
vt 0.7368164 0.5078125
vt 0.7392578 0.6245117
vt 0.7338867 0.5078125
vt 0.7319336 0.6245117
vt 0.7338867 0.6245117
vt 0.7319336 0.5078125
vt 0.7548828 0.6245117
vt 0.7514648 0.5078125
vt 0.7514648 0.6245117
vt 0.7548828 0.5078125
vt 0.7460938 0.6245117
vt 0.7495117 0.5078125
vt 0.7460938 0.5078125
vt 0.7495117 0.6245117
vt 0.7495117 0.6245117
vt 0.7514648 0.5078125
vt 0.7495117 0.5078125
vt 0.7514648 0.6245117
vt 0.7460938 0.5078125
vt 0.7441406 0.6245117
vt 0.7460938 0.6245117
vt 0.7441406 0.5078125
vt 0.7290039 0.6713867
vt 0.7368164 0.7685547
vt 0.7373047 0.6713867
vt 0.7333984 0.7807617
vt 0.7294922 0.7734375
vt 0.7514648 0.6713867
vt 0.7441406 0.7817383
vt 0.7485352 0.7739258
vt 0.7412109 0.7680664
vt 0.7426758 0.6713867
vt 0.7485352 0.7739258
vt 0.7568359 0.671875
vt 0.7514648 0.6713867
vt 0.753418 0.7749023
vt 0.75 0.7841797
vt 0.7441406 0.7817383
vt 0.7368164 0.7685547
vt 0.7426758 0.6713867
vt 0.7373047 0.6713867
vt 0.7412109 0.7680664
vt 0.7441406 0.7817383
vt 0.7333984 0.7807617
vt 0.7290039 0.6713867
vt 0.7368164 0.7685547
vt 0.7373047 0.6713867
vt 0.7333984 0.7807617
vt 0.7294922 0.7734375
vt 0.7514648 0.671875
vt 0.7446289 0.7817383
vt 0.7485352 0.7739258
vt 0.7412109 0.7685547
vt 0.7426758 0.671875
vt 0.7485352 0.7739258
vt 0.7568359 0.671875
vt 0.7514648 0.671875
vt 0.753418 0.7753906
vt 0.75 0.7841797
vt 0.7446289 0.7817383
vt 0.7368164 0.7685547
vt 0.7426758 0.671875
vt 0.7373047 0.6713867
vt 0.7412109 0.7685547
vt 0.7446289 0.7817383
vt 0.7333984 0.7807617
vt 0.6396484 0.6464844
vt 0.5864258 0.6132813
vt 0.5859375 0.6469727
vt 0.6401367 0.612793
vt 0.5859375 0.6469727
vt 0.5546875 0.6118164
vt 0.5541992 0.644043
vt 0.5864258 0.6132813
vt 0.6733398 0.6455078
vt 0.6401367 0.612793
vt 0.6396484 0.6464844
vt 0.6738281 0.6123047

g Fireplace_1950_27
usemtl Fireplace_1950_27
usemap Fireplace_1950_27
f 1/1/1 3/3/3 2/2/2
f 2/2/2 4/4/4 1/1/1
f 5/5/5 1/1/1 4/4/4
f 4/4/4 6/6/6 5/5/5
f 7/7/7 5/5/5 6/6/6
f 6/6/6 8/8/8 7/7/7
f 9/9/9 11/11/11 10/10/10
f 10/10/10 12/12/12 9/9/9
f 13/13/13 15/15/15 14/14/14
f 14/14/14 16/16/16 13/13/13
f 17/17/17 19/19/19 18/18/18
f 18/18/18 20/20/20 17/17/17
f 21/21/21 23/23/23 22/22/22
f 22/22/22 24/24/24 21/21/21
f 25/25/25 27/27/27 26/26/26
f 26/26/26 28/28/28 25/25/25
f 29/29/29 31/31/31 30/30/30
f 30/30/30 32/32/32 29/29/29
f 33/33/33 35/35/35 34/34/34
f 34/34/34 36/36/36 33/33/33
f 37/37/37 39/39/39 38/38/38
f 38/38/38 40/40/40 37/37/37
f 41/41/41 43/43/43 42/42/42
f 42/42/42 44/44/44 41/41/41
f 45/45/45 47/47/47 46/46/46
f 46/46/46 48/48/48 45/45/45
f 49/49/49 51/51/51 50/50/50
f 50/50/50 52/52/52 49/49/49
f 53/53/53 55/55/55 54/54/54
f 54/54/54 56/56/56 53/53/53
f 57/57/57 53/53/53 56/56/56
f 56/56/56 58/58/58 57/57/57
f 59/59/59 57/57/57 58/58/58
f 58/58/58 60/60/60 59/59/59
f 61/61/61 63/63/63 62/62/62
f 62/62/62 64/64/64 61/61/61
f 65/65/65 67/67/67 66/66/66
f 66/66/66 68/68/68 65/65/65
f 69/69/69 71/71/71 70/70/70
f 70/70/70 72/72/72 69/69/69
f 73/73/73 75/75/75 74/74/74
f 74/74/74 76/76/76 73/73/73
f 77/77/77 79/79/79 78/78/78
f 78/78/78 80/80/80 77/77/77
f 81/81/81 83/83/83 82/82/82
f 82/82/82 84/84/84 81/81/81
f 85/85/85 87/87/87 86/86/86
f 86/86/86 88/88/88 85/85/85
f 89/89/89 85/85/85 88/88/88
f 88/88/88 90/90/90 89/89/89
f 91/91/91 89/89/89 90/90/90
f 90/90/90 92/92/92 91/91/91
f 93/93/93 95/95/95 94/94/94
f 94/94/94 96/96/96 93/93/93
f 97/97/97 99/99/99 98/98/98
f 98/98/98 100/100/100 97/97/97
f 101/101/101 103/103/103 102/102/102
f 102/102/102 104/104/104 101/101/101
f 105/105/105 107/107/107 106/106/106
f 106/106/106 108/108/108 105/105/105
f 109/109/109 105/105/105 108/108/108
f 110/110/110 109/109/109 108/108/108
f 111/111/111 110/110/110 108/108/108
f 111/111/111 112/112/112 110/110/110
f 111/111/111 113/113/113 112/112/112
f 114/114/114 113/113/113 111/111/111
f 111/111/111 115/115/115 114/114/114
f 116/116/116 118/118/118 117/117/117
f 117/117/117 119/119/119 116/116/116
f 120/120/120 122/122/122 121/121/121
f 121/121/121 123/123/123 120/120/120
f 124/124/124 126/126/126 125/125/125
f 125/125/125 127/127/127 124/124/124
f 128/128/128 130/130/130 129/129/129
f 128/128/128 129/129/129 131/131/131
f 129/129/129 132/132/132 131/131/131
f 129/129/129 133/133/133 132/132/132
f 133/133/133 134/134/134 132/132/132
f 135/135/135 137/137/137 136/136/136
f 136/136/136 138/138/138 135/135/135
f 139/139/139 141/141/141 140/140/140
f 140/140/140 142/142/142 139/139/139
f 143/143/143 145/145/145 144/144/144
f 144/144/144 146/146/146 143/143/143
f 147/147/147 149/149/149 148/148/148
f 148/148/148 150/150/150 147/147/147
f 151/151/151 153/153/153 152/152/152
f 152/152/152 154/154/154 151/151/151
f 155/155/155 157/157/157 156/156/156
f 156/156/156 158/158/158 155/155/155
f 158/158/158 156/156/156 159/159/159
f 159/159/159 160/160/160 158/158/158
f 160/160/160 159/159/159 161/161/161
f 161/161/161 162/162/162 160/160/160
f 162/162/162 161/161/161 163/163/163
f 163/163/163 164/164/164 162/162/162
f 165/165/165 167/167/167 166/166/166
f 166/166/166 168/168/168 165/165/165
f 169/169/169 171/171/171 170/170/170
f 170/170/170 172/172/172 169/169/169
f 173/173/173 175/175/175 174/174/174
f 174/174/174 176/176/176 173/173/173
f 177/177/177 179/179/179 178/178/178
f 178/178/178 180/180/180 177/177/177
f 181/181/181 183/183/183 182/182/182
f 182/182/182 184/184/184 181/181/181
f 181/181/181 184/184/184 185/185/185
f 185/185/185 186/186/186 181/181/181
f 186/186/186 185/185/185 187/187/187
f 187/187/187 188/188/188 186/186/186
f 189/189/189 188/188/188 187/187/187
f 187/187/187 190/190/190 189/189/189
f 189/189/189 190/190/190 191/191/191
f 191/191/191 192/192/192 189/189/189
f 193/193/193 192/192/192 191/191/191
f 191/191/191 194/194/194 193/193/193
f 195/195/195 193/193/193 194/194/194
f 194/194/194 196/196/196 195/195/195
f 197/197/197 195/195/195 196/196/196
f 196/196/196 198/198/198 197/197/197
f 199/199/199 201/201/201 200/200/200
f 200/200/200 202/202/202 199/199/199
f 203/203/203 205/205/205 204/204/204
f 204/204/204 206/206/206 203/203/203
f 207/207/207 209/209/209 208/208/208
f 208/208/208 210/210/210 207/207/207
f 210/210/210 208/208/208 211/211/211
f 211/211/211 212/212/212 210/210/210
f 212/212/212 211/211/211 213/213/213
f 213/213/213 214/214/214 212/212/212
f 214/214/214 213/213/213 215/215/215
f 215/215/215 216/216/216 214/214/214
f 216/216/216 215/215/215 217/217/217
f 217/217/217 218/218/218 216/216/216
f 218/218/218 217/217/217 219/219/219
f 219/219/219 220/220/220 218/218/218
f 221/221/221 223/223/223 222/222/222
f 222/222/222 224/224/224 221/221/221
f 224/224/224 222/222/222 225/225/225
f 225/225/225 226/226/226 224/224/224
f 226/226/226 225/225/225 227/227/227
f 227/227/227 228/228/228 226/226/226
f 228/228/228 227/227/227 229/229/229
f 229/229/229 230/230/230 228/228/228
f 230/230/230 229/229/229 231/231/231
f 231/231/231 232/232/232 230/230/230
f 232/232/232 231/231/231 233/233/233
f 233/233/233 234/234/234 232/232/232
f 235/235/235 237/237/237 236/236/236
f 235/235/235 236/236/236 238/238/238
f 239/239/239 235/235/235 238/238/238
f 236/236/236 240/240/240 238/238/238
f 240/240/240 241/241/241 238/238/238
f 236/236/236 242/242/242 240/240/240
f 236/236/236 243/243/243 242/242/242
f 242/242/242 244/244/244 240/240/240
f 245/245/245 247/247/247 246/246/246
f 246/246/246 248/248/248 245/245/245
f 249/249/249 245/245/245 248/248/248
f 248/248/248 250/250/250 249/249/249
f 251/251/251 249/249/249 250/250/250
f 250/250/250 252/252/252 251/251/251
f 253/253/253 255/255/255 254/254/254
f 254/254/254 256/256/256 253/253/253
f 257/257/257 253/253/253 256/256/256
f 256/256/256 258/258/258 257/257/257
f 259/259/259 261/261/261 260/260/260
f 260/260/260 262/262/262 259/259/259
f 263/263/263 259/259/259 262/262/262
f 262/262/262 264/264/264 263/263/263
f 265/265/265 263/263/263 264/264/264
f 264/264/264 266/266/266 265/265/265
f 267/267/267 269/269/269 268/268/268
f 268/268/268 270/270/270 267/267/267
f 271/271/271 273/273/273 272/272/272
f 272/272/272 274/274/274 271/271/271
f 275/275/275 277/277/277 276/276/276
f 275/275/275 276/276/276 278/278/278
f 279/279/279 275/275/275 278/278/278
f 276/276/276 280/280/280 278/278/278
f 276/276/276 281/281/281 280/280/280
f 280/280/280 282/282/282 278/278/278
f 280/280/280 283/283/283 282/282/282
f 282/282/282 284/284/284 278/278/278
f 285/285/285 287/287/287 286/286/286
f 285/285/285 286/286/286 288/288/288
f 289/289/289 285/285/285 288/288/288
f 286/286/286 290/290/290 288/288/288
f 290/290/290 291/291/291 288/288/288
f 286/286/286 292/292/292 290/290/290
f 286/286/286 293/293/293 292/292/292
f 292/292/292 294/294/294 290/290/290
f 295/295/295 297/297/297 296/296/296
f 296/296/296 298/298/298 295/295/295
f 299/299/299 295/295/295 298/298/298
f 298/298/298 300/300/300 299/299/299
f 301/301/301 299/299/299 300/300/300
f 300/300/300 302/302/302 301/301/301
f 303/303/303 305/305/305 304/304/304
f 304/304/304 306/306/306 303/303/303
f 307/307/307 303/303/303 306/306/306
f 306/306/306 308/308/308 307/307/307
f 309/309/309 311/311/311 310/310/310
f 310/310/310 312/312/312 309/309/309
f 313/313/313 309/309/309 312/312/312
f 312/312/312 314/314/314 313/313/313
f 315/315/315 313/313/313 314/314/314
f 314/314/314 316/316/316 315/315/315
f 317/317/317 319/319/319 318/318/318
f 318/318/318 320/320/320 317/317/317
f 321/321/321 323/323/323 322/322/322
f 322/322/322 324/324/324 321/321/321
f 325/325/325 327/327/327 326/326/326
f 325/325/325 326/326/326 328/328/328
f 329/329/329 325/325/325 328/328/328
f 326/326/326 330/330/330 328/328/328
f 326/326/326 331/331/331 330/330/330
f 330/330/330 332/332/332 328/328/328
f 330/330/330 333/333/333 332/332/332
f 332/332/332 334/334/334 328/328/328
f 335/335/335 337/337/337 336/336/336
f 335/335/335 336/336/336 338/338/338
f 339/339/339 335/335/335 338/338/338
f 336/336/336 340/340/340 338/338/338
f 340/340/340 341/341/341 338/338/338
f 336/336/336 342/342/342 340/340/340
f 336/336/336 343/343/343 342/342/342
f 342/342/342 344/344/344 340/340/340
f 345/345/345 347/347/347 346/346/346
f 346/346/346 348/348/348 345/345/345
f 349/349/349 345/345/345 348/348/348
f 348/348/348 350/350/350 349/349/349
f 351/351/351 349/349/349 350/350/350
f 350/350/350 352/352/352 351/351/351
f 353/353/353 355/355/355 354/354/354
f 354/354/354 356/356/356 353/353/353
f 357/357/357 353/353/353 356/356/356
f 356/356/356 358/358/358 357/357/357
f 359/359/359 361/361/361 360/360/360
f 360/360/360 362/362/362 359/359/359
f 363/363/363 359/359/359 362/362/362
f 362/362/362 364/364/364 363/363/363
f 365/365/365 363/363/363 364/364/364
f 364/364/364 366/366/366 365/365/365
f 367/367/367 369/369/369 368/368/368
f 368/368/368 370/370/370 367/367/367
f 371/371/371 373/373/373 372/372/372
f 372/372/372 374/374/374 371/371/371
f 375/375/375 377/377/377 376/376/376
f 375/375/375 376/376/376 378/378/378
f 379/379/379 375/375/375 378/378/378
f 376/376/376 380/380/380 378/378/378
f 376/376/376 381/381/381 380/380/380
f 380/380/380 382/382/382 378/378/378
f 380/380/380 383/383/383 382/382/382
f 382/382/382 384/384/384 378/378/378
f 385/385/385 387/387/387 386/386/386
f 385/385/385 386/386/386 388/388/388
f 389/389/389 385/385/385 388/388/388
f 386/386/386 390/390/390 388/388/388
f 390/390/390 391/391/391 388/388/388
f 386/386/386 392/392/392 390/390/390
f 386/386/386 393/393/393 392/392/392
f 392/392/392 394/394/394 390/390/390
f 395/395/395 397/397/397 396/396/396
f 396/396/396 398/398/398 395/395/395
f 399/399/399 395/395/395 398/398/398
f 398/398/398 400/400/400 399/399/399
f 401/401/401 399/399/399 400/400/400
f 400/400/400 402/402/402 401/401/401
f 403/403/403 405/405/405 404/404/404
f 404/404/404 406/406/406 403/403/403
f 407/407/407 403/403/403 406/406/406
f 406/406/406 408/408/408 407/407/407
f 409/409/409 411/411/411 410/410/410
f 410/410/410 412/412/412 409/409/409
f 413/413/413 409/409/409 412/412/412
f 412/412/412 414/414/414 413/413/413
f 415/415/415 413/413/413 414/414/414
f 414/414/414 416/416/416 415/415/415
f 417/417/417 419/419/419 418/418/418
f 418/418/418 420/420/420 417/417/417
f 421/421/421 423/423/423 422/422/422
f 422/422/422 424/424/424 421/421/421
f 425/425/425 427/427/427 426/426/426
f 425/425/425 426/426/426 428/428/428
f 429/429/429 425/425/425 428/428/428
f 426/426/426 430/430/430 428/428/428
f 426/426/426 431/431/431 430/430/430
f 430/430/430 432/432/432 428/428/428
f 430/430/430 433/433/433 432/432/432
f 432/432/432 434/434/434 428/428/428
f 435/435/435 437/437/437 436/436/436
f 435/435/435 436/436/436 438/438/438
f 435/435/435 438/438/438 439/439/439
f 440/440/440 442/442/442 441/441/441
f 440/440/440 441/441/441 443/443/443
f 440/440/440 443/443/443 444/444/444
f 445/445/445 447/447/447 446/446/446
f 446/446/446 448/448/448 445/445/445
f 445/445/445 448/448/448 449/449/449
f 449/449/449 450/450/450 445/445/445
f 451/451/451 453/453/453 452/452/452
f 452/452/452 454/454/454 451/451/451
f 451/451/451 454/454/454 455/455/455
f 455/455/455 456/456/456 451/451/451
f 457/457/457 459/459/459 458/458/458
f 457/457/457 458/458/458 460/460/460
f 457/457/457 460/460/460 461/461/461
f 462/462/462 464/464/464 463/463/463
f 462/462/462 463/463/463 465/465/465
f 462/462/462 465/465/465 466/466/466
f 467/467/467 469/469/469 468/468/468
f 468/468/468 470/470/470 467/467/467
f 467/467/467 470/470/470 471/471/471
f 471/471/471 472/472/472 467/467/467
f 473/473/473 475/475/475 474/474/474
f 474/474/474 476/476/476 473/473/473
f 473/473/473 476/476/476 477/477/477
f 477/477/477 478/478/478 473/473/473
f 479/479/479 481/481/481 480/480/480
f 479/479/479 480/480/480 482/482/482
f 479/479/479 482/482/482 483/483/483
f 484/484/484 486/486/486 485/485/485
f 484/484/484 485/485/485 487/487/487
f 484/484/484 487/487/487 488/488/488
f 489/489/489 491/491/491 490/490/490
f 490/490/490 492/492/492 489/489/489
f 489/489/489 492/492/492 493/493/493
f 493/493/493 494/494/494 489/489/489
f 495/495/495 497/497/497 496/496/496
f 496/496/496 498/498/498 495/495/495
f 495/495/495 498/498/498 499/499/499
f 499/499/499 500/500/500 495/495/495
f 501/501/501 503/503/503 502/502/502
f 501/501/501 502/502/502 504/504/504
f 501/501/501 504/504/504 505/505/505
f 506/506/506 508/508/508 507/507/507
f 506/506/506 507/507/507 509/509/509
f 506/506/506 509/509/509 510/510/510
f 511/511/511 513/513/513 512/512/512
f 512/512/512 514/514/514 511/511/511
f 511/511/511 514/514/514 515/515/515
f 515/515/515 516/516/516 511/511/511
f 517/517/517 519/519/519 518/518/518
f 518/518/518 520/520/520 517/517/517
f 517/517/517 520/520/520 521/521/521
f 521/521/521 522/522/522 517/517/517
f 523/523/523 525/525/525 524/524/524
f 523/523/523 524/524/524 526/526/526
f 523/523/523 526/526/526 527/527/527
f 528/528/528 530/530/530 529/529/529
f 528/528/528 529/529/529 531/531/531
f 528/528/528 531/531/531 532/532/532
f 533/533/533 535/535/535 534/534/534
f 534/534/534 536/536/536 533/533/533
f 533/533/533 536/536/536 537/537/537
f 537/537/537 538/538/538 533/533/533
f 539/539/539 541/541/541 540/540/540
f 540/540/540 542/542/542 539/539/539
f 539/539/539 542/542/542 543/543/543
f 543/543/543 544/544/544 539/539/539
f 545/545/545 547/547/547 546/546/546
f 545/545/545 546/546/546 548/548/548
f 545/545/545 548/548/548 549/549/549
f 550/550/550 552/552/552 551/551/551
f 550/550/550 551/551/551 553/553/553
f 550/550/550 553/553/553 554/554/554
f 555/555/555 557/557/557 556/556/556
f 556/556/556 558/558/558 555/555/555
f 555/555/555 558/558/558 559/559/559
f 559/559/559 560/560/560 555/555/555
f 561/561/561 563/563/563 562/562/562
f 562/562/562 564/564/564 561/561/561
f 561/561/561 564/564/564 565/565/565
f 565/565/565 566/566/566 561/561/561
f 567/567/567 569/569/569 568/568/568
f 567/567/567 568/568/568 570/570/570
f 567/567/567 570/570/570 571/571/571
f 572/572/572 574/574/574 573/573/573
f 572/572/572 573/573/573 575/575/575
f 572/572/572 575/575/575 576/576/576
f 577/577/577 579/579/579 578/578/578
f 578/578/578 580/580/580 577/577/577
f 577/577/577 580/580/580 581/581/581
f 581/581/581 582/582/582 577/577/577
f 583/583/583 585/585/585 584/584/584
f 584/584/584 586/586/586 583/583/583
f 583/583/583 586/586/586 587/587/587
f 587/587/587 588/588/588 583/583/583
f 589/589/589 591/591/591 590/590/590
f 589/589/589 590/590/590 592/592/592
f 589/589/589 592/592/592 593/593/593
f 594/594/594 596/596/596 595/595/595
f 594/594/594 595/595/595 597/597/597
f 594/594/594 597/597/597 598/598/598
f 599/599/599 601/601/601 600/600/600
f 600/600/600 602/602/602 599/599/599
f 599/599/599 602/602/602 603/603/603
f 603/603/603 604/604/604 599/599/599
f 605/605/605 607/607/607 606/606/606
f 606/606/606 608/608/608 605/605/605
f 605/605/605 608/608/608 609/609/609
f 609/609/609 610/610/610 605/605/605
f 611/611/611 613/613/613 612/612/612
f 611/611/611 612/612/612 614/614/614
f 611/611/611 614/614/614 615/615/615
f 616/616/616 618/618/618 617/617/617
f 616/616/616 617/617/617 619/619/619
f 616/616/616 619/619/619 620/620/620
f 621/621/621 623/623/623 622/622/622
f 622/622/622 624/624/624 621/621/621
f 621/621/621 624/624/624 625/625/625
f 625/625/625 626/626/626 621/621/621
f 627/627/627 629/629/629 628/628/628
f 628/628/628 630/630/630 627/627/627
f 627/627/627 630/630/630 631/631/631
f 631/631/631 632/632/632 627/627/627
f 633/633/633 635/635/635 634/634/634
f 633/633/633 634/634/634 636/636/636
f 633/633/633 636/636/636 637/637/637
f 638/638/638 640/640/640 639/639/639
f 638/638/638 639/639/639 641/641/641
f 638/638/638 641/641/641 642/642/642
f 643/643/643 645/645/645 644/644/644
f 644/644/644 646/646/646 643/643/643
f 643/643/643 646/646/646 647/647/647
f 647/647/647 648/648/648 643/643/643
f 649/649/649 651/651/651 650/650/650
f 650/650/650 652/652/652 649/649/649
f 649/649/649 652/652/652 653/653/653
f 653/653/653 654/654/654 649/649/649
f 655/655/655 657/657/657 656/656/656
f 656/656/656 658/658/658 655/655/655
f 659/659/659 661/661/661 660/660/660
f 660/660/660 662/662/662 659/659/659
f 663/663/663 665/665/665 664/664/664
f 664/664/664 666/666/666 663/663/663
f 667/667/667 669/669/669 668/668/668
f 668/668/668 670/670/670 667/667/667
f 671/671/671 673/673/673 672/672/672
f 672/672/672 674/674/674 671/671/671
f 675/675/675 677/677/677 676/676/676
f 676/676/676 678/678/678 675/675/675
f 679/679/679 681/681/681 680/680/680
f 680/680/680 682/682/682 679/679/679
f 683/683/683 685/685/685 684/684/684
f 684/684/684 686/686/686 683/683/683
f 687/687/687 689/689/689 688/688/688
f 687/687/687 688/688/688 690/690/690
f 687/687/687 690/690/690 691/691/691
f 692/692/692 694/694/694 693/693/693
f 692/692/692 693/693/693 695/695/695
f 692/692/692 695/695/695 696/696/696
f 697/697/697 699/699/699 698/698/698
f 698/698/698 700/700/700 697/697/697
f 697/697/697 700/700/700 701/701/701
f 701/701/701 702/702/702 697/697/697
f 703/703/703 705/705/705 704/704/704
f 704/704/704 706/706/706 703/703/703
f 703/703/703 706/706/706 707/707/707
f 707/707/707 708/708/708 703/703/703
f 709/709/709 711/711/711 710/710/710
f 709/709/709 710/710/710 712/712/712
f 709/709/709 712/712/712 713/713/713
f 714/714/714 716/716/716 715/715/715
f 714/714/714 715/715/715 717/717/717
f 714/714/714 717/717/717 718/718/718
f 719/719/719 721/721/721 720/720/720
f 720/720/720 722/722/722 719/719/719
f 719/719/719 722/722/722 723/723/723
f 723/723/723 724/724/724 719/719/719
f 725/725/725 727/727/727 726/726/726
f 726/726/726 728/728/728 725/725/725
f 725/725/725 728/728/728 729/729/729
f 729/729/729 730/730/730 725/725/725
f 731/731/731 733/733/733 732/732/732
f 732/732/732 734/734/734 731/731/731
f 735/735/735 737/737/737 736/736/736
f 736/736/736 738/738/738 735/735/735
f 739/739/739 741/741/741 740/740/740
f 740/740/740 742/742/742 739/739/739
