#Floor_(14)_597_57.obj

v -74.99999 -75.00002 -1.377682E-14
v 75.00003 75.00002 1.377682E-14
v 75.00003 -75.00002 -1.377682E-14
v -74.99999 75.00002 1.377682E-14

vn 0 1 -1.192093E-07
vn 0 1 -1.192093E-07
vn 0 1 -1.192093E-07
vn 0 1 -1.192093E-07

vt 0.0006356239 0.0005640984
vt 0.4990234 0.4997559
vt 0.4990234 0.0005640984
vt 0.0006356239 0.4997559

g Floor_(14)_597_57
usemtl Floor_(14)_597_57
usemap Floor_(14)_597_57
f 1/1/1 3/3/3 2/2/2
f 2/2/2 4/4/4 1/1/1
