#Lamp_2088_9.obj

v 0.03790104 -0.3812479 -0.04213785
v 0.01550412 -0.2867998 -0.04776071
v 0.01750344 -0.3812479 -0.05391382
v -0.005244434 -0.2867998 -0.04994177
v -0.005920708 -0.3812479 -0.0563762
v -0.02508622 -0.2867998 -0.04349493
v -0.02832109 -0.3812479 -0.04909776
v -0.04059035 -0.2867998 -0.02953504
v -0.04582447 -0.3812479 -0.03333734
v 0.01550412 -0.2867998 -0.04776071
v 0.03790104 -0.3812479 -0.04213785
v 0.0335719 -0.2867998 -0.03732942
v 0.05174524 -0.3812479 -0.02308248
v 0.04583478 -0.2867998 -0.02045129
v 0.05664217 -0.3812479 -4.456761E-05
v 0.05017245 -0.2867998 -4.457174E-05
v 0.05174524 -0.3812479 0.0229943
v 0.04583478 -0.2867998 0.02036311
v -0.04582447 -0.3812479 -0.03333734
v -0.04907602 -0.2867998 -0.01047586
v -0.05540442 -0.3812479 -0.01182054
v -0.04059035 -0.2867998 -0.02953504
v -0.04907602 -0.2867998 0.01038767
v -0.05540442 -0.3812479 -0.01182054
v -0.04907602 -0.2867998 -0.01047586
v -0.05540442 -0.3812479 0.01173236
v -0.04059029 -0.2867998 0.02944685
v -0.04582447 -0.3812479 0.03324915
v -0.02508616 -0.2867998 0.04340674
v -0.04582447 -0.3812479 0.03324915
v -0.04059029 -0.2867998 0.02944685
v -0.02832109 -0.3812479 0.04900958
v -0.005244434 -0.2867998 0.04985357
v -0.005920708 -0.3812479 0.05628802
v 0.01550412 -0.2867998 0.04767252
v 0.01750344 -0.3812479 0.05382563
v 0.0335719 -0.2867998 0.03724123
v 0.01750344 -0.3812479 0.05382563
v 0.01550412 -0.2867998 0.04767252
v 0.03790104 -0.3812479 0.04204871
v 0.04583478 -0.2867998 0.02036311
v 0.05174524 -0.3812479 0.0229943
v -0.2559848 -0.5035051 -0.1860282
v -0.2078637 -0.4378856 -0.04422734
v -0.3095001 -0.5035051 -0.06582997
v -0.1719222 -0.4378856 -0.124953
v -0.05540442 -0.3812479 -0.01182054
v -0.1582073 -0.5035051 -0.2740676
v -0.04582447 -0.3812479 -0.03333734
v -0.1062538 -0.4378856 -0.1840808
v -0.03307432 -0.5035051 -0.3147256
v -0.02832109 -0.3812479 -0.04909776
v -0.0222131 -0.4378856 -0.2113874
v 0.09777749 -0.5035051 -0.3009727
v -0.005920708 -0.3812479 -0.0563762
v 0.06566846 -0.4378856 -0.202151
v 0.2117226 -0.5035051 -0.2351863
v 0.01750344 -0.3812479 -0.05391382
v 0.1421953 -0.4378856 -0.1579683
v 0.289059 -0.5035051 -0.128742
v 0.03790104 -0.3812479 -0.04213785
v 0.1941353 -0.4378856 -0.08647893
v 0.3164145 -0.5035051 -4.456226E-05
v 0.05174524 -0.3812479 -0.02308248
v 0.2125075 -0.4378856 -4.456513E-05
v 0.289059 -0.5035051 0.1286528
v 0.05664217 -0.3812479 -4.456761E-05
v 0.1941353 -0.4378856 0.08639076
v 0.2117227 -0.5035051 0.2350981
v 0.05174524 -0.3812479 0.0229943
v 0.1421953 -0.4378856 0.1578801
v 0.09777749 -0.5035051 0.3008845
v 0.03790104 -0.3812479 0.04204871
v 0.06566846 -0.4378856 0.2020629
v -0.03307426 -0.5035051 0.3146365
v 0.01750344 -0.3812479 0.05382563
v -0.02221304 -0.4378856 0.2113001
v -0.1582072 -0.5035051 0.2739795
v -0.005920708 -0.3812479 0.05628802
v -0.1062537 -0.4378856 0.1839926
v -0.2559847 -0.5035051 0.18594
v -0.02832109 -0.3812479 0.04900958
v -0.1719222 -0.4378856 0.1248648
v -0.3095001 -0.5035051 0.0657418
v -0.04582447 -0.3812479 0.03324915
v -0.2078637 -0.4378856 0.04413821
v -0.3095001 -0.5035051 -0.06582997
v -0.05540442 -0.3812479 0.01173236
v -0.2078637 -0.4378856 -0.04422734
v -0.05540442 -0.3812479 -0.01182054
v -0.005244434 -0.2867998 -0.04994177
v -0.04059035 -0.2867998 -0.02953504
v -0.02508622 -0.2867998 -0.04349493
v 0.0335719 -0.2867998 -0.03732942
v 0.01550412 -0.2867998 -0.04776071
v 0.04583478 -0.2867998 0.02036311
v 0.05017245 -0.2867998 -4.457174E-05
v 0.04583478 -0.2867998 -0.02045129
v -0.02508616 -0.2867998 0.04340674
v -0.04907602 -0.2867998 0.01038767
v -0.04907602 -0.2867998 -0.01047586
v -0.04059029 -0.2867998 0.02944685
v 0.01550412 -0.2867998 0.04767252
v -0.005244434 -0.2867998 0.04985357
v 0.0335719 -0.2867998 0.03724123
v 0.3077345 -0.5278229 -4.45612E-05
v 0.289059 -0.5210727 -0.1287419
v 0.2811294 -0.5278229 -0.1252114
v 0.3164145 -0.5210727 -4.45615E-05
v 0.2811294 -0.5278229 0.1251223
v 0.289059 -0.5210727 0.1286528
v 0.2059146 -0.5278229 0.2286475
v 0.2117227 -0.5210727 0.2350982
v 0.09509528 -0.5278229 0.2926295
v 0.09777749 -0.5210727 0.3008845
v -0.03216696 -0.5278229 0.3060038
v -0.03307426 -0.5210727 0.3146365
v -0.1538672 -0.5278229 0.2664607
v -0.03307426 -0.5210727 0.3146365
v -0.03216696 -0.5278229 0.3060038
v -0.1582072 -0.5210727 0.2739795
v -0.2489624 -0.5278229 0.1808379
v -0.2559847 -0.5210727 0.1859401
v -0.3010097 -0.5278229 0.06393745
v -0.3095001 -0.5210727 0.0657418
v -0.3010097 -0.5278229 -0.06402562
v -0.3095001 -0.5210727 -0.06582997
v -0.2489624 -0.5278229 -0.1809261
v -0.3095001 -0.5210727 -0.06582997
v -0.3010097 -0.5278229 -0.06402562
v -0.2559848 -0.5210727 -0.1860282
v -0.1538672 -0.5278229 -0.2665498
v -0.1582073 -0.5210727 -0.2740676
v -0.03216702 -0.5278229 -0.3060929
v -0.03307432 -0.5210727 -0.3147256
v 0.09509516 -0.5278229 -0.2927167
v 0.09777749 -0.5210727 -0.3009727
v 0.2059145 -0.5278229 -0.2287357
v 0.2117226 -0.5210727 -0.2351863
v 0.2811294 -0.5278229 -0.1252114
v 0.289059 -0.5210727 -0.1287419
v 0.3164145 -0.5210727 -4.45615E-05
v 0.289059 -0.5035051 -0.128742
v 0.289059 -0.5210727 -0.1287419
v 0.3164145 -0.5035051 -4.456226E-05
v 0.289059 -0.5210727 0.1286528
v 0.289059 -0.5035051 0.1286528
v 0.2117227 -0.5210727 0.2350982
v 0.2117227 -0.5035051 0.2350981
v 0.09777749 -0.5210727 0.3008845
v 0.09777749 -0.5035051 0.3008845
v -0.03307426 -0.5210727 0.3146365
v 0.09777749 -0.5035051 0.3008845
v 0.09777749 -0.5210727 0.3008845
v -0.03307426 -0.5035051 0.3146365
v -0.1582072 -0.5210727 0.2739795
v -0.1582072 -0.5035051 0.2739795
v -0.2559847 -0.5210727 0.1859401
v -0.2559847 -0.5035051 0.18594
v -0.3095001 -0.5210727 0.0657418
v -0.3095001 -0.5035051 0.0657418
v -0.3095001 -0.5035051 0.0657418
v -0.3095001 -0.5210727 -0.06582997
v -0.3095001 -0.5035051 -0.06582997
v -0.3095001 -0.5210727 0.0657418
v -0.2559848 -0.5210727 -0.1860282
v -0.3095001 -0.5035051 -0.06582997
v -0.3095001 -0.5210727 -0.06582997
v -0.2559848 -0.5035051 -0.1860282
v -0.1582073 -0.5210727 -0.2740676
v -0.1582073 -0.5035051 -0.2740676
v -0.03307432 -0.5210727 -0.3147256
v -0.1582073 -0.5035051 -0.2740676
v -0.1582073 -0.5210727 -0.2740676
v -0.03307432 -0.5035051 -0.3147256
v 0.09777749 -0.5210727 -0.3009727
v 0.09777749 -0.5035051 -0.3009727
v 0.2117226 -0.5210727 -0.2351863
v 0.2117226 -0.5035051 -0.2351863
v 0.289059 -0.5210727 -0.1287419
v 0.289059 -0.5035051 -0.128742
v 0.3077345 -0.5102552 -4.456197E-05
v 0.2811294 -0.5278229 -0.1252114
v 0.2811294 -0.5102552 -0.1252115
v 0.3077345 -0.5278229 -4.45612E-05
v 0.2811294 -0.5102552 0.1251223
v 0.2811294 -0.5278229 0.1251223
v 0.2059146 -0.5102552 0.2286475
v 0.2059146 -0.5278229 0.2286475
v 0.2059145 -0.5278229 -0.2287357
v 0.2811294 -0.5102552 -0.1252115
v 0.2811294 -0.5278229 -0.1252114
v 0.2059145 -0.5102552 -0.2287357
v 0.09509516 -0.5278229 -0.2927167
v 0.09509516 -0.5102552 -0.2927167
v -0.03216702 -0.5278229 -0.3060929
v -0.03216702 -0.5102552 -0.3060929
v -0.1538672 -0.5278229 -0.2665498
v -0.03216702 -0.5102552 -0.3060929
v -0.1538672 -0.5278229 -0.2665498
v -0.1538672 -0.5102552 -0.2665498
v -0.2489624 -0.5278229 -0.1809261
v -0.2489624 -0.5102552 -0.1809261
v -0.3010097 -0.5278229 -0.06402562
v -0.3010097 -0.5102552 -0.06402562
v -0.3010097 -0.5278229 0.06393745
v -0.3010097 -0.5102552 0.06393745
v -0.2489624 -0.5278229 0.1808379
v -0.3010097 -0.5102552 0.06393745
v -0.2489624 -0.5278229 0.1808379
v -0.2489624 -0.5102552 0.1808379
v -0.1538672 -0.5278229 0.2664607
v -0.1538672 -0.5102552 0.2664607
v -0.03216696 -0.5278229 0.3060038
v -0.03216696 -0.5102552 0.3060038
v 0.09509528 -0.5278229 0.2926295
v 0.09509528 -0.5102552 0.2926295
v 0.2059146 -0.5278229 0.2286475
v 0.2059146 -0.5102552 0.2286475
v 0.00400126 -0.2868732 -0.002943742
v 0.001928329 -0.01083124 -0.005797147
v 0.001928329 -0.2868732 -0.005797135
v 0.00400126 -0.01083124 -0.002943754
v 0.001928329 -0.2868732 -0.005797135
v -0.001425803 -0.01083124 -0.004707098
v -0.001425803 -0.2868732 -0.004707085
v 0.001928329 -0.01083124 -0.005797147
v -0.001425803 -0.2868732 -0.004707085
v -0.001425803 -0.01083124 -0.00118041
v -0.001425803 -0.2868732 -0.001180398
v -0.001425803 -0.01083124 -0.004707098
v -0.001425803 -0.2868732 -0.001180398
v 0.001928329 -0.01083124 -9.036017E-05
v 0.001928329 -0.2868732 -9.034811E-05
v -0.001425803 -0.01083124 -0.00118041
v 0.001928329 -0.2868732 -9.034811E-05
v 0.00400126 -0.01083124 -0.002943754
v 0.00400126 -0.2868732 -0.002943742
v 0.001928329 -0.01083124 -9.036017E-05
v 0.01963234 -0.01155794 -0.00293231
v 0.006758571 0.004530548 -0.02065158
v 0.006758571 -0.01155794 -0.02065158
v 0.01963234 0.004530549 -0.00293231
v 0.006758571 -0.01155794 -0.02065158
v -0.01407164 0.004530549 -0.01388335
v -0.01407164 -0.01155794 -0.01388335
v 0.006758571 0.004530548 -0.02065158
v -0.01407164 -0.01155794 -0.01388335
v -0.01407164 0.00453055 0.008018732
v -0.01407164 -0.01155794 0.008018733
v -0.01407164 0.004530549 -0.01388335
v -0.01407164 -0.01155794 0.008018733
v 0.006758571 0.00453055 0.01478696
v 0.006758571 -0.01155794 0.01478696
v -0.01407164 0.00453055 0.008018732
v 0.006758571 -0.01155794 0.01478696
v 0.01963234 0.004530549 -0.00293231
v 0.01963234 -0.01155794 -0.00293231
v 0.006758571 0.00453055 0.01478696
v -0.01407164 -0.01155794 0.008018733
v 0.006758571 -0.01155794 -0.02065158
v -0.01407164 -0.01155794 -0.01388335
v 0.006758571 -0.01155794 0.01478696
v 0.01963234 -0.01155794 -0.00293231
v -0.02161044 -0.3815473 -0.0317695
v -0.03529429 -0.3815473 -0.01808618
v -0.0495258 -0.4089149 -0.02630208
v -0.05673611 -0.4089149 0.0006067932
v -0.04030287 -0.3815473 0.000606792
v -0.07049584 -0.4462999 0.0006067948
v -0.06144214 -0.4462999 -0.03318284
v -0.06767058 -0.4836849 0.0006067964
v -0.05899537 -0.4836849 -0.03176949
v -0.03670692 -0.4462999 -0.05791734
v -0.04030293 -0.5110525 0.0006067976
v -0.03529429 -0.4836849 -0.05547116
v -0.03529429 -0.5110525 -0.01808617
v -0.04030287 -0.3815473 0.000606792
v -0.03529429 -0.3815473 0.01929881
v -0.04952586 -0.4089149 0.02751567
v -0.05673611 -0.4089149 0.0006067932
v -0.06144214 -0.4462999 0.03439547
v -0.07049584 -0.4462999 0.0006067948
v -0.05899537 -0.4836849 0.03298309
v -0.03529429 -0.4836849 0.0566838
v -0.002918005 -0.3815473 0.03799178
v 0.01577449 -0.3815473 0.03298308
v 0.02399105 -0.4089149 0.04721477
v -0.002918005 -0.4089149 0.05442454
v -0.02161044 -0.3815473 0.03298308
v -0.02982706 -0.4089149 0.04721477
v -0.03529429 -0.3815473 0.01929881
v -0.04952586 -0.4089149 0.02751567
v -0.002918005 -0.4462999 0.06818416
v -0.03670692 -0.4462999 0.05913093
v -0.06144214 -0.4462999 0.03439547
v -0.03529429 -0.4836849 0.0566838
v -0.002918005 -0.4836849 0.06535938
v 0.02945828 -0.4836849 0.0566838
v 0.01577449 -0.3815473 0.03298308
v 0.02945828 -0.3815473 0.01929881
v 0.04368985 -0.4089149 0.02751567
v 0.02399105 -0.4089149 0.04721477
v 0.05560613 -0.4462999 0.03439547
v 0.06465989 -0.4462999 0.0006067948
v 0.0509001 -0.4089149 0.0006067932
v 0.06183457 -0.4836849 0.0006067964
v 0.05315936 -0.4836849 0.03298309
v 0.03087091 -0.4462999 0.05913093
v -0.002918005 -0.4089149 0.05442454
v 0.02945828 -0.4836849 0.0566838
v -0.002918005 -0.4462999 0.06818416
v 0.02945828 -0.3815473 0.01929881
v 0.0509001 -0.4089149 0.0006067932
v 0.04368985 -0.4089149 0.02751567
v 0.03446692 -0.3815473 0.000606792
v 0.04368991 -0.4089149 -0.02630208
v 0.02945834 -0.3815473 -0.01808618
v 0.02399111 -0.4089149 -0.04600118
v 0.01577449 -0.3815473 -0.0317695
v 0.03087097 -0.4462999 -0.05791734
v 0.05560619 -0.4462999 -0.03318284
v 0.02945834 -0.4836849 -0.05547116
v 0.06465989 -0.4462999 0.0006067948
v 0.05315942 -0.4836849 -0.03176949
v 0.06183457 -0.4836849 0.0006067964
v -0.07049584 -0.4462999 0.0006067948
v -0.05899537 -0.4836849 0.03298309
v -0.06767058 -0.4836849 0.0006067964
v -0.03529429 -0.5110525 0.01929881
v -0.04030293 -0.5110525 0.0006067976
v -0.002918005 -0.5210699 0.000606798
v -0.02161044 -0.5110525 0.03298309
v -0.03529429 -0.4836849 0.0566838
v -0.002918005 -0.5110525 0.03799178
v 0.03087097 -0.4462999 -0.05791734
v -0.002918005 -0.4836849 -0.06414578
v 0.02945834 -0.4836849 -0.05547116
v -0.002918005 -0.4462999 -0.06697152
v -0.03529429 -0.4836849 -0.05547116
v 0.02399111 -0.4089149 -0.04600118
v -0.03670692 -0.4462999 -0.05791734
v -0.002918005 -0.4089149 -0.05321191
v 0.01577449 -0.3815473 -0.0317695
v -0.002918005 -0.3815473 -0.0367782
v -0.02982706 -0.4089149 -0.04600118
v -0.06144214 -0.4462999 -0.03318284
v -0.02161044 -0.3815473 -0.0317695
v -0.0495258 -0.4089149 -0.02630208
v -0.03529429 -0.4836849 0.0566838
v -0.002918005 -0.4836849 0.06535938
v -0.002918005 -0.5110525 0.03799178
v 0.01577443 -0.5110525 0.03298309
v -0.002918005 -0.5210699 0.000606798
v 0.02945828 -0.5110525 0.01929881
v 0.02945828 -0.4836849 0.0566838
v 0.05315936 -0.4836849 0.03298309
v 0.03446692 -0.5110525 0.0006067976
v 0.06183457 -0.4836849 0.0006067964
v 0.02945828 -0.5110525 -0.01808617
v 0.05315942 -0.4836849 -0.03176949
v 0.01577449 -0.5110525 -0.03176949
v 0.02945834 -0.4836849 -0.05547116
v -0.002918005 -0.5110525 -0.03677819
v -0.002918005 -0.4836849 -0.06414578
v -0.02161044 -0.5110525 -0.03176949
v -0.03529429 -0.4836849 -0.05547116
v -0.03529429 -0.5110525 -0.01808617
v -0.04030293 -0.5110525 0.0006067976
v 0.1888096 -0.4464353 -0.08410809
v 0.3077345 -0.5102552 -4.456197E-05
v 0.2811294 -0.5102552 -0.1252115
v 0.2066779 -0.4464353 -4.456476E-05
v 0.2811294 -0.5102552 0.1251223
v 0.1382946 -0.4464353 -0.1536357
v 0.0368613 -0.3913511 -0.04098294
v 0.2059145 -0.5102552 -0.2287357
v 0.06386697 -0.4464353 -0.1966064
v 0.09509516 -0.5102552 -0.2927167
v 0.1888098 -0.4464353 0.08401897
v 0.2059146 -0.5102552 0.2286475
v 0.05032569 -0.3913511 -0.02245019
v 0.05032575 -0.3913511 0.02236201
v -0.02754414 -0.3913511 0.04766395
v -0.04456741 -0.3913511 -0.03242467
v 0.05508834 -0.3913511 -4.456717E-05
v 0.1382946 -0.4464353 0.1535475
v 0.09509528 -0.5102552 0.2926295
v 0.06386703 -0.4464353 0.1965182
v -0.03216696 -0.5102552 0.3060038
v 0.0368613 -0.3913511 0.04089477
v 0.01702327 -0.3913511 0.05234839
v -0.0216037 -0.4464353 0.2055018
v -0.1538672 -0.5102552 0.2664607
v -0.005758286 -0.3913511 0.05474212
v -0.1033389 -0.4464353 0.1789439
v -0.2489624 -0.5102552 0.1808379
v -0.1672059 -0.4464353 0.1214383
v -0.3010097 -0.5102552 0.06393745
v -0.2021615 -0.4464353 0.04292705
v -0.3010097 -0.5102552 -0.06402562
v -0.04456741 -0.3913511 0.03233554
v -0.05388451 -0.3913511 0.01140906
v -0.2021615 -0.4464353 -0.04301522
v -0.2489624 -0.5102552 -0.1809261
v -0.05388451 -0.3913511 -0.01149724
v -0.1672059 -0.4464353 -0.1215265
v -0.1538672 -0.5102552 -0.2665498
v -0.103339 -0.4464353 -0.1790321
v -0.03216702 -0.5102552 -0.3060929
v -0.0216037 -0.4464353 -0.20559
v -0.02754414 -0.3913511 -0.04775212
v -0.005758286 -0.3913511 -0.05483029
v 0.01702327 -0.3913511 -0.05243657

vn 0.6674805 0.06835938 -0.7412109
vn 0.3083496 0.06835938 -0.9487305
vn 0.3083496 0.06835938 -0.9487305
vn -0.1043091 0.06835938 -0.9921875
vn -0.1043091 0.06835938 -0.9921875
vn -0.4987793 0.06835938 -0.8637695
vn -0.4987793 0.06835938 -0.8637695
vn -0.8071289 0.06835938 -0.5864258
vn -0.8071289 0.06835938 -0.5864258
vn 0.3083496 0.06835938 -0.9487305
vn 0.6674805 0.06835938 -0.7412109
vn 0.6674805 0.06835938 -0.7412109
vn 0.9116211 0.06835938 -0.4057617
vn 0.9116211 0.06835938 -0.4057617
vn 0.9975586 0.06835938 0
vn 0.9975586 0.06835938 0
vn 0.9116211 0.06835938 0.4057617
vn 0.9116211 0.06835938 0.4057617
vn -0.8071289 0.06835938 -0.5864258
vn -0.9760742 0.06835938 -0.2073975
vn -0.9760742 0.06835938 -0.2073975
vn -0.8071289 0.06835938 -0.5864258
vn -0.9760742 0.06835938 0.2073975
vn -0.9760742 0.06835938 -0.2073975
vn -0.9760742 0.06835938 -0.2073975
vn -0.9760742 0.06835938 0.2073975
vn -0.8071289 0.06835938 0.5864258
vn -0.8071289 0.06835938 0.5864258
vn -0.4987793 0.06835938 0.8637695
vn -0.8071289 0.06835938 0.5864258
vn -0.8071289 0.06835938 0.5864258
vn -0.4987793 0.06835938 0.8637695
vn -0.1043091 0.06835938 0.9921875
vn -0.1043091 0.06835938 0.9921875
vn 0.3083496 0.06835938 0.9487305
vn 0.3083496 0.06835938 0.9487305
vn 0.6674805 0.06835938 0.7412109
vn 0.3083496 0.06835938 0.9487305
vn 0.3083496 0.06835938 0.9487305
vn 0.6674805 0.06835938 0.7412109
vn 0.9116211 0.06835938 0.4057617
vn 0.9116211 0.06835938 0.4057617
vn -0.4318848 0.8457031 -0.3139648
vn -0.4416504 0.8920898 -0.09387207
vn -0.5224609 0.8457031 -0.1110229
vn -0.3654785 0.8920898 -0.2653809
vn -0.3339844 0.9399414 -0.07098389
vn -0.2670898 0.8457031 -0.4624023
vn -0.2763672 0.9399414 -0.2006836
vn -0.2258301 0.8920898 -0.3911133
vn -0.05581665 0.8457031 -0.53125
vn -0.1707764 0.9399414 -0.2956543
vn -0.04721069 0.8920898 -0.4492188
vn 0.1650391 0.8457031 -0.5078125
vn -0.03570557 0.9399414 -0.3395996
vn 0.1395264 0.8920898 -0.4294434
vn 0.3571777 0.8457031 -0.3967285
vn 0.1055298 0.9399414 -0.324707
vn 0.3022461 0.8920898 -0.3356934
vn 0.487793 0.8457031 -0.2171631
vn 0.2285156 0.9399414 -0.2539063
vn 0.4125977 0.8920898 -0.1837158
vn 0.5341797 0.8457031 5.960464E-08
vn 0.3120117 0.9399414 -0.138916
vn 0.4516602 0.8920898 5.960464E-08
vn 0.487793 0.8457031 0.2171631
vn 0.3415527 0.9399414 5.960464E-08
vn 0.4125977 0.8920898 0.1837158
vn 0.3571777 0.8457031 0.3967285
vn 0.3120117 0.9399414 0.138916
vn 0.3022461 0.8920898 0.3356934
vn 0.1650391 0.8457031 0.5078125
vn 0.2285156 0.9399414 0.2539063
vn 0.1395264 0.8920898 0.4294434
vn -0.05581665 0.8457031 0.53125
vn 0.1055298 0.9399414 0.324707
vn -0.04721069 0.8920898 0.4492188
vn -0.2670898 0.8457031 0.4624023
vn -0.03570557 0.9399414 0.3395996
vn -0.2258301 0.8920898 0.3911133
vn -0.4318848 0.8457031 0.3139648
vn -0.1707764 0.9399414 0.2956543
vn -0.3654785 0.8920898 0.2653809
vn -0.5224609 0.8457031 0.1110229
vn -0.2763672 0.9399414 0.2006836
vn -0.4416504 0.8920898 0.09387207
vn -0.5224609 0.8457031 -0.1110229
vn -0.3339844 0.9399414 0.07098389
vn -0.4416504 0.8920898 -0.09387207
vn -0.3339844 0.9399414 -0.07098389
vn 0 1 5.960464E-08
vn 0 1 5.960464E-08
vn 0 1 5.960464E-08
vn 0 1 5.960464E-08
vn 0 1 5.960464E-08
vn 0 1 5.960464E-08
vn 0 1 5.960464E-08
vn 0 1 5.960464E-08
vn 0 1 5.960464E-08
vn 0 1 5.960464E-08
vn 0 1 5.960464E-08
vn 0 1 5.960464E-08
vn 0 1 5.960464E-08
vn 0 1 5.960464E-08
vn 0 1 5.960464E-08
vn 0.6137695 -0.7895508 -5.960464E-08
vn 0.5605469 -0.7895508 -0.2496338
vn 0.5605469 -0.7895508 -0.2496338
vn 0.6137695 -0.7895508 -5.960464E-08
vn 0.5610352 -0.7895508 0.2496338
vn 0.5610352 -0.7895508 0.2496338
vn 0.4106445 -0.7895508 0.4562988
vn 0.4106445 -0.7895508 0.4562988
vn 0.1896973 -0.7895508 0.5839844
vn 0.1896973 -0.7895508 0.5839844
vn -0.06414795 -0.7895508 0.6103516
vn -0.06414795 -0.7895508 0.6103516
vn -0.3068848 -0.7895508 0.5317383
vn -0.06414795 -0.7895508 0.6103516
vn -0.06414795 -0.7895508 0.6103516
vn -0.3068848 -0.7895508 0.5317383
vn -0.496582 -0.7895508 0.3608398
vn -0.496582 -0.7895508 0.3608398
vn -0.6005859 -0.7895508 0.1276855
vn -0.6005859 -0.7895508 0.1276855
vn -0.6005859 -0.7895508 -0.1276855
vn -0.6005859 -0.7895508 -0.1276855
vn -0.496582 -0.7895508 -0.3608398
vn -0.6005859 -0.7895508 -0.1276855
vn -0.6005859 -0.7895508 -0.1276855
vn -0.496582 -0.7895508 -0.3608398
vn -0.3068848 -0.7895508 -0.5317383
vn -0.3068848 -0.7895508 -0.5317383
vn -0.06414795 -0.7895508 -0.6103516
vn -0.06414795 -0.7895508 -0.6103516
vn 0.1896973 -0.7895508 -0.5839844
vn 0.1896973 -0.7895508 -0.5839844
vn 0.4106445 -0.7895508 -0.4562988
vn 0.4106445 -0.7895508 -0.4562988
vn 0.5605469 -0.7895508 -0.2496338
vn 0.5605469 -0.7895508 -0.2496338
vn 1 0 0
vn 0.9135742 0 -0.4067383
vn 0.9135742 0 -0.4067383
vn 1 0 0
vn 0.9135742 0 0.4067383
vn 0.9135742 0 0.4067383
vn 0.6689453 -5.960464E-08 0.7431641
vn 0.6689453 -5.960464E-08 0.7431641
vn 0.309082 -5.960464E-08 0.9511719
vn 0.309082 -5.960464E-08 0.9511719
vn -0.1045532 -5.960464E-08 0.9946289
vn 0.309082 -5.960464E-08 0.9511719
vn 0.309082 -5.960464E-08 0.9511719
vn -0.1045532 -5.960464E-08 0.9946289
vn -0.5 -5.960464E-08 0.8662109
vn -0.5 -5.960464E-08 0.8662109
vn -0.809082 0 0.5878906
vn -0.809082 0 0.5878906
vn -0.9780273 0 0.2078857
vn -0.9780273 0 0.2078857
vn -0.9780273 0 0.2078857
vn -0.9780273 0 -0.2078857
vn -0.9780273 0 -0.2078857
vn -0.9780273 0 0.2078857
vn -0.809082 0 -0.5878906
vn -0.9780273 0 -0.2078857
vn -0.9780273 0 -0.2078857
vn -0.809082 0 -0.5878906
vn -0.5 5.960464E-08 -0.8662109
vn -0.5 5.960464E-08 -0.8662109
vn -0.1045532 5.960464E-08 -0.9946289
vn -0.5 5.960464E-08 -0.8662109
vn -0.5 5.960464E-08 -0.8662109
vn -0.1045532 5.960464E-08 -0.9946289
vn 0.309082 5.960464E-08 -0.9511719
vn 0.309082 5.960464E-08 -0.9511719
vn 0.6689453 5.960464E-08 -0.7431641
vn 0.6689453 5.960464E-08 -0.7431641
vn 0.9135742 0 -0.4067383
vn 0.9135742 0 -0.4067383
vn -1 0 0
vn -0.9135742 0 0.4067383
vn -0.9135742 0 0.4067383
vn -1 0 0
vn -0.9135742 0 -0.4067383
vn -0.9135742 0 -0.4067383
vn -0.6689453 5.960464E-08 -0.7431641
vn -0.6689453 5.960464E-08 -0.7431641
vn -0.6689453 -5.960464E-08 0.7431641
vn -0.9135742 0 0.4067383
vn -0.9135742 0 0.4067383
vn -0.6689453 -5.960464E-08 0.7431641
vn -0.309082 -5.960464E-08 0.9511719
vn -0.309082 -5.960464E-08 0.9511719
vn 0.1045532 -5.960464E-08 0.9946289
vn 0.1045532 -5.960464E-08 0.9946289
vn 0.5 -5.960464E-08 0.8662109
vn 0.1045532 -5.960464E-08 0.9946289
vn 0.5 -5.960464E-08 0.8662109
vn 0.5 -5.960464E-08 0.8662109
vn 0.809082 0 0.5878906
vn 0.809082 0 0.5878906
vn 0.9780273 0 0.2078857
vn 0.9780273 0 0.2078857
vn 0.9780273 0 -0.2078857
vn 0.9780273 0 -0.2078857
vn 0.809082 0 -0.5878906
vn 0.9780273 0 -0.2078857
vn 0.809082 0 -0.5878906
vn 0.809082 0 -0.5878906
vn 0.5 5.960464E-08 -0.8662109
vn 0.5 5.960464E-08 -0.8662109
vn 0.1045532 5.960464E-08 -0.9946289
vn 0.1045532 5.960464E-08 -0.9946289
vn -0.309082 5.960464E-08 -0.9511719
vn -0.309082 5.960464E-08 -0.9511719
vn -0.6689453 5.960464E-08 -0.7431641
vn -0.6689453 5.960464E-08 -0.7431641
vn 1 0 0
vn 0.309082 5.960464E-08 -0.9511719
vn 0.309082 5.960464E-08 -0.9511719
vn 1 0 0
vn 0.309082 5.960464E-08 -0.9511719
vn -0.809082 0 -0.5878906
vn -0.809082 0 -0.5878906
vn 0.309082 5.960464E-08 -0.9511719
vn -0.809082 0 -0.5878906
vn -0.809082 0 0.5878906
vn -0.809082 0 0.5878906
vn -0.809082 0 -0.5878906
vn -0.809082 0 0.5878906
vn 0.309082 -5.960464E-08 0.9511719
vn 0.309082 -5.960464E-08 0.9511719
vn -0.809082 0 0.5878906
vn 0.309082 -5.960464E-08 0.9511719
vn 1 0 0
vn 1 0 0
vn 0.309082 -5.960464E-08 0.9511719
vn 1 0 8.34465E-07
vn 0.309082 5.960464E-08 -0.9511719
vn 0.309082 5.960464E-08 -0.9511719
vn 1 0 8.940697E-07
vn 0.309082 5.960464E-08 -0.9511719
vn -0.809082 0 -0.5878906
vn -0.809082 0 -0.5878906
vn 0.309082 5.960464E-08 -0.9511719
vn -0.809082 0 -0.5878906
vn -0.809082 0 0.5878906
vn -0.809082 0 0.5878906
vn -0.809082 0 -0.5878906
vn -0.809082 0 0.5878906
vn 0.309082 -5.960464E-08 0.9511719
vn 0.309082 -5.960464E-08 0.9511719
vn -0.809082 0 0.5878906
vn 0.309082 -5.960464E-08 0.9511719
vn 1 0 8.940697E-07
vn 1 0 8.34465E-07
vn 0.309082 -5.960464E-08 0.9511719
vn 0 -1 -5.960464E-08
vn 0 -1 -5.960464E-08
vn 0 -1 -5.960464E-08
vn 0 -1 -5.960464E-08
vn 0 -1 -5.960464E-08
vn -0.4287109 0.5146484 -0.7426758
vn -0.7426758 0.5146484 -0.4287109
vn -0.7836914 0.4260254 -0.4523926
vn -0.9047852 0.4260254 0
vn -0.8574219 0.5146484 0
vn -0.9912109 0.133667 0
vn -0.8583984 0.133667 -0.4956055
vn -0.9179688 -0.3969727 0
vn -0.7949219 -0.3969727 -0.4589844
vn -0.4956055 0.133667 -0.8583984
vn -0.5307617 -0.8476563 -5.960464E-08
vn -0.4589844 -0.3969727 -0.7949219
vn -0.4597168 -0.8476563 -0.2653809
vn -0.8574219 0.5146484 0
vn -0.7426758 0.5146484 0.4287109
vn -0.7836914 0.4260254 0.4523926
vn -0.9047852 0.4260254 0
vn -0.8583984 0.133667 0.4956055
vn -0.9912109 0.133667 0
vn -0.7949219 -0.3969727 0.4589844
vn -0.4589844 -0.3969727 0.7949219
vn 0 0.5146484 0.8574219
vn 0.4287109 0.5146484 0.7426758
vn 0.4523926 0.4260254 0.7836914
vn -2.980232E-07 0.4260254 0.9047852
vn -0.4287109 0.5146484 0.7426758
vn -0.4523926 0.4260254 0.7836914
vn -0.7426758 0.5146484 0.4287109
vn -0.7836914 0.4260254 0.4523926
vn -2.980232E-07 0.133667 0.9912109
vn -0.4956055 0.133667 0.8583984
vn -0.8583984 0.133667 0.4956055
vn -0.4589844 -0.3969727 0.7949219
vn 0 -0.3969727 0.9179688
vn 0.4589844 -0.3969727 0.7949219
vn 0.4287109 0.5146484 0.7426758
vn 0.7426758 0.5146484 0.4287109
vn 0.7836914 0.4260254 0.4523926
vn 0.4523926 0.4260254 0.7836914
vn 0.8583984 0.133667 0.4956055
vn 0.9912109 0.133667 5.960464E-07
vn 0.9047852 0.4260254 6.556511E-07
vn 0.9179688 -0.3969727 4.768372E-07
vn 0.7949219 -0.3969727 0.4589844
vn 0.4956055 0.133667 0.8583984
vn -2.980232E-07 0.4260254 0.9047852
vn 0.4589844 -0.3969727 0.7949219
vn -2.980232E-07 0.133667 0.9912109
vn 0.7426758 0.5146484 0.4287109
vn 0.9047852 0.4260254 6.556511E-07
vn 0.7836914 0.4260254 0.4523926
vn 0.8574219 0.5146484 5.364418E-07
vn 0.7836914 0.4260254 -0.4523926
vn 0.7426758 0.5146484 -0.4287109
vn 0.4523926 0.4260254 -0.7836914
vn 0.4287109 0.5146484 -0.7426758
vn 0.4956055 0.133667 -0.8583984
vn 0.8583984 0.133667 -0.4956055
vn 0.4589844 -0.3969727 -0.7949219
vn 0.9912109 0.133667 5.960464E-07
vn 0.7949219 -0.3969727 -0.4589844
vn 0.9179688 -0.3969727 4.768372E-07
vn -0.9912109 0.133667 0
vn -0.7949219 -0.3969727 0.4589844
vn -0.9179688 -0.3969727 0
vn -0.4597168 -0.8476563 0.2653809
vn -0.5307617 -0.8476563 -5.960464E-08
vn 0 -1 -5.960464E-08
vn -0.2653809 -0.8476563 0.4597168
vn -0.4589844 -0.3969727 0.7949219
vn 0 -0.8476563 0.5307617
vn 0.4956055 0.133667 -0.8583984
vn 0 -0.3969727 -0.9179688
vn 0.4589844 -0.3969727 -0.7949219
vn 0 0.133667 -0.9912109
vn -0.4589844 -0.3969727 -0.7949219
vn 0.4523926 0.4260254 -0.7836914
vn -0.4956055 0.133667 -0.8583984
vn 0 0.4260254 -0.9047852
vn 0.4287109 0.5146484 -0.7426758
vn 0 0.5146484 -0.8574219
vn -0.4523926 0.4260254 -0.7836914
vn -0.8583984 0.133667 -0.4956055
vn -0.4287109 0.5146484 -0.7426758
vn -0.7836914 0.4260254 -0.4523926
vn -0.4589844 -0.3969727 0.7949219
vn 0 -0.3969727 0.9179688
vn 0 -0.8476563 0.5307617
vn 0.2653809 -0.8476563 0.4597168
vn 0 -1 -5.960464E-08
vn 0.4597168 -0.8476563 0.2653809
vn 0.4589844 -0.3969727 0.7949219
vn 0.7949219 -0.3969727 0.4589844
vn 0.5307617 -0.8476563 -5.960464E-08
vn 0.9179688 -0.3969727 4.768372E-07
vn 0.4597168 -0.8476563 -0.2653809
vn 0.7949219 -0.3969727 -0.4589844
vn 0.2653809 -0.8476563 -0.4597168
vn 0.4589844 -0.3969727 -0.7949219
vn 0 -0.8476563 -0.5307617
vn 0 -0.3969727 -0.9179688
vn -0.2653809 -0.8476563 -0.4597168
vn -0.4589844 -0.3969727 -0.7949219
vn -0.4597168 -0.8476563 -0.2653809
vn -0.5307617 -0.8476563 -5.960464E-08
vn -0.4125977 -0.8920898 0.1837158
vn -0.5341797 -0.8457031 -5.960464E-08
vn -0.487793 -0.8457031 0.2171631
vn -0.4516602 -0.8920898 -5.960464E-08
vn -0.487793 -0.8457031 -0.2171631
vn -0.3022461 -0.8920898 0.3356934
vn -0.1308594 -0.9804688 0.1453857
vn -0.3571777 -0.8457031 0.3967285
vn -0.1395264 -0.8920898 0.4294434
vn -0.1650391 -0.8457031 0.5078125
vn -0.4125977 -0.8920898 -0.1837158
vn -0.3571777 -0.8457031 -0.3967285
vn -0.1787109 -0.9804688 0.07958984
vn -0.1787109 -0.9804688 -0.07958984
vn 0.09783936 -0.9804688 -0.1694336
vn 0.1582031 -0.9804688 0.1149902
vn -0.1956787 -0.9804688 -5.960464E-08
vn -0.3022461 -0.8920898 -0.3356934
vn -0.1650391 -0.8457031 -0.5078125
vn -0.1395264 -0.8920898 -0.4294434
vn 0.05581665 -0.8457031 -0.53125
vn -0.1308594 -0.9804688 -0.1453857
vn -0.06045532 -0.9804688 -0.1860352
vn 0.04721069 -0.8920898 -0.4492188
vn 0.2670898 -0.8457031 -0.4624023
vn 0.02044678 -0.9804688 -0.1945801
vn 0.2258301 -0.8920898 -0.3911133
vn 0.4318848 -0.8457031 -0.3139648
vn 0.3654785 -0.8920898 -0.2653809
vn 0.5224609 -0.8457031 -0.1110229
vn 0.4416504 -0.8920898 -0.09387207
vn 0.5224609 -0.8457031 0.1110229
vn 0.1582031 -0.9804688 -0.1149902
vn 0.1914063 -0.9804688 -0.04067993
vn 0.4416504 -0.8920898 0.09387207
vn 0.4318848 -0.8457031 0.3139648
vn 0.1914063 -0.9804688 0.04067993
vn 0.3654785 -0.8920898 0.2653809
vn 0.2670898 -0.8457031 0.4624023
vn 0.2258301 -0.8920898 0.3911133
vn 0.05581665 -0.8457031 0.53125
vn 0.04721069 -0.8920898 0.4492188
vn 0.09783936 -0.9804688 0.1694336
vn 0.02044678 -0.9804688 0.1945801
vn -0.06045532 -0.9804688 0.1860352

vt 0.08447266 0.2109375
vt 0.0557251 0.2076416
vt 0.07904053 0.2242432
vt 0.05163574 0.2155762
vt 0.07183838 0.2358398
vt 0.04678345 0.2219238
vt 0.06329346 0.2451172
vt 0.04153442 0.2264404
vt 0.05432129 0.2514648
vt 0.0557251 0.2076416
vt 0.08447266 0.2109375
vt 0.0586853 0.1984863
vt 0.08770752 0.1967773
vt 0.06027222 0.1885986
vt 0.08868408 0.1820068
vt 0.06036377 0.1784668
vt 0.08734131 0.1672363
vt 0.059021 0.1685791
vt 0.05432129 0.2514648
vt 0.03607178 0.2293701
vt 0.04623413 0.2546387
vt 0.04153442 0.2264404
vt 0.03283691 0.1356201
vt 0.03887939 0.1089478
vt 0.02705383 0.1333008
vt 0.04568481 0.1104126
vt 0.03851318 0.1375732
vt 0.05383301 0.1137695
vt 0.04370117 0.140625
vt 0.05383301 0.1137695
vt 0.03851318 0.1375732
vt 0.06268311 0.1199341
vt 0.04846191 0.1451416
vt 0.07116699 0.1289063
vt 0.05276489 0.1514893
vt 0.07836914 0.1401367
vt 0.05636597 0.1594238
vt 0.07836914 0.1401367
vt 0.05276489 0.1514893
vt 0.0838623 0.1531982
vt 0.059021 0.1685791
vt 0.08734131 0.1672363
vt 0.07336426 0.3366699
vt 0.03726196 0.3054199
vt 0.03726196 0.3439941
vt 0.06268311 0.3015137
vt 0.04623413 0.2546387
vt 0.1052856 0.3215332
vt 0.05432129 0.2514648
vt 0.08514404 0.2910156
vt 0.1313477 0.2998047
vt 0.06329346 0.2451172
vt 0.1039429 0.2751465
vt 0.151001 0.2734375
vt 0.07183838 0.2358398
vt 0.1186523 0.2556152
vt 0.1646729 0.2443848
vt 0.07904053 0.2242432
vt 0.1292725 0.2340088
vt 0.1723633 0.2142334
vt 0.08447266 0.2109375
vt 0.1359863 0.2109375
vt 0.175293 0.1837158
vt 0.08770752 0.1967773
vt 0.1385498 0.1873779
vt 0.1715088 0.1534424
vt 0.08868408 0.1820068
vt 0.1369629 0.1634521
vt 0.1650391 0.1239014
vt 0.08734131 0.1672363
vt 0.1318359 0.1402588
vt 0.151001 0.09649658
vt 0.0838623 0.1531982
vt 0.1223755 0.1179199
vt 0.1339111 0.07043457
vt 0.07836914 0.1401367
vt 0.1092529 0.09771729
vt 0.1096191 0.04910278
vt 0.07116699 0.1289063
vt 0.09179688 0.08062744
vt 0.08032227 0.0329895
vt 0.06268311 0.1199341
vt 0.07067871 0.06811523
vt 0.04595947 0.02609253
vt 0.05383301 0.1137695
vt 0.04656982 0.06228638
vt 0.009246826 0.03134155
vt 0.04568481 0.1104126
vt 0.02163696 0.06555176
vt 0.03887939 0.1089478
vt 0.4089355 0.03857422
vt 0.3986816 0.03262329
vt 0.4033203 0.03668213
vt 0.4204102 0.03491211
vt 0.4150391 0.03793335
vt 0.4238281 0.01809692
vt 0.4250488 0.02404785
vt 0.4238281 0.02998352
vt 0.4033203 0.01138306
vt 0.3962402 0.02099609
vt 0.3962402 0.02706909
vt 0.3986816 0.01544952
vt 0.4150391 0.01013947
vt 0.4089355 0.009506226
vt 0.4204102 0.01317596
vt 0.1845703 0.177124
vt 0.1784668 0.2119141
vt 0.1820068 0.2099609
vt 0.1813965 0.1800537
vt 0.1782227 0.1453857
vt 0.1757813 0.1488037
vt 0.1722412 0.1138916
vt 0.1700439 0.117981
vt 0.1542969 0.08685303
vt 0.1533203 0.09088135
vt 0.1374512 0.05914307
vt 0.1365967 0.06347656
vt 0.1105957 0.03890991
vt 0.1365967 0.06347656
vt 0.1374512 0.05914307
vt 0.1105347 0.04278564
vt 0.0802002 0.02268982
vt 0.08044434 0.02641296
vt 0.04483032 0.01667786
vt 0.04525757 0.02008057
vt 0.007995605 0.02073669
vt 0.007919312 0.02468872
vt 0.07745361 0.34375
vt 0.03973389 0.3503418
vt 0.04156494 0.3535156
vt 0.07598877 0.3410645
vt 0.1112671 0.3276367
vt 0.1091919 0.3254395
vt 0.1392822 0.3037109
vt 0.1364746 0.3022461
vt 0.1604004 0.2746582
vt 0.1569824 0.2741699
vt 0.1745605 0.2429199
vt 0.1708984 0.2437744
vt 0.1820068 0.2099609
vt 0.1784668 0.2119141
vt 0.1813965 0.1800537
vt 0.1723633 0.2142334
vt 0.1784668 0.2119141
vt 0.175293 0.1837158
vt 0.1757813 0.1488037
vt 0.1715088 0.1534424
vt 0.1700439 0.117981
vt 0.1650391 0.1239014
vt 0.1533203 0.09088135
vt 0.151001 0.09649658
vt 0.1365967 0.06347656
vt 0.151001 0.09649658
vt 0.1533203 0.09088135
vt 0.1339111 0.07043457
vt 0.1105347 0.04278564
vt 0.1096191 0.04910278
vt 0.08044434 0.02641296
vt 0.08032227 0.0329895
vt 0.04525757 0.02008057
vt 0.04595947 0.02609253
vt 0.04595947 0.02609253
vt 0.007919312 0.02468872
vt 0.009246826 0.03134155
vt 0.04525757 0.02008057
vt 0.07598877 0.3410645
vt 0.03726196 0.3439941
vt 0.03973389 0.3503418
vt 0.07336426 0.3366699
vt 0.1091919 0.3254395
vt 0.1052856 0.3215332
vt 0.1364746 0.3022461
vt 0.1052856 0.3215332
vt 0.1091919 0.3254395
vt 0.1313477 0.2998047
vt 0.1569824 0.2741699
vt 0.151001 0.2734375
vt 0.1708984 0.2437744
vt 0.1646729 0.2443848
vt 0.1784668 0.2119141
vt 0.1723633 0.2142334
vt 0.1939697 0.1126709
vt 0.1975098 0.1514893
vt 0.2021484 0.151001
vt 0.1893311 0.1113892
vt 0.2019043 0.07458496
vt 0.1982422 0.0715332
vt 0.2244873 0.04284668
vt 0.2224121 0.0385437
vt 0.2215576 0.1846924
vt 0.2021484 0.151001
vt 0.1975098 0.1514893
vt 0.2255859 0.182251
vt 0.2570801 0.2050781
vt 0.2597656 0.2011719
vt 0.2978516 0.2094727
vt 0.2988281 0.204834
vt 0.3369141 0.1968994
vt 0.2988281 0.204834
vt 0.3369141 0.1968994
vt 0.3356934 0.1923828
vt 0.3674316 0.1696777
vt 0.364502 0.1658936
vt 0.3840332 0.1323242
vt 0.3798828 0.1300049
vt 0.3845215 0.09143066
vt 0.3798828 0.09106445
vt 0.3681641 0.05389404
vt 0.3798828 0.09106445
vt 0.3681641 0.05389404
vt 0.3637695 0.05541992
vt 0.3376465 0.02638245
vt 0.3342285 0.02958679
vt 0.298584 0.01384735
vt 0.296875 0.01823425
vt 0.2578125 0.01818848
vt 0.2580566 0.02294922
vt 0.2224121 0.0385437
vt 0.2244873 0.04284668
vt 0.1977539 0.2247314
vt 0.1988525 0.4853516
vt 0.1988525 0.2247314
vt 0.1977539 0.4853516
vt 0.1988525 0.2247314
vt 0.1999512 0.4853516
vt 0.1999512 0.2247314
vt 0.1988525 0.4853516
vt 0.1999512 0.2247314
vt 0.2009277 0.4853516
vt 0.2009277 0.2247314
vt 0.1999512 0.4853516
vt 0.1956787 0.2247314
vt 0.1966553 0.4855957
vt 0.1967773 0.2247314
vt 0.1956787 0.4855957
vt 0.1967773 0.2247314
vt 0.1977539 0.4853516
vt 0.1977539 0.2247314
vt 0.1966553 0.4855957
vt 0.1668701 0.02452087
vt 0.1645508 0.01693726
vt 0.1617432 0.02069092
vt 0.1696777 0.02078247
vt 0.1617432 0.02069092
vt 0.1594238 0.01309967
vt 0.1566162 0.0168457
vt 0.1645508 0.01693726
vt 0.1566162 0.0168457
vt 0.1542969 0.009262085
vt 0.1514893 0.01300049
vt 0.1594238 0.01309967
vt 0.1896973 0.01107788
vt 0.1850586 0.01745605
vt 0.1896973 0.01745605
vt 0.1850586 0.01107788
vt 0.171875 0.02836609
vt 0.1696777 0.02078247
vt 0.1668701 0.02452087
vt 0.1746826 0.02462769
vt 0.1896973 0.01107788
vt 0.1994629 0.01428223
vt 0.1958008 0.009117126
vt 0.1896973 0.01745605
vt 0.1958008 0.0194397
vt 0.02496338 0.3701172
vt 0.0186615 0.3720703
vt 0.01977539 0.3811035
vt 0.01173401 0.3815918
vt 0.01298523 0.3723145
vt 0.01154327 0.3942871
vt 0.02081299 0.392334
vt 0.01625061 0.4069824
vt 0.02386475 0.402832
vt 0.02896118 0.388916
vt 0.02919006 0.4157715
vt 0.03005981 0.3986816
vt 0.03207397 0.4116211
vt 0.1055298 0.4072266
vt 0.1015625 0.4008789
vt 0.09436035 0.4084473
vt 0.09832764 0.4165039
vt 0.08374023 0.4162598
vt 0.08569336 0.4257813
vt 0.07202148 0.4191895
vt 0.07049561 0.4116211
vt 0.09082031 0.3842773
vt 0.08294678 0.376709
vt 0.07940674 0.3859863
vt 0.08557129 0.3928223
vt 0.09692383 0.3928223
vt 0.0904541 0.4003906
vt 0.1015625 0.4008789
vt 0.09436035 0.4084473
vt 0.0770874 0.4008789
vt 0.08081055 0.407959
vt 0.08374023 0.4162598
vt 0.07049561 0.4116211
vt 0.06762695 0.4055176
vt 0.0637207 0.4003906
vt 0.08294678 0.376709
vt 0.0736084 0.3708496
vt 0.07183838 0.3803711
vt 0.07940674 0.3859863
vt 0.06646729 0.3898926
vt 0.05975342 0.3864746
vt 0.06329346 0.3762207
vt 0.05374146 0.3942871
vt 0.05905151 0.3967285
vt 0.07226563 0.3947754
vt 0.08557129 0.3928223
vt 0.0637207 0.4003906
vt 0.0770874 0.4008789
vt 0.0736084 0.3708496
vt 0.06329346 0.3762207
vt 0.07183838 0.3803711
vt 0.06323242 0.3666992
vt 0.05413818 0.3742676
vt 0.05245972 0.3649902
vt 0.04489136 0.3742676
vt 0.04205322 0.3654785
vt 0.04464722 0.3845215
vt 0.05239868 0.3847656
vt 0.04202271 0.3937988
vt 0.05975342 0.3864746
vt 0.04797363 0.3933105
vt 0.05374146 0.3942871
vt 0.08569336 0.4257813
vt 0.07202148 0.4191895
vt 0.07092285 0.4279785
vt 0.05947876 0.4187012
vt 0.05761719 0.423584
vt 0.04592896 0.4145508
vt 0.05905151 0.4140625
vt 0.07049561 0.4116211
vt 0.05731201 0.4099121
vt 0.04464722 0.3845215
vt 0.03601074 0.3955078
vt 0.04202271 0.3937988
vt 0.0368042 0.3862305
vt 0.03005981 0.3986816
vt 0.04489136 0.3742676
vt 0.02896118 0.388916
vt 0.03598022 0.3757324
vt 0.04205322 0.3654785
vt 0.03271484 0.3674316
vt 0.02770996 0.378418
vt 0.02081299 0.392334
vt 0.02496338 0.3701172
vt 0.01977539 0.3811035
vt 0.07049561 0.4116211
vt 0.06762695 0.4055176
vt 0.05731201 0.4099121
vt 0.0546875 0.4067383
vt 0.04592896 0.4145508
vt 0.05145264 0.4042969
vt 0.0637207 0.4003906
vt 0.05905151 0.3967285
vt 0.04788208 0.4033203
vt 0.05374146 0.3942871
vt 0.04425049 0.4030762
vt 0.04797363 0.3933105
vt 0.04074097 0.4040527
vt 0.04202271 0.3937988
vt 0.03759766 0.4060059
vt 0.03601074 0.3955078
vt 0.03479004 0.4084473
vt 0.03005981 0.3986816
vt 0.03207397 0.4116211
vt 0.02919006 0.4157715
vt 0.2327881 0.1369629
vt 0.1939697 0.1126709
vt 0.2021484 0.151001
vt 0.2279053 0.1126709
vt 0.2019043 0.07458496
vt 0.2476807 0.1567383
vt 0.2788086 0.1236572
vt 0.2255859 0.182251
vt 0.2697754 0.1688232
vt 0.2597656 0.2011719
vt 0.2329102 0.0880127
vt 0.2244873 0.04284668
vt 0.2753906 0.1192017
vt 0.2741699 0.1071777
vt 0.2941895 0.09759521
vt 0.300293 0.1190796
vt 0.2741699 0.1130371
vt 0.2475586 0.06768799
vt 0.2580566 0.02294922
vt 0.269043 0.05502319
vt 0.296875 0.01823425
vt 0.277832 0.102478
vt 0.2827148 0.09881592
vt 0.2941895 0.05194092
vt 0.3342285 0.02958679
vt 0.2883301 0.09741211
vt 0.3181152 0.0592041
vt 0.3637695 0.05541992
vt 0.3366699 0.07574463
vt 0.3798828 0.09106445
vt 0.3464355 0.09844971
vt 0.3798828 0.1300049
vt 0.2983398 0.1017456
vt 0.3015137 0.1071777
vt 0.3466797 0.1234741
vt 0.364502 0.1658936
vt 0.3017578 0.1132813
vt 0.3369141 0.1463623
vt 0.3356934 0.1923828
vt 0.3183594 0.163208
vt 0.2988281 0.204834
vt 0.2946777 0.1712646
vt 0.2956543 0.1229858
vt 0.2902832 0.1253662
vt 0.2844238 0.1253662

g Lamp_2088_9
usemtl Lamp_2088_9
usemap Lamp_2088_9
f 1/1/1 3/3/3 2/2/2
f 4/4/4 2/2/2 3/3/3
f 3/3/3 5/5/5 4/4/4
f 6/6/6 4/4/4 5/5/5
f 5/5/5 7/7/7 6/6/6
f 8/8/8 6/6/6 7/7/7
f 7/7/7 9/9/9 8/8/8
f 10/10/10 12/12/12 11/11/11
f 13/13/13 11/11/11 12/12/12
f 12/12/12 14/14/14 13/13/13
f 15/15/15 13/13/13 14/14/14
f 14/14/14 16/16/16 15/15/15
f 17/17/17 15/15/15 16/16/16
f 16/16/16 18/18/18 17/17/17
f 19/19/19 21/21/21 20/20/20
f 20/20/20 22/22/22 19/19/19
f 23/23/23 25/25/25 24/24/24
f 24/24/24 26/26/26 23/23/23
f 27/27/27 23/23/23 26/26/26
f 26/26/26 28/28/28 27/27/27
f 29/29/29 31/31/31 30/30/30
f 30/30/30 32/32/32 29/29/29
f 33/33/33 29/29/29 32/32/32
f 32/32/32 34/34/34 33/33/33
f 35/35/35 33/33/33 34/34/34
f 34/34/34 36/36/36 35/35/35
f 37/37/37 39/39/39 38/38/38
f 38/38/38 40/40/40 37/37/37
f 41/41/41 37/37/37 40/40/40
f 40/40/40 42/42/42 41/41/41
f 43/43/43 45/45/45 44/44/44
f 44/44/44 46/46/46 43/43/43
f 46/46/46 44/44/44 47/47/47
f 48/48/48 43/43/43 46/46/46
f 47/47/47 49/49/49 46/46/46
f 46/46/46 50/50/50 48/48/48
f 50/50/50 46/46/46 49/49/49
f 51/51/51 48/48/48 50/50/50
f 49/49/49 52/52/52 50/50/50
f 50/50/50 53/53/53 51/51/51
f 53/53/53 50/50/50 52/52/52
f 54/54/54 51/51/51 53/53/53
f 52/52/52 55/55/55 53/53/53
f 53/53/53 56/56/56 54/54/54
f 56/56/56 53/53/53 55/55/55
f 57/57/57 54/54/54 56/56/56
f 55/55/55 58/58/58 56/56/56
f 56/56/56 59/59/59 57/57/57
f 59/59/59 56/56/56 58/58/58
f 60/60/60 57/57/57 59/59/59
f 58/58/58 61/61/61 59/59/59
f 59/59/59 62/62/62 60/60/60
f 62/62/62 59/59/59 61/61/61
f 63/63/63 60/60/60 62/62/62
f 61/61/61 64/64/64 62/62/62
f 62/62/62 65/65/65 63/63/63
f 65/65/65 62/62/62 64/64/64
f 66/66/66 63/63/63 65/65/65
f 64/64/64 67/67/67 65/65/65
f 65/65/65 68/68/68 66/66/66
f 68/68/68 65/65/65 67/67/67
f 69/69/69 66/66/66 68/68/68
f 67/67/67 70/70/70 68/68/68
f 68/68/68 71/71/71 69/69/69
f 71/71/71 68/68/68 70/70/70
f 72/72/72 69/69/69 71/71/71
f 70/70/70 73/73/73 71/71/71
f 71/71/71 74/74/74 72/72/72
f 74/74/74 71/71/71 73/73/73
f 75/75/75 72/72/72 74/74/74
f 73/73/73 76/76/76 74/74/74
f 74/74/74 77/77/77 75/75/75
f 77/77/77 74/74/74 76/76/76
f 78/78/78 75/75/75 77/77/77
f 76/76/76 79/79/79 77/77/77
f 77/77/77 80/80/80 78/78/78
f 80/80/80 77/77/77 79/79/79
f 81/81/81 78/78/78 80/80/80
f 79/79/79 82/82/82 80/80/80
f 80/80/80 83/83/83 81/81/81
f 83/83/83 80/80/80 82/82/82
f 84/84/84 81/81/81 83/83/83
f 82/82/82 85/85/85 83/83/83
f 83/83/83 86/86/86 84/84/84
f 86/86/86 83/83/83 85/85/85
f 87/87/87 84/84/84 86/86/86
f 85/85/85 88/88/88 86/86/86
f 86/86/86 89/89/89 87/87/87
f 89/89/89 86/86/86 88/88/88
f 88/88/88 90/90/90 89/89/89
f 91/91/91 93/93/93 92/92/92
f 91/91/91 92/92/92 94/94/94
f 91/91/91 94/94/94 95/95/95
f 92/92/92 96/96/96 94/94/94
f 96/96/96 97/97/97 94/94/94
f 97/97/97 98/98/98 94/94/94
f 92/92/92 99/99/99 96/96/96
f 92/92/92 100/100/100 99/99/99
f 92/92/92 101/101/101 100/100/100
f 100/100/100 102/102/102 99/99/99
f 99/99/99 103/103/103 96/96/96
f 99/99/99 104/104/104 103/103/103
f 103/103/103 105/105/105 96/96/96
f 106/106/106 108/108/108 107/107/107
f 107/107/107 109/109/109 106/106/106
f 110/110/110 106/106/106 109/109/109
f 109/109/109 111/111/111 110/110/110
f 112/112/112 110/110/110 111/111/111
f 111/111/111 113/113/113 112/112/112
f 114/114/114 112/112/112 113/113/113
f 113/113/113 115/115/115 114/114/114
f 116/116/116 114/114/114 115/115/115
f 115/115/115 117/117/117 116/116/116
f 118/118/118 120/120/120 119/119/119
f 119/119/119 121/121/121 118/118/118
f 122/122/122 118/118/118 121/121/121
f 121/121/121 123/123/123 122/122/122
f 124/124/124 122/122/122 123/123/123
f 123/123/123 125/125/125 124/124/124
f 126/126/126 124/124/124 125/125/125
f 125/125/125 127/127/127 126/126/126
f 128/128/128 130/130/130 129/129/129
f 129/129/129 131/131/131 128/128/128
f 132/132/132 128/128/128 131/131/131
f 131/131/131 133/133/133 132/132/132
f 134/134/134 132/132/132 133/133/133
f 133/133/133 135/135/135 134/134/134
f 136/136/136 134/134/134 135/135/135
f 135/135/135 137/137/137 136/136/136
f 138/138/138 136/136/136 137/137/137
f 137/137/137 139/139/139 138/138/138
f 140/140/140 138/138/138 139/139/139
f 139/139/139 141/141/141 140/140/140
f 142/142/142 144/144/144 143/143/143
f 143/143/143 145/145/145 142/142/142
f 146/146/146 142/142/142 145/145/145
f 145/145/145 147/147/147 146/146/146
f 148/148/148 146/146/146 147/147/147
f 147/147/147 149/149/149 148/148/148
f 150/150/150 148/148/148 149/149/149
f 149/149/149 151/151/151 150/150/150
f 152/152/152 154/154/154 153/153/153
f 153/153/153 155/155/155 152/152/152
f 156/156/156 152/152/152 155/155/155
f 155/155/155 157/157/157 156/156/156
f 158/158/158 156/156/156 157/157/157
f 157/157/157 159/159/159 158/158/158
f 160/160/160 158/158/158 159/159/159
f 159/159/159 161/161/161 160/160/160
f 162/162/162 164/164/164 163/163/163
f 163/163/163 165/165/165 162/162/162
f 166/166/166 168/168/168 167/167/167
f 167/167/167 169/169/169 166/166/166
f 170/170/170 166/166/166 169/169/169
f 169/169/169 171/171/171 170/170/170
f 172/172/172 174/174/174 173/173/173
f 173/173/173 175/175/175 172/172/172
f 176/176/176 172/172/172 175/175/175
f 175/175/175 177/177/177 176/176/176
f 178/178/178 176/176/176 177/177/177
f 177/177/177 179/179/179 178/178/178
f 180/180/180 178/178/178 179/179/179
f 179/179/179 181/181/181 180/180/180
f 182/182/182 184/184/184 183/183/183
f 183/183/183 185/185/185 182/182/182
f 186/186/186 182/182/182 185/185/185
f 185/185/185 187/187/187 186/186/186
f 188/188/188 186/186/186 187/187/187
f 187/187/187 189/189/189 188/188/188
f 190/190/190 192/192/192 191/191/191
f 191/191/191 193/193/193 190/190/190
f 194/194/194 190/190/190 193/193/193
f 193/193/193 195/195/195 194/194/194
f 196/196/196 194/194/194 195/195/195
f 195/195/195 197/197/197 196/196/196
f 198/198/198 196/196/196 197/197/197
f 199/199/199 201/201/201 200/200/200
f 202/202/202 200/200/200 201/201/201
f 201/201/201 203/203/203 202/202/202
f 204/204/204 202/202/202 203/203/203
f 203/203/203 205/205/205 204/204/204
f 206/206/206 204/204/204 205/205/205
f 205/205/205 207/207/207 206/206/206
f 208/208/208 206/206/206 207/207/207
f 209/209/209 211/211/211 210/210/210
f 212/212/212 210/210/210 211/211/211
f 211/211/211 213/213/213 212/212/212
f 214/214/214 212/212/212 213/213/213
f 213/213/213 215/215/215 214/214/214
f 216/216/216 214/214/214 215/215/215
f 215/215/215 217/217/217 216/216/216
f 218/218/218 216/216/216 217/217/217
f 217/217/217 219/219/219 218/218/218
f 220/220/220 222/222/222 221/221/221
f 221/221/221 223/223/223 220/220/220
f 224/224/224 226/226/226 225/225/225
f 225/225/225 227/227/227 224/224/224
f 228/228/228 230/230/230 229/229/229
f 229/229/229 231/231/231 228/228/228
f 232/232/232 234/234/234 233/233/233
f 233/233/233 235/235/235 232/232/232
f 236/236/236 238/238/238 237/237/237
f 237/237/237 239/239/239 236/236/236
f 240/240/240 242/242/242 241/241/241
f 241/241/241 243/243/243 240/240/240
f 244/244/244 246/246/246 245/245/245
f 245/245/245 247/247/247 244/244/244
f 248/248/248 250/250/250 249/249/249
f 249/249/249 251/251/251 248/248/248
f 252/252/252 254/254/254 253/253/253
f 253/253/253 255/255/255 252/252/252
f 256/256/256 258/258/258 257/257/257
f 257/257/257 259/259/259 256/256/256
f 260/260/260 262/262/262 261/261/261
f 263/263/263 260/260/260 261/261/261
f 264/264/264 263/263/263 261/261/261
f 265/265/265 267/267/267 266/266/266
f 266/266/266 267/267/267 268/268/268
f 266/266/266 268/268/268 269/269/269
f 267/267/267 270/270/270 268/268/268
f 267/267/267 271/271/271 270/270/270
f 271/271/271 272/272/272 270/270/270
f 271/271/271 273/273/273 272/272/272
f 274/274/274 273/273/273 271/271/271
f 273/273/273 275/275/275 272/272/272
f 274/274/274 276/276/276 273/273/273
f 273/273/273 277/277/277 275/275/275
f 276/276/276 277/277/277 273/273/273
f 278/278/278 280/280/280 279/279/279
f 278/278/278 281/281/281 280/280/280
f 281/281/281 282/282/282 280/280/280
f 281/281/281 283/283/283 282/282/282
f 283/283/283 284/284/284 282/282/282
f 282/282/282 284/284/284 285/285/285
f 286/286/286 288/288/288 287/287/287
f 286/286/286 289/289/289 288/288/288
f 290/290/290 289/289/289 286/286/286
f 290/290/290 291/291/291 289/289/289
f 292/292/292 291/291/291 290/290/290
f 292/292/292 293/293/293 291/291/291
f 291/291/291 294/294/294 289/289/289
f 293/293/293 295/295/295 291/291/291
f 291/291/291 295/295/295 294/294/294
f 293/293/293 296/296/296 295/295/295
f 296/296/296 297/297/297 295/295/295
f 295/295/295 297/297/297 298/298/298
f 295/295/295 298/298/298 294/294/294
f 294/294/294 298/298/298 299/299/299
f 300/300/300 302/302/302 301/301/301
f 300/300/300 303/303/303 302/302/302
f 303/303/303 304/304/304 302/302/302
f 302/302/302 304/304/304 305/305/305
f 302/302/302 305/305/305 306/306/306
f 304/304/304 307/307/307 305/305/305
f 304/304/304 308/308/308 307/307/307
f 303/303/303 309/309/309 304/304/304
f 309/309/309 308/308/308 304/304/304
f 310/310/310 309/309/309 303/303/303
f 309/309/309 311/311/311 308/308/308
f 310/310/310 312/312/312 309/309/309
f 312/312/312 311/311/311 309/309/309
f 313/313/313 315/315/315 314/314/314
f 313/313/313 314/314/314 316/316/316
f 316/316/316 314/314/314 317/317/317
f 316/316/316 317/317/317 318/318/318
f 318/318/318 317/317/317 319/319/319
f 318/318/318 319/319/319 320/320/320
f 317/317/317 321/321/321 319/319/319
f 314/314/314 322/322/322 317/317/317
f 317/317/317 322/322/322 321/321/321
f 322/322/322 323/323/323 321/321/321
f 314/314/314 324/324/324 322/322/322
f 322/322/322 325/325/325 323/323/323
f 324/324/324 325/325/325 322/322/322
f 324/324/324 326/326/326 325/325/325
f 327/327/327 329/329/329 328/328/328
f 329/329/329 330/330/330 328/328/328
f 329/329/329 331/331/331 330/330/330
f 332/332/332 330/330/330 331/331/331
f 328/328/328 330/330/330 333/333/333
f 332/332/332 333/333/333 330/330/330
f 328/328/328 333/333/333 334/334/334
f 332/332/332 335/335/335 333/333/333
f 334/334/334 333/333/333 335/335/335
f 336/336/336 338/338/338 337/337/337
f 336/336/336 337/337/337 339/339/339
f 339/339/339 337/337/337 340/340/340
f 341/341/341 336/336/336 339/339/339
f 339/339/339 340/340/340 342/342/342
f 341/341/341 339/339/339 343/343/343
f 343/343/343 339/339/339 342/342/342
f 344/344/344 341/341/341 343/343/343
f 344/344/344 343/343/343 345/345/345
f 343/343/343 342/342/342 346/346/346
f 345/345/345 343/343/343 346/346/346
f 346/346/346 342/342/342 347/347/347
f 345/345/345 346/346/346 348/348/348
f 346/346/346 347/347/347 349/349/349
f 348/348/348 346/346/346 349/349/349
f 350/350/350 352/352/352 351/351/351
f 351/351/351 352/352/352 353/353/353
f 354/354/354 353/353/353 352/352/352
f 354/354/354 355/355/355 353/353/353
f 351/351/351 353/353/353 356/356/356
f 356/356/356 353/353/353 355/355/355
f 356/356/356 355/355/355 357/357/357
f 357/357/357 355/355/355 358/358/358
f 354/354/354 358/358/358 355/355/355
f 357/357/357 358/358/358 359/359/359
f 359/359/359 358/358/358 360/360/360
f 354/354/354 360/360/360 358/358/358
f 359/359/359 360/360/360 361/361/361
f 361/361/361 360/360/360 362/362/362
f 354/354/354 362/362/362 360/360/360
f 361/361/361 362/362/362 363/363/363
f 363/363/363 362/362/362 364/364/364
f 354/354/354 364/364/364 362/362/362
f 363/363/363 364/364/364 365/365/365
f 365/365/365 364/364/364 366/366/366
f 354/354/354 366/366/366 364/364/364
f 365/365/365 366/366/366 367/367/367
f 367/367/367 366/366/366 368/368/368
f 354/354/354 368/368/368 366/366/366
f 354/354/354 369/369/369 368/368/368
f 370/370/370 372/372/372 371/371/371
f 371/371/371 373/373/373 370/370/370
f 373/373/373 371/371/371 374/374/374
f 372/372/372 370/370/370 375/375/375
f 376/376/376 375/375/375 370/370/370
f 375/375/375 377/377/377 372/372/372
f 377/377/377 375/375/375 378/378/378
f 378/378/378 379/379/379 377/377/377
f 374/374/374 380/380/380 373/373/373
f 380/380/380 374/374/374 381/381/381
f 382/382/382 370/370/370 373/373/373
f 370/370/370 382/382/382 376/376/376
f 376/376/376 382/382/382 383/383/383
f 376/376/376 383/383/383 384/384/384
f 385/385/385 376/376/376 384/384/384
f 373/373/373 386/386/386 382/382/382
f 386/386/386 373/373/373 380/380/380
f 382/382/382 386/386/386 383/383/383
f 380/380/380 383/383/383 386/386/386
f 381/381/381 387/387/387 380/380/380
f 383/383/383 380/380/380 387/387/387
f 387/387/387 381/381/381 388/388/388
f 388/388/388 389/389/389 387/387/387
f 389/389/389 388/388/388 390/390/390
f 387/387/387 391/391/391 383/383/383
f 391/391/391 387/387/387 389/389/389
f 383/383/383 391/391/391 392/392/392
f 389/389/389 392/392/392 391/391/391
f 383/383/383 392/392/392 384/384/384
f 390/390/390 393/393/393 389/389/389
f 392/392/392 389/389/389 393/393/393
f 393/393/393 390/390/390 394/394/394
f 393/393/393 395/395/395 392/392/392
f 392/392/392 395/395/395 384/384/384
f 394/394/394 396/396/396 393/393/393
f 395/395/395 393/393/393 396/396/396
f 396/396/396 384/384/384 395/395/395
f 396/396/396 394/394/394 397/397/397
f 397/397/397 398/398/398 396/396/396
f 384/384/384 396/396/396 398/398/398
f 398/398/398 397/397/397 399/399/399
f 399/399/399 400/400/400 398/398/398
f 400/400/400 399/399/399 401/401/401
f 398/398/398 402/402/402 384/384/384
f 402/402/402 398/398/398 400/400/400
f 403/403/403 384/384/384 402/402/402
f 400/400/400 403/403/403 402/402/402
f 403/403/403 385/385/385 384/384/384
f 401/401/401 404/404/404 400/400/400
f 403/403/403 400/400/400 404/404/404
f 404/404/404 401/401/401 405/405/405
f 404/404/404 406/406/406 403/403/403
f 403/403/403 406/406/406 385/385/385
f 405/405/405 407/407/407 404/404/404
f 406/406/406 404/404/404 407/407/407
f 407/407/407 385/385/385 406/406/406
f 407/407/407 405/405/405 408/408/408
f 408/408/408 409/409/409 407/407/407
f 385/385/385 407/407/407 409/409/409
f 409/409/409 408/408/408 410/410/410
f 410/410/410 411/411/411 409/409/409
f 411/411/411 410/410/410 379/379/379
f 379/379/379 378/378/378 411/411/411
f 409/409/409 412/412/412 385/385/385
f 412/412/412 409/409/409 411/411/411
f 385/385/385 412/412/412 413/413/413
f 411/411/411 413/413/413 412/412/412
f 413/413/413 411/411/411 378/378/378
f 385/385/385 413/413/413 376/376/376
f 378/378/378 414/414/414 413/413/413
f 413/413/413 414/414/414 376/376/376
f 414/414/414 378/378/378 375/375/375
f 375/375/375 376/376/376 414/414/414
