#picture03_1962_47.obj

v 0.7278948 0.4829865 -0.01768597
v -0.7278929 -0.4829865 -0.01768581
v -0.7278929 0.4829865 -0.01768597
v 0.7278948 -0.4829865 -0.01768581
v 0.7878942 -0.5429859 0.01122007
v -0.7878923 -0.5429859 -0.0287799
v -0.7878923 -0.5429859 0.01122007
v 0.7878942 -0.5429859 -0.0287799
v 0.7878942 0.5429859 0.01121989
v 0.7878942 -0.5429859 -0.0287799
v 0.7878942 -0.5429859 0.01122007
v 0.7878942 0.5429859 -0.02878007
v -0.7878923 0.5429859 0.01121989
v 0.7878942 0.5429859 -0.02878007
v 0.7878942 0.5429859 0.01121989
v -0.7878923 0.5429859 -0.02878007
v -0.7878923 -0.5429859 0.01122007
v -0.7878923 0.5429859 -0.02878007
v -0.7878923 0.5429859 0.01121989
v -0.7878923 -0.5429859 -0.0287799
v -0.7578936 -0.5129862 0.02878007
v 0.7878942 -0.5429859 0.01122007
v -0.7878923 -0.5429859 0.01122007
v 0.7578955 -0.5129862 0.02878007
v 0.7578955 -0.5129862 0.02878007
v 0.7878942 0.5429859 0.01121989
v 0.7878942 -0.5429859 0.01122007
v 0.7578955 0.5129862 0.0287799
v 0.7578955 0.5129862 0.0287799
v -0.7878923 0.5429859 0.01121989
v 0.7878942 0.5429859 0.01121989
v -0.7578936 0.5129862 0.0287799
v -0.7578936 0.5129862 0.0287799
v -0.7878923 -0.5429859 0.01122007
v -0.7878923 0.5429859 0.01121989
v -0.7578936 -0.5129862 0.02878007
v 0.7278948 -0.4829865 -0.01768581
v -0.7278929 -0.4829865 0.01122006
v -0.7278929 -0.4829865 -0.01768581
v 0.7278948 -0.4829865 0.01122006
v 0.7278948 0.4829865 -0.01768597
v 0.7278948 -0.4829865 0.01122006
v 0.7278948 -0.4829865 -0.01768581
v 0.7278948 0.4829865 0.0112199
v -0.7278929 0.4829865 -0.01768597
v 0.7278948 0.4829865 0.0112199
v 0.7278948 0.4829865 -0.01768597
v -0.7278929 0.4829865 0.0112199
v -0.7278929 -0.4829865 -0.01768581
v -0.7278929 0.4829865 0.0112199
v -0.7278929 0.4829865 -0.01768597
v -0.7278929 -0.4829865 0.01122006
v -0.7578936 -0.5129862 0.02878007
v 0.7278948 -0.4829865 0.01122006
v 0.7578955 -0.5129862 0.02878007
v -0.7278929 -0.4829865 0.01122006
v 0.7578955 -0.5129862 0.02878007
v 0.7278948 0.4829865 0.0112199
v 0.7578955 0.5129862 0.0287799
v 0.7278948 -0.4829865 0.01122006
v 0.7578955 0.5129862 0.0287799
v -0.7278929 0.4829865 0.0112199
v -0.7578936 0.5129862 0.0287799
v 0.7278948 0.4829865 0.0112199
v -0.7578936 0.5129862 0.0287799
v -0.7278929 -0.4829865 0.01122006
v -0.7578936 -0.5129862 0.02878007
v -0.7278929 0.4829865 0.0112199
v 0.7878942 0.5429859 -0.02878007
v -0.7878923 -0.5429859 -0.0287799
v 0.7878942 -0.5429859 -0.0287799
v -0.7878923 0.5429859 -0.02878007

vn 0 -1.788139E-07 1
vn 0 -1.788139E-07 1
vn 0 -1.788139E-07 1
vn 0 -1.788139E-07 1
vn 0 -1 -1.788139E-07
vn 0 -1 -1.788139E-07
vn 0 -1 -1.788139E-07
vn 0 -1 -1.788139E-07
vn 1 0 0
vn 1 0 0
vn 1 0 0
vn 1 0 0
vn 0 1 1.788139E-07
vn 0 1 1.788139E-07
vn 0 1 1.788139E-07
vn 0 1 1.788139E-07
vn -1 0 0
vn -1 0 0
vn -1 0 0
vn -1 0 0
vn 0 -0.5053711 0.862793
vn 0 -0.5053711 0.862793
vn 0 -0.5053711 0.862793
vn 0 -0.5053711 0.862793
vn 0.5053711 -1.192093E-07 0.862793
vn 0.5053711 -1.192093E-07 0.862793
vn 0.5053711 -1.192093E-07 0.862793
vn 0.5053711 -1.192093E-07 0.862793
vn 0 0.5053711 0.862793
vn 0 0.5053711 0.862793
vn 0 0.5053711 0.862793
vn 0 0.5053711 0.862793
vn -0.5053711 -1.192093E-07 0.862793
vn -0.5053711 -1.192093E-07 0.862793
vn -0.5053711 -1.192093E-07 0.862793
vn -0.5053711 -1.192093E-07 0.862793
vn 0 1 1.788139E-07
vn 0 1 1.788139E-07
vn 0 1 1.788139E-07
vn 0 1 1.788139E-07
vn -1 0 0
vn -1 0 0
vn -1 0 0
vn -1 0 0
vn 0 -1 -1.788139E-07
vn 0 -1 -1.788139E-07
vn 0 -1 -1.788139E-07
vn 0 -1 -1.788139E-07
vn 1 0 0
vn 1 0 0
vn 1 0 0
vn 1 0 0
vn 0 0.5053711 0.862793
vn 0 0.5053711 0.862793
vn 0 0.5053711 0.862793
vn 0 0.5053711 0.862793
vn -0.5053711 -1.192093E-07 0.862793
vn -0.5053711 -1.192093E-07 0.862793
vn -0.5053711 -1.192093E-07 0.862793
vn -0.5053711 -1.192093E-07 0.862793
vn 0 -0.5053711 0.862793
vn 0 -0.5053711 0.862793
vn 0 -0.5053711 0.862793
vn 0 -0.5053711 0.862793
vn 0.5053711 -1.192093E-07 0.862793
vn 0.5053711 -1.192093E-07 0.862793
vn 0.5053711 -1.192093E-07 0.862793
vn 0.5053711 -1.192093E-07 0.862793
vn 0 1.788139E-07 -1
vn 0 1.788139E-07 -1
vn 0 1.788139E-07 -1
vn 0 1.788139E-07 -1

vt 0.7436523 0.6625977
vt 0.5043945 0.5039063
vt 0.5043945 0.6625977
vt 0.7436523 0.5039063
vt 0.6289063 0.9868164
vt 0.7954102 0.9912109
vt 0.7954102 0.9868164
vt 0.6289063 0.9912109
vt 0.5073242 0.9638672
vt 0.6220703 0.9599609
vt 0.6220703 0.9638672
vt 0.5073242 0.9599609
vt 0.7939453 0.972168
vt 0.6274414 0.9760742
vt 0.6274414 0.972168
vt 0.7939453 0.9760742
vt 0.6220703 0.9814453
vt 0.5073242 0.9770508
vt 0.5073242 0.9814453
vt 0.6220703 0.9770508
vt 0.7919922 0.9833984
vt 0.6289063 0.9868164
vt 0.7954102 0.9868164
vt 0.6318359 0.9833984
vt 0.6186523 0.9677734
vt 0.5073242 0.9638672
vt 0.6220703 0.9638672
vt 0.5107422 0.9677734
vt 0.6308594 0.9682617
vt 0.7939453 0.972168
vt 0.6274414 0.972168
vt 0.7910156 0.9682617
vt 0.5107422 0.9848633
vt 0.6220703 0.9814453
vt 0.5073242 0.9814453
vt 0.6186523 0.9848633
vt 0.6352539 0.9765625
vt 0.7890625 0.9794922
vt 0.7890625 0.9765625
vt 0.6352539 0.9794922
vt 0.5136719 0.9746094
vt 0.6157227 0.9711914
vt 0.6157227 0.9746094
vt 0.5136719 0.9711914
vt 0.7875977 0.9614258
vt 0.6337891 0.9648438
vt 0.6337891 0.9614258
vt 0.7875977 0.9648438
vt 0.6157227 0.9916992
vt 0.5136719 0.9887695
vt 0.5136719 0.9916992
vt 0.6157227 0.9887695
vt 0.7919922 0.9833984
vt 0.6352539 0.9794922
vt 0.6318359 0.9833984
vt 0.7890625 0.9794922
vt 0.6186523 0.9677734
vt 0.5136719 0.9711914
vt 0.5107422 0.9677734
vt 0.6157227 0.9711914
vt 0.6308594 0.9682617
vt 0.7875977 0.9648438
vt 0.7910156 0.9682617
vt 0.6337891 0.9648438
vt 0.5107422 0.9848633
vt 0.6157227 0.9887695
vt 0.6186523 0.9848633
vt 0.5136719 0.9887695
vt 0.7529297 0.6630859
vt 0.9912109 0.5039063
vt 0.7529297 0.5039063
vt 0.9912109 0.6630859

g picture03_1962_47
usemtl picture03_1962_47
usemap picture03_1962_47
f 1/1/1 3/3/3 2/2/2
f 2/2/2 4/4/4 1/1/1
f 5/5/5 7/7/7 6/6/6
f 6/6/6 8/8/8 5/5/5
f 9/9/9 11/11/11 10/10/10
f 10/10/10 12/12/12 9/9/9
f 13/13/13 15/15/15 14/14/14
f 14/14/14 16/16/16 13/13/13
f 17/17/17 19/19/19 18/18/18
f 18/18/18 20/20/20 17/17/17
f 21/21/21 23/23/23 22/22/22
f 22/22/22 24/24/24 21/21/21
f 25/25/25 27/27/27 26/26/26
f 26/26/26 28/28/28 25/25/25
f 29/29/29 31/31/31 30/30/30
f 30/30/30 32/32/32 29/29/29
f 33/33/33 35/35/35 34/34/34
f 34/34/34 36/36/36 33/33/33
f 37/37/37 39/39/39 38/38/38
f 38/38/38 40/40/40 37/37/37
f 41/41/41 43/43/43 42/42/42
f 42/42/42 44/44/44 41/41/41
f 45/45/45 47/47/47 46/46/46
f 46/46/46 48/48/48 45/45/45
f 49/49/49 51/51/51 50/50/50
f 50/50/50 52/52/52 49/49/49
f 53/53/53 55/55/55 54/54/54
f 54/54/54 56/56/56 53/53/53
f 57/57/57 59/59/59 58/58/58
f 58/58/58 60/60/60 57/57/57
f 61/61/61 63/63/63 62/62/62
f 62/62/62 64/64/64 61/61/61
f 65/65/65 67/67/67 66/66/66
f 66/66/66 68/68/68 65/65/65
f 69/69/69 71/71/71 70/70/70
f 70/70/70 72/72/72 69/69/69
