#picture05_1893_53.obj

v 0.3298364 0.3141527 -0.01768589
v -0.3298364 -0.3141527 -0.01768589
v -0.3298364 0.3141527 -0.01768589
v 0.3298364 -0.3141527 -0.01768589
v 0.3898363 -0.3741531 0.01121998
v -0.3898363 -0.3741531 -0.02877998
v -0.3898363 -0.3741531 0.01121998
v 0.3898363 -0.3741531 -0.02877998
v 0.3898363 0.3741531 0.01121998
v 0.3898363 -0.3741531 -0.02877998
v 0.3898363 -0.3741531 0.01121998
v 0.3898363 0.3741531 -0.02877998
v -0.3898363 0.3741531 0.01121998
v 0.3898363 0.3741531 -0.02877998
v 0.3898363 0.3741531 0.01121998
v -0.3898363 0.3741531 -0.02877998
v -0.3898363 -0.3741531 0.01121998
v -0.3898363 0.3741531 -0.02877998
v -0.3898363 0.3741531 0.01121998
v -0.3898363 -0.3741531 -0.02877998
v -0.3598363 -0.3441525 0.02877998
v 0.3898363 -0.3741531 0.01121998
v -0.3898363 -0.3741531 0.01121998
v 0.3598363 -0.3441525 0.02877998
v 0.3598363 -0.3441525 0.02877998
v 0.3898363 0.3741531 0.01121998
v 0.3898363 -0.3741531 0.01121998
v 0.3598363 0.3441525 0.02877998
v 0.3598363 0.3441525 0.02877998
v -0.3898363 0.3741531 0.01121998
v 0.3898363 0.3741531 0.01121998
v -0.3598363 0.3441525 0.02877998
v -0.3598363 0.3441525 0.02877998
v -0.3898363 -0.3741531 0.01121998
v -0.3898363 0.3741531 0.01121998
v -0.3598363 -0.3441525 0.02877998
v 0.3298364 -0.3141527 -0.01768589
v -0.3298364 -0.3141527 0.01121998
v -0.3298364 -0.3141527 -0.01768589
v 0.3298364 -0.3141527 0.01121998
v 0.3298364 0.3141527 -0.01768589
v 0.3298364 -0.3141527 0.01121998
v 0.3298364 -0.3141527 -0.01768589
v 0.3298364 0.3141527 0.01121998
v -0.3298364 0.3141527 -0.01768589
v 0.3298364 0.3141527 0.01121998
v 0.3298364 0.3141527 -0.01768589
v -0.3298364 0.3141527 0.01121998
v -0.3298364 -0.3141527 -0.01768589
v -0.3298364 0.3141527 0.01121998
v -0.3298364 0.3141527 -0.01768589
v -0.3298364 -0.3141527 0.01121998
v -0.3598363 -0.3441525 0.02877998
v 0.3298364 -0.3141527 0.01121998
v 0.3598363 -0.3441525 0.02877998
v -0.3298364 -0.3141527 0.01121998
v 0.3598363 -0.3441525 0.02877998
v 0.3298364 0.3141527 0.01121998
v 0.3598363 0.3441525 0.02877998
v 0.3298364 -0.3141527 0.01121998
v 0.3598363 0.3441525 0.02877998
v -0.3298364 0.3141527 0.01121998
v -0.3598363 0.3441525 0.02877998
v 0.3298364 0.3141527 0.01121998
v -0.3598363 0.3441525 0.02877998
v -0.3298364 -0.3141527 0.01121998
v -0.3598363 -0.3441525 0.02877998
v -0.3298364 0.3141527 0.01121998
v 0.3898363 0.3741531 -0.02877998
v -0.3898363 -0.3741531 -0.02877998
v 0.3898363 -0.3741531 -0.02877998
v -0.3898363 0.3741531 -0.02877998

vn 0 0 -1
vn 0 0 -1
vn 0 0 -1
vn 0 0 -1
vn 0 -1 0
vn 0 -1 0
vn 0 -1 0
vn 0 -1 0
vn -1 0 0
vn -1 0 0
vn -1 0 0
vn -1 0 0
vn 0 1 0
vn 0 1 0
vn 0 1 0
vn 0 1 0
vn 1 0 0
vn 1 0 0
vn 1 0 0
vn 1 0 0
vn 0 -0.5053711 -0.862793
vn 0 -0.5053711 -0.862793
vn 0 -0.5053711 -0.862793
vn 0 -0.5053711 -0.862793
vn -0.5053711 0 -0.862793
vn -0.5053711 0 -0.862793
vn -0.5053711 0 -0.862793
vn -0.5053711 0 -0.862793
vn 0 0.5053711 -0.862793
vn 0 0.5053711 -0.862793
vn 0 0.5053711 -0.862793
vn 0 0.5053711 -0.862793
vn 0.5053711 0 -0.862793
vn 0.5053711 0 -0.862793
vn 0.5053711 0 -0.862793
vn 0.5053711 0 -0.862793
vn 0 1 0
vn 0 1 0
vn 0 1 0
vn 0 1 0
vn 1 0 0
vn 1 0 0
vn 1 0 0
vn 1 0 0
vn 0 -1 0
vn 0 -1 0
vn 0 -1 0
vn 0 -1 0
vn -1 0 0
vn -1 0 0
vn -1 0 0
vn -1 0 0
vn 0 0.5053711 -0.862793
vn 0 0.5053711 -0.862793
vn 0 0.5053711 -0.862793
vn 0 0.5053711 -0.862793
vn 0.5053711 0 -0.862793
vn 0.5053711 0 -0.862793
vn 0.5053711 0 -0.862793
vn 0.5053711 0 -0.862793
vn 0 -0.5053711 -0.862793
vn 0 -0.5053711 -0.862793
vn 0 -0.5053711 -0.862793
vn 0 -0.5053711 -0.862793
vn -0.5053711 0 -0.862793
vn -0.5053711 0 -0.862793
vn -0.5053711 0 -0.862793
vn -0.5053711 0 -0.862793
vn 0 0 1
vn 0 0 1
vn 0 0 1
vn 0 0 1

vt 0.9892578 0.8046875
vt 0.8530273 0.675293
vt 0.8530273 0.8046875
vt 0.9892578 0.675293
vt 0.6230469 0.9541016
vt 0.5405273 0.9584961
vt 0.5405273 0.9541016
vt 0.6230469 0.9584961
vt 0.7167969 0.9545898
vt 0.7958984 0.9589844
vt 0.7958984 0.9545898
vt 0.7167969 0.9589844
vt 0.6303711 0.9541016
vt 0.7124023 0.9584961
vt 0.7124023 0.9541016
vt 0.6303711 0.9584961
vt 0.8789063 0.9555664
vt 0.7998047 0.9599609
vt 0.7998047 0.9555664
vt 0.8789063 0.9599609
vt 0.5439453 0.9501953
vt 0.6230469 0.9541016
vt 0.5405273 0.9541016
vt 0.6201172 0.9501953
vt 0.7929688 0.9511719
vt 0.7167969 0.9545898
vt 0.7958984 0.9545898
vt 0.7202148 0.9511719
vt 0.7094727 0.9506836
vt 0.6303711 0.9541016
vt 0.7124023 0.9541016
vt 0.6333008 0.9506836
vt 0.8027344 0.9521484
vt 0.8789063 0.9555664
vt 0.7998047 0.9555664
vt 0.8754883 0.9521484
vt 0.6166992 0.9438477
vt 0.546875 0.9467773
vt 0.546875 0.9438477
vt 0.6166992 0.9467773
vt 0.7231445 0.9443359
vt 0.7895508 0.9472656
vt 0.7895508 0.9443359
vt 0.7231445 0.9472656
vt 0.6362305 0.9438477
vt 0.7060547 0.9467773
vt 0.7060547 0.9438477
vt 0.6362305 0.9467773
vt 0.8725586 0.9453125
vt 0.8061523 0.9482422
vt 0.8061523 0.9453125
vt 0.8725586 0.9482422
vt 0.5439453 0.9501953
vt 0.6166992 0.9467773
vt 0.6201172 0.9501953
vt 0.546875 0.9467773
vt 0.7929688 0.9511719
vt 0.7231445 0.9472656
vt 0.7202148 0.9511719
vt 0.7895508 0.9472656
vt 0.7094727 0.9506836
vt 0.6362305 0.9467773
vt 0.6333008 0.9506836
vt 0.7060547 0.9467773
vt 0.8027344 0.9521484
vt 0.8725586 0.9482422
vt 0.8754883 0.9521484
vt 0.8061523 0.9482422
vt 0.7529297 0.6635742
vt 0.918457 0.5039063
vt 0.7529297 0.5039063
vt 0.918457 0.6635742

g picture05_1893_53
usemtl picture05_1893_53
usemap picture05_1893_53
f 1/1/1 3/3/3 2/2/2
f 2/2/2 4/4/4 1/1/1
f 5/5/5 7/7/7 6/6/6
f 6/6/6 8/8/8 5/5/5
f 9/9/9 11/11/11 10/10/10
f 10/10/10 12/12/12 9/9/9
f 13/13/13 15/15/15 14/14/14
f 14/14/14 16/16/16 13/13/13
f 17/17/17 19/19/19 18/18/18
f 18/18/18 20/20/20 17/17/17
f 21/21/21 23/23/23 22/22/22
f 22/22/22 24/24/24 21/21/21
f 25/25/25 27/27/27 26/26/26
f 26/26/26 28/28/28 25/25/25
f 29/29/29 31/31/31 30/30/30
f 30/30/30 32/32/32 29/29/29
f 33/33/33 35/35/35 34/34/34
f 34/34/34 36/36/36 33/33/33
f 37/37/37 39/39/39 38/38/38
f 38/38/38 40/40/40 37/37/37
f 41/41/41 43/43/43 42/42/42
f 42/42/42 44/44/44 41/41/41
f 45/45/45 47/47/47 46/46/46
f 46/46/46 48/48/48 45/45/45
f 49/49/49 51/51/51 50/50/50
f 50/50/50 52/52/52 49/49/49
f 53/53/53 55/55/55 54/54/54
f 54/54/54 56/56/56 53/53/53
f 57/57/57 59/59/59 58/58/58
f 58/58/58 60/60/60 57/57/57
f 61/61/61 63/63/63 62/62/62
f 62/62/62 64/64/64 61/61/61
f 65/65/65 67/67/67 66/66/66
f 66/66/66 68/68/68 65/65/65
f 69/69/69 71/71/71 70/70/70
f 70/70/70 72/72/72 69/69/69
