#Plank_(2)_1924_114.obj

v -0.7260208 -0.03460995 0.2249018
v 0.7260208 0.03460868 0.2249018
v 0.7260208 -0.03460995 0.2249018
v -0.7260208 0.03460964 0.2249018
v 0.7260208 -0.03460995 0.2249018
v -0.7260208 -0.03460906 -0.4336508
v -0.7260208 -0.03460995 0.2249018
v 0.7260208 -0.03461001 -0.4336508
v -0.7260208 0.03460964 0.2249018
v 0.7260208 0.03460957 -0.4336508
v 0.7260208 0.03460868 0.2249018
v -0.7260208 0.03460957 -0.4336508

vn 1 -1.192093E-07 -1.192093E-07
vn 1 -1.192093E-07 -1.192093E-07
vn 1 -1.192093E-07 -1.192093E-07
vn 1 -1.192093E-07 -1.192093E-07
vn -1.192093E-07 -1 0
vn -1.192093E-07 -1 0
vn -1.192093E-07 -1 0
vn -1.192093E-07 -1 0
vn 1.192093E-07 1 0
vn 1.192093E-07 1 0
vn 1.192093E-07 1 0
vn 1.192093E-07 1 0

vt 0.5 0.949707
vt 0.6333008 0.9560547
vt 0.6333008 0.949707
vt 0.5 0.9560547
vt 0.5004883 0.8637695
vt 0.6333008 0.9067383
vt 0.6337891 0.8657227
vt 0.5 0.9052734
vt 0.5 0.9077148
vt 0.6333008 0.9492188
vt 0.6333008 0.9082031
vt 0.5 0.9492188

g Plank_(2)_1924_114
usemtl Plank_(2)_1924_114
usemap Plank_(2)_1924_114
f 1/1/1 3/3/3 2/2/2
f 2/2/2 4/4/4 1/1/1
f 5/5/5 7/7/7 6/6/6
f 6/6/6 8/8/8 5/5/5
f 9/9/9 11/11/11 10/10/10
f 10/10/10 12/12/12 9/9/9
