#Refrigerator_1938_89.obj

v -0.4478731 0.4292866 0.1999998
v 0.4511657 0.9800001 0.2000003
v 0.4511657 0.4292866 0.2000003
v -0.4478731 0.9800001 0.1999998
v -0.4811709 1.019999 1
v -0.506144 1.05 0.9824264
v -0.4811709 1.062426 0.9824264
v -0.5164886 1.019999 0.9824264
v -0.5164886 -1.020001 0.9824264
v -0.4811709 -1.020001 1
v -0.506144 -1.050001 0.9824264
v -0.4811709 -1.062427 0.9824264
v 0.4844635 -1.062427 0.9824266
v -0.4811709 -1.020001 1
v 0.4844635 -1.020001 1
v -0.4811709 -1.062427 0.9824264
v 0.4844635 -1.020001 1
v 0.5094366 -1.050001 0.9824266
v 0.4844635 -1.062427 0.9824266
v 0.5197811 -1.020001 0.9824266
v 0.5197811 1.019999 0.9824266
v 0.4844635 1.019999 1
v 0.5094366 1.05 0.9824266
v 0.4844635 1.062426 0.9824266
v -0.4811709 1.062426 0.9824264
v 0.4844635 1.019999 1
v -0.4811709 1.019999 1
v 0.4844635 1.062426 0.9824266
v -0.5164886 1.062426 0.9400001
v -0.4811709 1.062426 0.9824264
v -0.506144 1.05 0.9824264
v -0.4811709 1.08 0.9400001
v -0.5164883 1.062426 0.1755409
v -0.4811707 1.08 0.1755409
v -0.506144 1.05 0.1331143
v -0.4811707 1.062426 0.1331143
v 0.4844635 1.08 0.9400001
v 0.4844635 1.062426 0.9824266
v -0.4811709 1.062426 0.9824264
v 0.4844635 1.08 0.1755409
v -0.4811707 1.062426 0.1331143
v 0.4844635 1.062426 0.1331148
v 0.5197811 1.062426 0.9400001
v 0.5094366 1.05 0.9824266
v 0.4844635 1.062426 0.9824266
v 0.5197811 1.062426 0.1755409
v 0.4844635 1.062426 0.1331148
v 0.5094368 1.05 0.1331148
v -0.5164886 -1.062427 0.9400001
v -0.5164886 -1.020001 0.9824264
v -0.506144 -1.050001 0.9824264
v -0.5311174 -1.020001 0.9400001
v -0.5164886 1.019999 0.9824264
v -0.5164883 -1.062427 0.1755409
v -0.5311174 1.019999 0.9400001
v -0.506144 1.05 0.9824264
v -0.5164886 1.062426 0.9400001
v -0.5311174 -1.02 0.1755409
v -0.506144 -1.050001 0.1331148
v -0.5164883 -1.02 0.1331148
v -0.5311174 1.019999 0.1755409
v -0.5164883 1.062426 0.1755409
v -0.5164883 1.019999 0.1331143
v -0.506144 1.05 0.1331143
v -0.4811709 -1.08 0.9400001
v -0.506144 -1.050001 0.9824264
v -0.4811709 -1.062427 0.9824264
v -0.5164886 -1.062427 0.9400001
v -0.4811707 -1.08 0.1755409
v -0.5164883 -1.062427 0.1755409
v -0.4811707 -1.062427 0.1331143
v -0.506144 -1.050001 0.1331148
v 0.4844635 -1.08 0.9400001
v -0.4811709 -1.062427 0.9824264
v 0.4844635 -1.062427 0.9824266
v -0.4811709 -1.08 0.9400001
v 0.53441 -1.020001 0.9400001
v 0.5094366 -1.050001 0.9824266
v 0.5197811 -1.020001 0.9824266
v 0.53441 1.019999 0.9400001
v 0.5197811 1.019999 0.9824266
v 0.5197811 1.062426 0.9400001
v 0.5094366 1.05 0.9824266
v 0.5197811 1.062426 0.1755409
v 0.53441 1.019999 0.1755409
v 0.5094368 1.05 0.1331148
v 0.5197811 1.019999 0.1331148
v 0.53441 -1.02 0.1755409
v 0.5197811 -1.02 0.1331148
v 0.5197811 -1.062427 0.1755409
v 0.4844635 -1.062427 0.1331148
v -0.4811707 -1.08 0.1755409
v 0.4844635 -1.08 0.1755409
v -0.4811707 -1.062427 0.1331143
v 0.4844635 -1.08 0.1755409
v 0.5094368 -1.050001 0.1331148
v 0.4844635 -1.062427 0.1331148
v 0.5197811 -1.062427 0.1755409
v 0.5197811 -1.02 0.1331148
v 0.4844635 -1.08 0.9400001
v 0.5197811 -1.062427 0.9400001
v 0.53441 -1.02 0.1755409
v 0.4844635 -1.062427 0.9824266
v 0.53441 -1.020001 0.9400001
v 0.5094366 -1.050001 0.9824266
v -0.4811707 1.062426 0.1331143
v -0.506144 1.05 0.1331143
v -0.4811707 1.019999 0.115541
v -0.5164883 1.019999 0.1331143
v -0.4811707 -1.02 0.115541
v -0.5164883 -1.02 0.1331148
v -0.506144 -1.050001 0.1331148
v -0.4811707 -1.062427 0.1331143
v 0.4844635 -1.02 0.115541
v -0.4811707 -1.062427 0.1331143
v 0.4844635 -1.062427 0.1331148
v -0.4811707 -1.02 0.115541
v 0.4844635 -1.062427 0.1331148
v 0.5094368 -1.050001 0.1331148
v 0.4844635 -1.02 0.115541
v 0.5197811 -1.02 0.1331148
v 0.4844635 1.019999 0.115541
v 0.5197811 1.019999 0.1331148
v 0.5094368 1.05 0.1331148
v 0.4844635 1.062426 0.1331148
v -0.4811707 1.019999 0.115541
v 0.4844635 1.062426 0.1331148
v -0.4811707 1.062426 0.1331143
v 0.4844635 1.019999 0.115541
v -0.4478731 -0.9799999 0.1555409
v 0.4511657 0.9799992 0.1555409
v -0.4478731 0.9799992 0.1555409
v 0.4511657 -0.9799999 0.1555409
v 0.4844635 -1.08 0.9400001
v -0.4811709 -1.16 0.9400001
v -0.4811709 -1.08 0.9400001
v 0.4844635 -1.16 0.9400001
v -0.4811709 -1.08 0.9400001
v -0.4811707 -1.16 0.1755409
v -0.4811707 -1.08 0.1755409
v -0.4811709 -1.16 0.9400001
v -0.4811707 -1.08 0.1755409
v 0.4844635 -1.16 0.1755409
v 0.4844635 -1.08 0.1755409
v -0.4811707 -1.16 0.1755409
v 0.4844635 -1.08 0.1755409
v 0.4844635 -1.16 0.9400001
v 0.4844635 -1.08 0.9400001
v 0.4844635 -1.16 0.1755409
v -0.4811709 1.019999 1
v -0.4811709 -1.020001 0.96
v -0.4811709 -1.020001 1
v -0.4811709 0.3892866 0.96
v -0.4811709 1.019999 0.96
v -0.4811709 -1.020001 1
v 0.4844635 -1.020001 0.96
v 0.4844635 -1.020001 1
v -0.4811709 -1.020001 0.96
v 0.4844635 -1.020001 1
v 0.4844635 1.019999 0.96
v 0.4844635 1.019999 1
v 0.4844635 0.3892866 0.96
v 0.4844635 -1.020001 0.96
v 0.4844635 1.019999 1
v -0.4811709 1.019999 0.96
v -0.4811709 1.019999 1
v 0.4844635 1.019999 0.96
v -0.4478731 -0.9799999 0.1999998
v 0.4511657 0.3492867 0.2000003
v 0.4511657 -0.9799999 0.2000003
v -0.4478731 0.3492867 0.1999998
v -0.4478731 0.9799992 0.96
v -0.4478731 0.4292866 0.1999998
v -0.4478731 0.4292866 0.96
v -0.4478731 0.9800001 0.1999998
v -0.4478731 0.4292866 0.96
v 0.4511657 0.4292866 0.2000003
v 0.4511657 0.4292866 0.96
v -0.4478731 0.4292866 0.1999998
v 0.4511657 0.4292866 0.96
v 0.4511657 0.9800001 0.2000003
v 0.4511657 0.9799992 0.96
v 0.4511657 0.4292866 0.2000003
v 0.4511657 0.9799992 0.96
v -0.4478731 0.9800001 0.1999998
v -0.4478731 0.9799992 0.96
v 0.4511657 0.9800001 0.2000003
v -0.4478731 -0.9800009 0.96
v 0.4511657 -0.9799999 0.2000003
v 0.4511657 -0.9800009 0.96
v -0.4478731 -0.9799999 0.1999998
v 0.4511657 -0.9800009 0.96
v 0.4511657 0.3492867 0.2000003
v 0.4511657 0.3492867 0.96
v 0.4511657 -0.9799999 0.2000003
v 0.4511657 0.3492867 0.96
v -0.4478731 0.3492867 0.1999998
v -0.4478731 0.3492867 0.96
v 0.4511657 0.3492867 0.2000003
v -0.4478731 0.3492867 0.96
v -0.4478731 -0.9799999 0.1999998
v -0.4478731 -0.9800009 0.96
v -0.4478731 0.3492867 0.1999998
v -0.4478731 -0.9799999 0.115541
v -0.4478731 0.9799992 0.1555409
v -0.4478731 0.9799992 0.115541
v -0.4478731 -0.9799999 0.1555409
v -0.4478731 0.9799992 0.115541
v 0.4511657 0.9799992 0.1555409
v 0.4511657 0.9799992 0.115541
v -0.4478731 0.9799992 0.1555409
v 0.4511657 0.9799992 0.115541
v 0.4511657 -0.9799999 0.1555409
v 0.4511657 -0.9799999 0.115541
v 0.4511657 0.9799992 0.1555409
v 0.4511657 -0.9799999 0.115541
v -0.4478731 -0.9799999 0.1555409
v -0.4478731 -0.9799999 0.115541
v 0.4511657 -0.9799999 0.1555409
v 0.4511657 0.7056099 0.9599998
v -0.4478731 0.6870161 0.96
v -0.4478731 0.7056099 0.96
v 0.4511657 0.6870161 0.9599998
v 0.4511657 0.7056099 0.1999998
v -0.4145753 0.7056099 0.2399998
v -0.4478731 0.7056099 0.1999998
v 0.4178679 0.7056099 0.2399998
v -0.4478731 0.7056099 0.1999998
v -0.4145753 0.7056099 0.9200001
v -0.4478731 0.7056099 0.96
v -0.4145753 0.7056099 0.2399998
v -0.4478731 0.7056099 0.96
v 0.4178679 0.7056099 0.9199998
v 0.4511657 0.7056099 0.9599998
v -0.4145753 0.7056099 0.9200001
v 0.4511657 0.7056099 0.9599998
v 0.4178679 0.7056099 0.2399998
v 0.4511657 0.7056099 0.1999998
v 0.4178679 0.7056099 0.9199998
v -0.4478731 0.6870161 0.1999998
v 0.4178679 0.6870161 0.2399998
v 0.4511657 0.6870161 0.1999998
v -0.4145753 0.6870161 0.2399998
v 0.4511657 0.6870161 0.1999998
v 0.4178679 0.6870161 0.9199998
v 0.4511657 0.6870161 0.9599998
v 0.4178679 0.6870161 0.2399998
v 0.4511657 0.6870161 0.9599998
v -0.4145753 0.6870161 0.9200001
v -0.4478731 0.6870161 0.96
v 0.4178679 0.6870161 0.9199998
v -0.4478731 0.6870161 0.96
v -0.4145753 0.6870161 0.2399998
v -0.4478731 0.6870161 0.1999998
v -0.4145753 0.6870161 0.9200001
v -0.4145753 0.7056099 0.2399998
v -0.4145753 0.6870161 0.9200001
v -0.4145753 0.7056099 0.9200001
v -0.4145753 0.6870161 0.2399998
v -0.4145753 0.7056099 0.9200001
v 0.4178679 0.6870161 0.9199998
v 0.4178679 0.7056099 0.9199998
v -0.4145753 0.6870161 0.9200001
v 0.4178679 0.7056099 0.9199998
v 0.4178679 0.6870161 0.2399998
v 0.4178679 0.7056099 0.2399998
v 0.4178679 0.6870161 0.9199998
v 0.4178679 0.7056099 0.2399998
v -0.4145753 0.6870161 0.2399998
v -0.4145753 0.7056099 0.2399998
v 0.4178679 0.6870161 0.2399998
v -0.3093662 0.6963679 0.2383814
v -0.3093662 0.6963669 0.9205165
v -0.3166149 0.7050749 0.9205165
v -0.3166149 0.7050749 0.2383814
v -0.3166149 0.7050749 0.2383814
v -0.3166149 0.7050749 0.9205165
v -0.3238635 0.6963669 0.9205165
v -0.3238635 0.6963679 0.2383814
v -0.3238635 0.6963679 0.2383814
v -0.3238635 0.6963669 0.9205165
v -0.3166149 0.6876599 0.9205165
v -0.3166149 0.6876599 0.2383814
v -0.3166149 0.6876599 0.2383814
v -0.3166149 0.6876599 0.9205165
v -0.3093662 0.6963669 0.9205165
v -0.3093662 0.6963679 0.2383814
v -0.2427707 0.6963679 0.2383814
v -0.2427707 0.6963669 0.9205165
v -0.2500196 0.7050749 0.9205165
v -0.2500193 0.7050749 0.2383814
v -0.2500193 0.7050749 0.2383814
v -0.2500196 0.7050749 0.9205165
v -0.2572682 0.6963669 0.9205165
v -0.2572682 0.6963679 0.2383814
v -0.2572682 0.6963679 0.2383814
v -0.2572682 0.6963669 0.9205165
v -0.2500196 0.6876599 0.9205165
v -0.2500193 0.6876599 0.2383814
v -0.2500193 0.6876599 0.2383814
v -0.2500196 0.6876599 0.9205165
v -0.2427707 0.6963669 0.9205165
v -0.2427707 0.6963679 0.2383814
v -0.1761751 0.6963679 0.2383814
v -0.1761754 0.6963669 0.9205165
v -0.183424 0.7050749 0.9205165
v -0.183424 0.7050749 0.2383814
v -0.183424 0.7050749 0.2383814
v -0.183424 0.7050749 0.9205165
v -0.1906729 0.6963669 0.9205165
v -0.1906726 0.6963679 0.2383814
v -0.1906726 0.6963679 0.2383814
v -0.1906729 0.6963669 0.9205165
v -0.183424 0.6876599 0.9205165
v -0.183424 0.6876599 0.2383814
v -0.183424 0.6876599 0.2383814
v -0.183424 0.6876599 0.9205165
v -0.1761754 0.6963669 0.9205165
v -0.1761751 0.6963679 0.2383814
v -0.1095798 0.6963679 0.2383814
v -0.1095798 0.6963669 0.9205165
v -0.1168287 0.7050749 0.9205165
v -0.1168284 0.7050749 0.2383814
v -0.1168284 0.7050749 0.2383814
v -0.1168287 0.7050749 0.9205165
v -0.1240773 0.6963669 0.9205165
v -0.1240773 0.6963679 0.2383814
v -0.1240773 0.6963679 0.2383814
v -0.1240773 0.6963669 0.9205165
v -0.1168287 0.6876599 0.9205165
v -0.1168284 0.6876599 0.2383814
v -0.1168284 0.6876599 0.2383814
v -0.1168287 0.6876599 0.9205165
v -0.1095798 0.6963669 0.9205165
v -0.1095798 0.6963679 0.2383814
v -0.04298425 0.6963679 0.2383814
v -0.04298425 0.6963669 0.9205165
v -0.05023313 0.7050749 0.9205165
v -0.05023313 0.7050749 0.2383814
v -0.05023313 0.7050749 0.2383814
v -0.05023313 0.7050749 0.9205165
v -0.05748177 0.6963669 0.9205165
v -0.05748177 0.6963679 0.2383814
v -0.05748177 0.6963679 0.2383814
v -0.05748177 0.6963669 0.9205165
v -0.05023313 0.6876599 0.9205165
v -0.05023313 0.6876599 0.2383814
v -0.05023313 0.6876599 0.2383814
v -0.05023313 0.6876599 0.9205165
v -0.04298425 0.6963669 0.9205165
v -0.04298425 0.6963679 0.2383814
v 0.02361131 0.6963679 0.2383814
v 0.02361107 0.6963669 0.9205165
v 0.01636243 0.7050749 0.9205165
v 0.01636243 0.7050749 0.2383814
v 0.01636243 0.7050749 0.2383814
v 0.01636243 0.7050749 0.9205165
v 0.00911355 0.6963669 0.9205165
v 0.009113789 0.6963679 0.2383814
v 0.009113789 0.6963679 0.2383814
v 0.00911355 0.6963669 0.9205165
v 0.01636243 0.6876599 0.9205165
v 0.01636243 0.6876599 0.2383814
v 0.01636243 0.6876599 0.2383814
v 0.01636243 0.6876599 0.9205165
v 0.02361107 0.6963669 0.9205165
v 0.02361131 0.6963679 0.2383814
v 0.09020662 0.6963679 0.2383814
v 0.09020662 0.6963669 0.9205165
v 0.08295774 0.7050749 0.9205165
v 0.08295798 0.7050749 0.2383814
v 0.08295798 0.7050749 0.2383814
v 0.08295774 0.7050749 0.9205165
v 0.0757091 0.6963669 0.9205165
v 0.0757091 0.6963679 0.2383814
v 0.0757091 0.6963679 0.2383814
v 0.0757091 0.6963669 0.9205165
v 0.08295774 0.6876599 0.9205165
v 0.08295798 0.6876599 0.2383814
v 0.08295798 0.6876599 0.2383814
v 0.08295774 0.6876599 0.9205165
v 0.09020662 0.6963669 0.9205165
v 0.09020662 0.6963679 0.2383814
v 0.1568022 0.6963679 0.2383814
v 0.1568019 0.6963669 0.9205165
v 0.1495533 0.7050749 0.9205165
v 0.1495533 0.7050749 0.2383814
v 0.1495533 0.7050749 0.2383814
v 0.1495533 0.7050749 0.9205165
v 0.1423047 0.6963669 0.9205165
v 0.1423047 0.6963679 0.2383814
v 0.1423047 0.6963679 0.2383814
v 0.1423047 0.6963669 0.9205165
v 0.1495533 0.6876599 0.9205165
v 0.1495533 0.6876599 0.2383814
v 0.1495533 0.6876599 0.2383814
v 0.1495533 0.6876599 0.9205165
v 0.1568019 0.6963669 0.9205165
v 0.1568022 0.6963679 0.2383814
v 0.2233975 0.6963679 0.2383814
v 0.2233975 0.6963669 0.9205165
v 0.2161489 0.7050749 0.9205165
v 0.2161489 0.7050749 0.2383814
v 0.2161489 0.7050749 0.2383814
v 0.2161489 0.7050749 0.9205165
v 0.2089 0.6963669 0.9205165
v 0.2089002 0.6963679 0.2383814
v 0.2089002 0.6963679 0.2383814
v 0.2089 0.6963669 0.9205165
v 0.2161489 0.6876599 0.9205165
v 0.2161489 0.6876599 0.2383814
v 0.2161489 0.6876599 0.2383814
v 0.2161489 0.6876599 0.9205165
v 0.2233975 0.6963669 0.9205165
v 0.2233975 0.6963679 0.2383814
v 0.289993 0.6963679 0.2383814
v 0.289993 0.6963669 0.9205165
v 0.2827442 0.7050749 0.9205165
v 0.2827444 0.7050749 0.2383814
v 0.2827444 0.7050749 0.2383814
v 0.2827442 0.7050749 0.9205165
v 0.2754955 0.6963669 0.9205165
v 0.2754955 0.6963679 0.2383814
v 0.2754955 0.6963679 0.2383814
v 0.2754955 0.6963669 0.9205165
v 0.2827442 0.6876599 0.9205165
v 0.2827444 0.6876599 0.2383814
v 0.2827444 0.6876599 0.2383814
v 0.2827442 0.6876599 0.9205165
v 0.289993 0.6963669 0.9205165
v 0.289993 0.6963679 0.2383814
v 0.3565886 0.6963679 0.2383814
v 0.3565884 0.6963669 0.9205165
v 0.3493397 0.7050749 0.9205165
v 0.3493397 0.7050749 0.2383814
v 0.3493397 0.7050749 0.2383814
v 0.3493397 0.7050749 0.9205165
v 0.3420911 0.6963669 0.9205165
v 0.3420911 0.6963679 0.2383814
v 0.3420911 0.6963679 0.2383814
v 0.3420911 0.6963669 0.9205165
v 0.3493397 0.6876599 0.9205165
v 0.3493397 0.6876599 0.2383814
v 0.3493397 0.6876599 0.2383814
v 0.3493397 0.6876599 0.9205165
v 0.3565884 0.6963669 0.9205165
v 0.3565886 0.6963679 0.2383814
v 0.4511657 -0.001116157 0.9599998
v -0.4478731 -0.01970994 0.96
v -0.4478731 -0.001116157 0.96
v 0.4511657 -0.01970994 0.9599998
v 0.4511657 -0.00111711 0.1999998
v -0.4145753 -0.00111711 0.2399998
v -0.4478731 -0.00111711 0.1999998
v 0.4178679 -0.00111711 0.2399998
v -0.4478731 -0.00111711 0.1999998
v -0.4145753 -0.001116157 0.9200001
v -0.4478731 -0.001116157 0.96
v -0.4145753 -0.00111711 0.2399998
v -0.4478731 -0.001116157 0.96
v 0.4178679 -0.001116157 0.9199998
v 0.4511657 -0.001116157 0.9599998
v -0.4145753 -0.001116157 0.9200001
v 0.4511657 -0.001116157 0.9599998
v 0.4178679 -0.00111711 0.2399998
v 0.4511657 -0.00111711 0.1999998
v 0.4178679 -0.001116157 0.9199998
v -0.4478731 -0.01970994 0.1999998
v 0.4178679 -0.01970994 0.2399998
v 0.4511657 -0.01970994 0.1999998
v -0.4145753 -0.01970994 0.2399998
v 0.4511657 -0.01970994 0.1999998
v 0.4178679 -0.01970994 0.9199998
v 0.4511657 -0.01970994 0.9599998
v 0.4178679 -0.01970994 0.2399998
v 0.4511657 -0.01970994 0.9599998
v -0.4145753 -0.01970994 0.9200001
v -0.4478731 -0.01970994 0.96
v 0.4178679 -0.01970994 0.9199998
v -0.4478731 -0.01970994 0.96
v -0.4145753 -0.01970994 0.2399998
v -0.4478731 -0.01970994 0.1999998
v -0.4145753 -0.01970994 0.9200001
v -0.4145753 -0.00111711 0.2399998
v -0.4145753 -0.01970994 0.9200001
v -0.4145753 -0.001116157 0.9200001
v -0.4145753 -0.01970994 0.2399998
v -0.4145753 -0.001116157 0.9200001
v 0.4178679 -0.01970994 0.9199998
v 0.4178679 -0.001116157 0.9199998
v -0.4145753 -0.01970994 0.9200001
v 0.4178679 -0.001116157 0.9199998
v 0.4178679 -0.01970994 0.2399998
v 0.4178679 -0.00111711 0.2399998
v 0.4178679 -0.01970994 0.9199998
v 0.4178679 -0.00111711 0.2399998
v -0.4145753 -0.01970994 0.2399998
v -0.4145753 -0.00111711 0.2399998
v 0.4178679 -0.01970994 0.2399998
v -0.3093662 -0.01035917 0.2383814
v -0.3093662 -0.01035917 0.9205163
v -0.3166149 -0.001651168 0.9205163
v -0.3166149 -0.001651168 0.2383814
v -0.3166149 -0.001651168 0.2383814
v -0.3166149 -0.001651168 0.9205163
v -0.3238635 -0.01035917 0.9205163
v -0.3238635 -0.01035917 0.2383814
v -0.3238635 -0.01035917 0.2383814
v -0.3238635 -0.01035917 0.9205163
v -0.3166149 -0.01906717 0.9205163
v -0.3166149 -0.01906717 0.2383814
v -0.3166149 -0.01906717 0.2383814
v -0.3166149 -0.01906717 0.9205163
v -0.3093662 -0.01035917 0.9205163
v -0.3093662 -0.01035917 0.2383814
v -0.2427707 -0.01035917 0.2383814
v -0.2427707 -0.01035917 0.9205165
v -0.2500196 -0.001651168 0.9205163
v -0.2500193 -0.001651168 0.2383814
v -0.2500193 -0.001651168 0.2383814
v -0.2500196 -0.001651168 0.9205163
v -0.2572682 -0.01035917 0.9205163
v -0.2572682 -0.01035917 0.2383814
v -0.2572682 -0.01035917 0.2383814
v -0.2572682 -0.01035917 0.9205163
v -0.2500196 -0.01906717 0.9205163
v -0.2500193 -0.01906717 0.2383814
v -0.2500193 -0.01906717 0.2383814
v -0.2500196 -0.01906717 0.9205163
v -0.2427707 -0.01035917 0.9205165
v -0.2427707 -0.01035917 0.2383814
v -0.1761751 -0.01035917 0.2383814
v -0.1761754 -0.01035917 0.9205165
v -0.183424 -0.001651168 0.9205165
v -0.183424 -0.001651168 0.2383814
v -0.183424 -0.001651168 0.2383814
v -0.183424 -0.001651168 0.9205165
v -0.1906729 -0.01035917 0.9205165
v -0.1906726 -0.01035917 0.2383814
v -0.1906726 -0.01035917 0.2383814
v -0.1906729 -0.01035917 0.9205165
v -0.183424 -0.01906717 0.9205165
v -0.183424 -0.01906717 0.2383814
v -0.183424 -0.01906717 0.2383814
v -0.183424 -0.01906717 0.9205165
v -0.1761754 -0.01035917 0.9205165
v -0.1761751 -0.01035917 0.2383814
v -0.1095798 -0.01035917 0.2383814
v -0.1095798 -0.01035917 0.9205165
v -0.1168287 -0.001651168 0.9205165
v -0.1168284 -0.001651168 0.2383814
v -0.1168284 -0.001651168 0.2383814
v -0.1168287 -0.001651168 0.9205165
v -0.1240773 -0.01035917 0.9205165
v -0.1240773 -0.01035917 0.2383814
v -0.1240773 -0.01035917 0.2383814
v -0.1240773 -0.01035917 0.9205165
v -0.1168287 -0.01906717 0.9205165
v -0.1168284 -0.01906717 0.2383814
v -0.1168284 -0.01906717 0.2383814
v -0.1168287 -0.01906717 0.9205165
v -0.1095798 -0.01035917 0.9205165
v -0.1095798 -0.01035917 0.2383814
v -0.04298425 -0.01035917 0.2383814
v -0.04298425 -0.01035917 0.9205165
v -0.05023313 -0.001651168 0.9205165
v -0.05023313 -0.001651168 0.2383814
v -0.05023313 -0.001651168 0.2383814
v -0.05023313 -0.001651168 0.9205165
v -0.05748177 -0.01035917 0.9205165
v -0.05748177 -0.01035917 0.2383814
v -0.05748177 -0.01035917 0.2383814
v -0.05748177 -0.01035917 0.9205165
v -0.05023313 -0.01906717 0.9205165
v -0.05023313 -0.01906717 0.2383814
v -0.05023313 -0.01906717 0.2383814
v -0.05023313 -0.01906717 0.9205165
v -0.04298425 -0.01035917 0.9205165
v -0.04298425 -0.01035917 0.2383814
v 0.02361131 -0.01035917 0.2383814
v 0.02361107 -0.01035917 0.9205165
v 0.01636243 -0.001651168 0.9205165
v 0.01636243 -0.001651168 0.2383814
v 0.01636243 -0.001651168 0.2383814
v 0.01636243 -0.001651168 0.9205165
v 0.00911355 -0.01035917 0.9205165
v 0.009113789 -0.01035917 0.2383814
v 0.009113789 -0.01035917 0.2383814
v 0.00911355 -0.01035917 0.9205165
v 0.01636243 -0.01906717 0.9205165
v 0.01636243 -0.01906717 0.2383814
v 0.01636243 -0.01906717 0.2383814
v 0.01636243 -0.01906717 0.9205165
v 0.02361107 -0.01035917 0.9205165
v 0.02361131 -0.01035917 0.2383814
v 0.09020662 -0.01035917 0.2383814
v 0.09020662 -0.01035917 0.9205165
v 0.08295774 -0.001651168 0.9205165
v 0.08295798 -0.001651168 0.2383814
v 0.08295798 -0.001651168 0.2383814
v 0.08295774 -0.001651168 0.9205165
v 0.0757091 -0.01035917 0.9205165
v 0.0757091 -0.01035917 0.2383814
v 0.0757091 -0.01035917 0.2383814
v 0.0757091 -0.01035917 0.9205165
v 0.08295774 -0.01906717 0.9205165
v 0.08295798 -0.01906717 0.2383814
v 0.08295798 -0.01906717 0.2383814
v 0.08295774 -0.01906717 0.9205165
v 0.09020662 -0.01035917 0.9205165
v 0.09020662 -0.01035917 0.2383814
v 0.1568022 -0.01035917 0.2383814
v 0.1568019 -0.01035917 0.9205165
v 0.1495533 -0.001651168 0.9205165
v 0.1495533 -0.001651168 0.2383814
v 0.1495533 -0.001651168 0.2383814
v 0.1495533 -0.001651168 0.9205165
v 0.1423047 -0.01035917 0.9205165
v 0.1423047 -0.01035917 0.2383814
v 0.1423047 -0.01035917 0.2383814
v 0.1423047 -0.01035917 0.9205165
v 0.1495533 -0.01906717 0.9205165
v 0.1495533 -0.01906717 0.2383814
v 0.1495533 -0.01906717 0.2383814
v 0.1495533 -0.01906717 0.9205165
v 0.1568019 -0.01035917 0.9205165
v 0.1568022 -0.01035917 0.2383814
v 0.2233975 -0.01035917 0.2383814
v 0.2233975 -0.01035917 0.9205165
v 0.2161489 -0.001651168 0.9205165
v 0.2161489 -0.001651168 0.2383814
v 0.2161489 -0.001651168 0.2383814
v 0.2161489 -0.001651168 0.9205165
v 0.2089 -0.01035917 0.9205165
v 0.2089002 -0.01035917 0.2383814
v 0.2089002 -0.01035917 0.2383814
v 0.2089 -0.01035917 0.9205165
v 0.2161489 -0.01906717 0.9205165
v 0.2161489 -0.01906717 0.2383814
v 0.2161489 -0.01906717 0.2383814
v 0.2161489 -0.01906717 0.9205165
v 0.2233975 -0.01035917 0.9205165
v 0.2233975 -0.01035917 0.2383814
v 0.289993 -0.01035917 0.2383814
v 0.289993 -0.01035917 0.9205165
v 0.2827442 -0.001651168 0.9205165
v 0.2827444 -0.001651168 0.2383814
v 0.2827444 -0.001651168 0.2383814
v 0.2827442 -0.001651168 0.9205165
v 0.2754955 -0.01035917 0.9205165
v 0.2754955 -0.01035917 0.2383814
v 0.2754955 -0.01035917 0.2383814
v 0.2754955 -0.01035917 0.9205165
v 0.2827442 -0.01906717 0.9205165
v 0.2827444 -0.01906717 0.2383814
v 0.2827444 -0.01906717 0.2383814
v 0.2827442 -0.01906717 0.9205165
v 0.289993 -0.01035917 0.9205165
v 0.289993 -0.01035917 0.2383814
v 0.3565886 -0.01035917 0.2383814
v 0.3565884 -0.01035917 0.9205165
v 0.3493397 -0.001651168 0.9205165
v 0.3493397 -0.001651168 0.2383814
v 0.3493397 -0.001651168 0.2383814
v 0.3493397 -0.001651168 0.9205165
v 0.3420911 -0.01035917 0.9205165
v 0.3420911 -0.01035917 0.2383814
v 0.3420911 -0.01035917 0.2383814
v 0.3420911 -0.01035917 0.9205165
v 0.3493397 -0.01906717 0.9205165
v 0.3493397 -0.01906717 0.2383814
v 0.3493397 -0.01906717 0.2383814
v 0.3493397 -0.01906717 0.9205165
v 0.3565884 -0.01035917 0.9205165
v 0.3565886 -0.01035917 0.2383814
v -0.425673 -0.9389299 0.8611405
v 0.4509158 -0.6532434 0.8611407
v 0.4326053 -0.9389299 0.8611407
v -0.4439831 -0.6532434 0.8611405
v 0.4326053 -0.9389299 0.2000003
v 0.4509158 -0.6532434 0.8611407
v 0.4509156 -0.6532434 0.2000003
v 0.4326053 -0.9389299 0.8611407
v 0.4124095 -0.9324249 0.2242613
v -0.405477 -0.9324249 0.8368795
v -0.405477 -0.9324249 0.2242608
v 0.4124095 -0.9324249 0.8368797
v -0.4439833 -0.6532434 0.2000003
v -0.425673 -0.9389299 0.8611405
v -0.425673 -0.9389299 0.1999998
v -0.4439831 -0.6532434 0.8611405
v 0.4194424 -0.9789299 0.835197
v 0.4326053 -0.9389299 0.2000003
v 0.4194424 -0.9789299 0.2259436
v 0.4326053 -0.9389299 0.8611407
v -0.4125099 -0.9789299 0.835197
v 0.4326053 -0.9389299 0.8611407
v 0.4194424 -0.9789299 0.835197
v -0.425673 -0.9389299 0.8611405
v -0.4125099 -0.9789299 0.2259436
v -0.425673 -0.9389299 0.8611405
v -0.4125099 -0.9789299 0.835197
v -0.425673 -0.9389299 0.1999998
v -0.4403398 -0.6132435 0.8787594
v -0.4439833 -0.6532434 0.2000003
v -0.4403398 -0.6132435 0.1823812
v -0.4439831 -0.6532434 0.8611405
v 0.4472723 -0.6132435 0.8787596
v -0.4439831 -0.6532434 0.8611405
v -0.4403398 -0.6132435 0.8787594
v 0.4509158 -0.6532434 0.8611407
v 0.4472723 -0.6132435 0.1823812
v 0.4509158 -0.6532434 0.8611407
v 0.4472723 -0.6132435 0.8787596
v 0.4509156 -0.6532434 0.2000003
v -0.405477 -0.6132435 0.2242608
v 0.4472723 -0.6132435 0.1823812
v 0.4124095 -0.6132435 0.2242613
v -0.4403398 -0.6132435 0.1823812
v -0.405477 -0.6132435 0.8368795
v -0.4403398 -0.6132435 0.1823812
v -0.405477 -0.6132435 0.2242608
v -0.4403398 -0.6132435 0.8787594
v 0.4124095 -0.6132435 0.8368797
v -0.4403398 -0.6132435 0.8787594
v -0.405477 -0.6132435 0.8368795
v 0.4472723 -0.6132435 0.8787596
v 0.4124095 -0.6132435 0.2242613
v 0.4472723 -0.6132435 0.8787596
v 0.4124095 -0.6132435 0.8368797
v 0.4472723 -0.6132435 0.1823812
v -0.405477 -0.9324249 0.2242608
v 0.4124095 -0.6132435 0.2242613
v 0.4124095 -0.9324249 0.2242613
v -0.405477 -0.6132435 0.2242608
v -0.405477 -0.9324249 0.8368795
v -0.405477 -0.6132435 0.2242608
v -0.405477 -0.9324249 0.2242608
v -0.405477 -0.6132435 0.8368795
v 0.4124095 -0.9324249 0.8368797
v -0.405477 -0.6132435 0.8368795
v -0.405477 -0.9324249 0.8368795
v 0.4124095 -0.6132435 0.8368797
v 0.4124095 -0.9324249 0.2242613
v 0.4124095 -0.6132435 0.8368797
v 0.4124095 -0.9324249 0.8368797
v 0.4124095 -0.6132435 0.2242613
v -0.4478731 0.4292866 0.96
v -0.4811709 1.019999 0.96
v -0.4478731 0.9799992 0.96
v 0.4844635 1.019999 0.96
v 0.4511657 0.9799992 0.96
v -0.4811709 0.3892866 0.96
v 0.4844635 0.3892866 0.96
v 0.4511657 0.4292866 0.96
v -0.4478731 0.3492867 0.96
v 0.4511657 0.3492867 0.96
v -0.4478731 -0.9800009 0.96
v 0.4844635 -1.020001 0.96
v -0.4811709 -1.020001 0.96
v 0.4511657 -0.9800009 0.96
v -0.4478731 0.9799992 0.115541
v -0.4811707 -1.02 0.115541
v -0.4478731 -0.9799999 0.115541
v -0.4811707 1.019999 0.115541
v 0.4844635 -1.02 0.115541
v 0.4511657 0.9799992 0.115541
v 0.4511657 -0.9799999 0.115541
v 0.4844635 1.019999 0.115541

vn -1 0 -1.192093E-07
vn -1 0 -1.192093E-07
vn -1 0 -1.192093E-07
vn -1 0 -1.192093E-07
vn -0.9394531 0.2181396 -0.2648926
vn -0.6396484 0.5043945 -0.5800781
vn -0.6738281 0.71875 -0.1716309
vn -0.637207 0.1274414 -0.7602539
vn -0.637207 -0.1274414 -0.7602539
vn -0.9394531 -0.2181396 -0.2648926
vn -0.6396484 -0.5043945 -0.5800781
vn -0.6738281 -0.71875 -0.1716309
vn -0.6738281 -0.71875 0.1716309
vn -0.9394531 -0.2181396 -0.2648926
vn -0.9394531 -0.2181396 0.2648926
vn -0.6738281 -0.71875 -0.1716309
vn -0.9394531 -0.2181396 0.2648926
vn -0.6396484 -0.5043945 0.5800781
vn -0.6738281 -0.71875 0.1716309
vn -0.637207 -0.1274414 0.7602539
vn -0.637207 0.1274414 0.7602539
vn -0.9394531 0.2181396 0.2648926
vn -0.6396484 0.5043945 0.5800781
vn -0.6738281 0.71875 0.1716309
vn -0.6738281 0.71875 -0.1716309
vn -0.9394531 0.2181396 0.2648926
vn -0.9394531 0.2181396 -0.2648926
vn -0.6738281 0.71875 0.1716309
vn -0.1721191 0.6538086 -0.7368164
vn -0.6738281 0.71875 -0.1716309
vn -0.6396484 0.5043945 -0.5800781
vn -0.1859131 0.9575195 -0.2194824
vn 0.1721191 0.6538086 -0.7368164
vn 0.1859131 0.9575195 -0.2194824
vn 0.6396484 0.5043945 -0.5800781
vn 0.6738281 0.71875 -0.1716309
vn -0.1859131 0.9575195 0.2194824
vn -0.6738281 0.71875 0.1716309
vn -0.6738281 0.71875 -0.1716309
vn 0.1859131 0.9575195 0.2194824
vn 0.6738281 0.71875 -0.1716309
vn 0.6738281 0.71875 0.1716309
vn -0.1721191 0.6538086 0.7368164
vn -0.6396484 0.5043945 0.5800781
vn -0.6738281 0.71875 0.1716309
vn 0.1721191 0.6538086 0.7368164
vn 0.6738281 0.71875 0.1716309
vn 0.6396484 0.5043945 0.5800781
vn -0.1721191 -0.6538086 -0.7368164
vn -0.637207 -0.1274414 -0.7602539
vn -0.6396484 -0.5043945 -0.5800781
vn -0.1606445 -0.1606445 -0.9736328
vn -0.637207 0.1274414 -0.7602539
vn 0.1721191 -0.6538086 -0.7368164
vn -0.1606445 0.1606445 -0.9736328
vn -0.6396484 0.5043945 -0.5800781
vn -0.1721191 0.6538086 -0.7368164
vn 0.1606445 -0.1606445 -0.9736328
vn 0.6396484 -0.5043945 -0.5800781
vn 0.637207 -0.1274414 -0.7602539
vn 0.1606445 0.1606445 -0.9736328
vn 0.1721191 0.6538086 -0.7368164
vn 0.637207 0.1274414 -0.7602539
vn 0.6396484 0.5043945 -0.5800781
vn -0.2489014 -0.9228516 -0.2939453
vn -0.6396484 -0.5043945 -0.5800781
vn -0.6738281 -0.71875 -0.1716309
vn -0.1721191 -0.6538086 -0.7368164
vn 0.2489014 -0.9228516 -0.2939453
vn 0.1721191 -0.6538086 -0.7368164
vn 0.6738281 -0.71875 -0.1716309
vn 0.6396484 -0.5043945 -0.5800781
vn -0.2489014 -0.9228516 0.2939453
vn -0.6738281 -0.71875 -0.1716309
vn -0.6738281 -0.71875 0.1716309
vn -0.2489014 -0.9228516 -0.2939453
vn -0.1606445 -0.1606445 0.9736328
vn -0.6396484 -0.5043945 0.5800781
vn -0.637207 -0.1274414 0.7602539
vn -0.1606445 0.1606445 0.9736328
vn -0.637207 0.1274414 0.7602539
vn -0.1721191 0.6538086 0.7368164
vn -0.6396484 0.5043945 0.5800781
vn 0.1721191 0.6538086 0.7368164
vn 0.1606445 0.1606445 0.9736328
vn 0.6396484 0.5043945 0.5800781
vn 0.637207 0.1274414 0.7602539
vn 0.1606445 -0.1606445 0.9736328
vn 0.637207 -0.1274414 0.7602539
vn 0.1721191 -0.6538086 0.7368164
vn 0.6738281 -0.71875 0.1716309
vn 0.2489014 -0.9228516 -0.2939453
vn 0.2489014 -0.9228516 0.2939453
vn 0.6738281 -0.71875 -0.1716309
vn 0.2489014 -0.9228516 0.2939453
vn 0.6396484 -0.5043945 0.5800781
vn 0.6738281 -0.71875 0.1716309
vn 0.1721191 -0.6538086 0.7368164
vn 0.637207 -0.1274414 0.7602539
vn -0.2489014 -0.9228516 0.2939453
vn -0.1721191 -0.6538086 0.7368164
vn 0.1606445 -0.1606445 0.9736328
vn -0.6738281 -0.71875 0.1716309
vn -0.1606445 -0.1606445 0.9736328
vn -0.6396484 -0.5043945 0.5800781
vn 0.6738281 0.71875 -0.1716309
vn 0.6396484 0.5043945 -0.5800781
vn 0.9394531 0.2181396 -0.2648926
vn 0.637207 0.1274414 -0.7602539
vn 0.9394531 -0.2181396 -0.2648926
vn 0.637207 -0.1274414 -0.7602539
vn 0.6396484 -0.5043945 -0.5800781
vn 0.6738281 -0.71875 -0.1716309
vn 0.9394531 -0.2181396 0.2648926
vn 0.6738281 -0.71875 -0.1716309
vn 0.6738281 -0.71875 0.1716309
vn 0.9394531 -0.2181396 -0.2648926
vn 0.6738281 -0.71875 0.1716309
vn 0.6396484 -0.5043945 0.5800781
vn 0.9394531 -0.2181396 0.2648926
vn 0.637207 -0.1274414 0.7602539
vn 0.9394531 0.2181396 0.2648926
vn 0.637207 0.1274414 0.7602539
vn 0.6396484 0.5043945 0.5800781
vn 0.6738281 0.71875 0.1716309
vn 0.9394531 0.2181396 -0.2648926
vn 0.6738281 0.71875 0.1716309
vn 0.6738281 0.71875 -0.1716309
vn 0.9394531 0.2181396 0.2648926
vn 1 0 1.192093E-07
vn 1 0 1.192093E-07
vn 1 0 1.192093E-07
vn 1 0 1.192093E-07
vn -1 0 -1.192093E-07
vn -1 0 -1.192093E-07
vn -1 0 -1.192093E-07
vn -1 0 -1.192093E-07
vn 1.192093E-07 0 -1
vn 1.192093E-07 0 -1
vn 1.192093E-07 0 -1
vn 1.192093E-07 0 -1
vn 1 0 1.192093E-07
vn 1 0 1.192093E-07
vn 1 0 1.192093E-07
vn 1 0 1.192093E-07
vn -1.192093E-07 0 1
vn -1.192093E-07 0 1
vn -1.192093E-07 0 1
vn -1.192093E-07 0 1
vn -1.072884E-06 0 1
vn -1.072884E-06 0 1
vn -1.072884E-06 0 1
vn -1.072884E-06 0 1
vn -1.072884E-06 0 1
vn 0 1 0
vn 0 1 0
vn 0 1 0
vn 0 1 0
vn 1.072884E-06 0 -1
vn 1.072884E-06 0 -1
vn 1.072884E-06 0 -1
vn 1.072884E-06 0 -1
vn 1.072884E-06 0 -1
vn 0 -1 0
vn 0 -1 0
vn 0 -1 0
vn 0 -1 0
vn -1 0 -1.192093E-07
vn -1 0 -1.192093E-07
vn -1 0 -1.192093E-07
vn -1 0 -1.192093E-07
vn -1.192093E-07 0 1
vn -1.192093E-07 0 1
vn -1.192093E-07 0 1
vn -1.192093E-07 0 1
vn 0 1 0
vn 0 1 0
vn 0 1 0
vn 0 1 0
vn 1.192093E-07 0 -1
vn 1.192093E-07 0 -1
vn 1.192093E-07 0 -1
vn 1.192093E-07 0 -1
vn 0 -1 0
vn 0 -1 0
vn 0 -1 0
vn 0 -1 0
vn 0 1 0
vn 0 1 0
vn 0 1 0
vn 0 1 0
vn 1.192093E-07 0 -1
vn 1.192093E-07 0 -1
vn 1.192093E-07 0 -1
vn 1.192093E-07 0 -1
vn 0 -1 0
vn 0 -1 0
vn 0 -1 0
vn 0 -1 0
vn -1.192093E-07 0 1
vn -1.192093E-07 0 1
vn -1.192093E-07 0 1
vn -1.192093E-07 0 1
vn -1.192093E-07 0 1
vn -1.192093E-07 0 1
vn -1.192093E-07 0 1
vn -1.192093E-07 0 1
vn 0 -1 0
vn 0 -1 0
vn 0 -1 0
vn 0 -1 0
vn 1.192093E-07 0 -1
vn 1.192093E-07 0 -1
vn 1.192093E-07 0 -1
vn 1.192093E-07 0 -1
vn 0 1 0
vn 0 1 0
vn 0 1 0
vn 0 1 0
vn -1 0 -1.192093E-07
vn -1 0 -1.192093E-07
vn -1 0 -1.192093E-07
vn -1 0 -1.192093E-07
vn 0 1 0
vn 0 1 0
vn 0 1 0
vn 0 1 0
vn 0 1 0
vn 0 1 0
vn 0 1 0
vn 0 1 0
vn 0 1 0
vn 0 1 0
vn 0 1 0
vn 0 1 0
vn 0 1 0
vn 0 1 0
vn 0 1 0
vn 0 1 0
vn 0 -1 0
vn 0 -1 0
vn 0 -1 0
vn 0 -1 0
vn 0 -1 0
vn 0 -1 0
vn 0 -1 0
vn 0 -1 0
vn 0 -1 0
vn 0 -1 0
vn 0 -1 0
vn 0 -1 0
vn 0 -1 0
vn 0 -1 0
vn 0 -1 0
vn 0 -1 0
vn -1.192093E-07 0 1
vn -1.192093E-07 0 1
vn -1.192093E-07 0 1
vn -1.192093E-07 0 1
vn 1 0 1.192093E-07
vn 1 0 1.192093E-07
vn 1 0 1.192093E-07
vn 1 0 1.192093E-07
vn 1.192093E-07 0 -1
vn 1.192093E-07 0 -1
vn 1.192093E-07 0 -1
vn 1.192093E-07 0 -1
vn -1 0 -1.192093E-07
vn -1 -2.026558E-06 -1.192093E-07
vn -1 -2.026558E-06 -1.192093E-07
vn -1 0 -1.192093E-07
vn -1.192093E-07 -7.152557E-07 1
vn -1.192093E-07 7.152557E-07 1
vn 0 1 0
vn 0 1 1.072884E-06
vn 0 1 1.072884E-06
vn 0 1 0
vn 1.192093E-07 -8.34465E-07 -1
vn 1.192093E-07 7.748604E-07 -1
vn 1.192093E-07 7.748604E-07 -1
vn 1.192093E-07 -8.34465E-07 -1
vn 0 -1 2.384186E-06
vn 0 -1 -1.132488E-06
vn 0 -1 -1.132488E-06
vn 0 -1 2.384186E-06
vn -1.192093E-07 7.152557E-07 1
vn -1.192093E-07 -7.152557E-07 1
vn -1.192093E-07 -7.152557E-07 1
vn -1.192093E-07 7.152557E-07 1
vn 0 1 -1.072884E-06
vn 0 1 1.072884E-06
vn 0 1 1.072884E-06
vn 0 1 -1.072884E-06
vn 1.192093E-07 -7.748604E-07 -1
vn 1.192093E-07 7.748604E-07 -1
vn 1.192093E-07 7.748604E-07 -1
vn 1.192093E-07 -7.748604E-07 -1
vn 0 -1 1.072884E-06
vn 0 -1 -1.072884E-06
vn 0 -1 -1.072884E-06
vn 0 -1 1.072884E-06
vn -1.192093E-07 7.152557E-07 1
vn -1.192093E-07 -7.152557E-07 1
vn -1.192093E-07 -7.152557E-07 1
vn -1.192093E-07 7.152557E-07 1
vn 0 1 -1.072884E-06
vn 0 1 1.072884E-06
vn 0 1 1.072884E-06
vn 0 1 -1.072884E-06
vn 1.192093E-07 -7.748604E-07 -1
vn 1.192093E-07 7.748604E-07 -1
vn 1.192093E-07 7.748604E-07 -1
vn 1.192093E-07 -7.748604E-07 -1
vn 0 -1 1.072884E-06
vn 0 -1 -1.072884E-06
vn 0 -1 -1.072884E-06
vn 0 -1 1.072884E-06
vn -1.192093E-07 7.152557E-07 1
vn -1.192093E-07 -7.152557E-07 1
vn -1.192093E-07 0 1
vn -1.192093E-07 7.152557E-07 1
vn 0 1 -1.430511E-06
vn 0 1 1.072884E-06
vn 0 1 1.072884E-06
vn 0 1 -1.430511E-06
vn 1.192093E-07 -7.152557E-07 -1
vn 1.192093E-07 1.251698E-06 -1
vn 1.192093E-07 1.251698E-06 -1
vn 1.192093E-07 -7.152557E-07 -1
vn 0 -1 7.152557E-07
vn 0 -1 -1.072884E-06
vn 0 -1 -1.072884E-06
vn 0 -1 7.152557E-07
vn -1.192093E-07 7.152557E-07 1
vn -1.192093E-07 0 1
vn -1.192093E-07 -7.152557E-07 1
vn -1.192093E-07 7.152557E-07 1
vn 0 1 -1.251698E-06
vn 0 1 8.940697E-07
vn 0 1 8.940697E-07
vn 0 1 -1.251698E-06
vn 1.192093E-07 -7.748604E-07 -1
vn 1.192093E-07 7.748604E-07 -1
vn 1.192093E-07 7.748604E-07 -1
vn 1.192093E-07 -7.748604E-07 -1
vn 0 -1 8.940697E-07
vn 0 -1 -1.251698E-06
vn 0 -1 -1.251698E-06
vn 0 -1 8.940697E-07
vn -1.192093E-07 7.152557E-07 1
vn -1.192093E-07 -7.152557E-07 1
vn -1.192093E-07 -7.152557E-07 1
vn -1.192093E-07 7.748604E-07 1
vn 0 1 -1.192093E-06
vn 0 1 9.536743E-07
vn 0 1 9.536743E-07
vn 0 1 -1.192093E-06
vn 1.192093E-07 -7.748604E-07 -1
vn 1.192093E-07 7.152557E-07 -1
vn 1.192093E-07 7.152557E-07 -1
vn 1.192093E-07 -7.748604E-07 -1
vn 0 -1 1.192093E-06
vn 0 -1 -1.192093E-06
vn 0 -1 -1.192093E-06
vn 0 -1 1.192093E-06
vn -1.192093E-07 7.748604E-07 1
vn -1.192093E-07 -7.152557E-07 1
vn -1.192093E-07 -7.152557E-07 1
vn -1.192093E-07 7.152557E-07 1
vn 0 1 -1.072884E-06
vn 0 1 1.251698E-06
vn 0 1 1.251698E-06
vn 0 1 -1.072884E-06
vn 1.192093E-07 -7.152557E-07 -1
vn 1.192093E-07 7.152557E-07 -1
vn 1.192093E-07 7.152557E-07 -1
vn 1.192093E-07 -7.152557E-07 -1
vn 0 -1 1.072884E-06
vn 0 -1 -8.940697E-07
vn 0 -1 -8.940697E-07
vn 0 -1 1.072884E-06
vn -1.192093E-07 7.152557E-07 1
vn -1.192093E-07 -7.152557E-07 1
vn -1.192093E-07 -7.152557E-07 1
vn -1.192093E-07 7.152557E-07 1
vn 0 1 -1.072884E-06
vn 0 1 1.072884E-06
vn 0 1 1.072884E-06
vn 0 1 -1.072884E-06
vn 1.192093E-07 -7.748604E-07 -1
vn 1.192093E-07 7.748604E-07 -1
vn 1.192093E-07 7.748604E-07 -1
vn 1.192093E-07 -7.748604E-07 -1
vn 0 -1 1.072884E-06
vn 0 -1 -1.072884E-06
vn 0 -1 -1.072884E-06
vn 0 -1 1.072884E-06
vn -1.192093E-07 7.152557E-07 1
vn -1.192093E-07 -7.152557E-07 1
vn -1.192093E-07 -7.152557E-07 1
vn -1.192093E-07 7.152557E-07 1
vn 0 1 -1.072884E-06
vn 0 1 1.072884E-06
vn 0 1 1.072884E-06
vn 0 1 -1.072884E-06
vn 1.192093E-07 -7.748604E-07 -1
vn 1.192093E-07 7.748604E-07 -1
vn 1.192093E-07 7.748604E-07 -1
vn 1.192093E-07 -7.748604E-07 -1
vn 0 -1 1.072884E-06
vn 0 -1 -1.072884E-06
vn 0 -1 -1.072884E-06
vn 0 -1 1.072884E-06
vn -1.192093E-07 7.152557E-07 1
vn -1.192093E-07 -7.152557E-07 1
vn -1.192093E-07 -7.152557E-07 1
vn -1.192093E-07 7.152557E-07 1
vn 0 1 -1.072884E-06
vn 0 1 1.072884E-06
vn 0 1 1.072884E-06
vn 0 1 -1.072884E-06
vn 1.192093E-07 -7.748604E-07 -1
vn 1.192093E-07 7.748604E-07 -1
vn 1.192093E-07 7.748604E-07 -1
vn 1.192093E-07 -7.748604E-07 -1
vn 0 -1 1.072884E-06
vn 0 -1 -1.072884E-06
vn 0 -1 -1.072884E-06
vn 0 -1 1.072884E-06
vn -1.192093E-07 7.152557E-07 1
vn -1.192093E-07 -7.152557E-07 1
vn -1.192093E-07 -7.152557E-07 1
vn -1.192093E-07 7.152557E-07 1
vn 0 1 -1.072884E-06
vn 0 1 1.072884E-06
vn 0 1 1.072884E-06
vn 0 1 -1.072884E-06
vn 1.192093E-07 -7.748604E-07 -1
vn 1.192093E-07 8.34465E-07 -1
vn 1.192093E-07 8.34465E-07 -1
vn 1.192093E-07 -7.748604E-07 -1
vn 0 -1 1.132488E-06
vn 0 -1 -1.132488E-06
vn 0 -1 -1.132488E-06
vn 0 -1 1.132488E-06
vn -1.192093E-07 7.152557E-07 1
vn -1.192093E-07 -7.152557E-07 1
vn -1 0 -1.192093E-07
vn -1 0 -1.192093E-07
vn -1 0 -1.192093E-07
vn -1 0 -1.192093E-07
vn -4.768372E-07 1 0
vn -4.768372E-07 1 0
vn -4.768372E-07 1 0
vn -4.768372E-07 1 0
vn 0 1 0
vn 0 1 0
vn 0 1 0
vn 0 1 7.152557E-07
vn 0 1 0
vn 0 1 0
vn 0 1 0
vn 0 1 0
vn 0 1 -7.152557E-07
vn 0 1 -7.152557E-07
vn 0 1 -7.152557E-07
vn 0 1 0
vn 4.768372E-07 -1 0
vn 4.768372E-07 -1 0
vn 4.768372E-07 -1 0
vn 4.768372E-07 -1 0
vn 0 -1 0
vn 0 -1 0
vn 0 -1 0
vn 0 -1 7.152557E-07
vn 0 -1 0
vn 0 -1 0
vn 0 -1 0
vn 0 -1 0
vn 0 -1 -7.152557E-07
vn 0 -1 -7.152557E-07
vn 0 -1 -7.152557E-07
vn 0 -1 0
vn -1.192093E-07 0 1
vn -1.192093E-07 0 1
vn -1.192093E-07 0 1
vn -1.192093E-07 0 1
vn 1 0 1.192093E-07
vn 1 0 1.192093E-07
vn 1 0 1.192093E-07
vn 1 0 1.192093E-07
vn 1.192093E-07 0 -1
vn 1.192093E-07 0 -1
vn 1.192093E-07 0 -1
vn 1.192093E-07 0 -1
vn -1 0 -1.192093E-07
vn -1 -2.026558E-06 -1.192093E-07
vn -1 -2.026558E-06 -1.192093E-07
vn -1 0 -1.192093E-07
vn -1.192093E-07 0 1
vn -1.192093E-07 0 1
vn 0 1 1.609325E-06
vn 0 1 0
vn 0 1 0
vn 0 1 1.609325E-06
vn 1.192093E-07 0 -1
vn 1.192093E-07 0 -1
vn 1.192093E-07 0 -1
vn 1.192093E-07 0 -1
vn 0 -1 1.072884E-06
vn 0 -1 0
vn 0 -1 0
vn 0 -1 1.072884E-06
vn -1.192093E-07 0 1
vn -1.192093E-07 0 1
vn -1.192093E-07 0 1
vn -1.192093E-07 0 1
vn 0 1 0
vn 0 1 0
vn 0 1 0
vn 0 1 0
vn 1.192093E-07 0 -1
vn 1.192093E-07 0 -1
vn 1.192093E-07 0 -1
vn 1.192093E-07 0 -1
vn 0 -1 0
vn 0 -1 0
vn 0 -1 0
vn 0 -1 0
vn -1.192093E-07 0 1
vn -1.192093E-07 0 1
vn -1.192093E-07 0 1
vn -1.192093E-07 0 1
vn 0 1 0
vn 0 1 0
vn 0 1 0
vn 0 1 0
vn 1.192093E-07 0 -1
vn 1.192093E-07 -6.556511E-07 -1
vn 1.192093E-07 -6.556511E-07 -1
vn 1.192093E-07 0 -1
vn 0 -1 0
vn 0 -1 9.536743E-07
vn 0 -1 9.536743E-07
vn 0 -1 0
vn -1.192093E-07 0 1
vn -1.192093E-07 0 1
vn -1.192093E-07 -7.748604E-07 1
vn -1.192093E-07 7.748604E-07 1
vn 0 1 -1.311302E-06
vn 0 1 1.072884E-06
vn 0 1 1.072884E-06
vn 0 1 -1.311302E-06
vn 1.192093E-07 -7.748604E-07 -1
vn 1.192093E-07 7.152557E-07 -1
vn 1.192093E-07 7.152557E-07 -1
vn 1.192093E-07 -7.748604E-07 -1
vn 0 -1 8.34465E-07
vn 0 -1 -1.072884E-06
vn 0 -1 -1.072884E-06
vn 0 -1 8.34465E-07
vn -1.192093E-07 7.748604E-07 1
vn -1.192093E-07 -7.748604E-07 1
vn -1.192093E-07 -7.152557E-07 1
vn -1.192093E-07 7.748604E-07 1
vn 0 1 -1.192093E-06
vn 0 1 1.013279E-06
vn 0 1 1.013279E-06
vn 0 1 -1.192093E-06
vn 1.192093E-07 -7.152557E-07 -1
vn 1.192093E-07 7.152557E-07 -1
vn 1.192093E-07 7.152557E-07 -1
vn 1.192093E-07 -7.152557E-07 -1
vn 0 -1 1.013279E-06
vn 0 -1 -1.192093E-06
vn 0 -1 -1.192093E-06
vn 0 -1 1.013279E-06
vn -1.192093E-07 7.748604E-07 1
vn -1.192093E-07 -7.152557E-07 1
vn -1.192093E-07 -7.152557E-07 1
vn -1.192093E-07 8.940697E-07 1
vn 0 1 -1.132488E-06
vn 0 1 1.132488E-06
vn 0 1 1.132488E-06
vn 0 1 -1.132488E-06
vn 1.192093E-07 -8.940697E-07 -1
vn 1.192093E-07 7.152557E-07 -1
vn 1.192093E-07 7.152557E-07 -1
vn 1.192093E-07 -8.940697E-07 -1
vn 0 -1 1.192093E-06
vn 0 -1 -1.072884E-06
vn 0 -1 -1.072884E-06
vn 0 -1 1.192093E-06
vn -1.192093E-07 8.940697E-07 1
vn -1.192093E-07 -7.152557E-07 1
vn -1.192093E-07 -7.748604E-07 1
vn -1.192093E-07 7.748604E-07 1
vn 0 1 -1.072884E-06
vn 0 1 1.132488E-06
vn 0 1 1.132488E-06
vn 0 1 -1.072884E-06
vn 1.192093E-07 -7.152557E-07 -1
vn 1.192093E-07 7.748604E-07 -1
vn 1.192093E-07 7.748604E-07 -1
vn 1.192093E-07 -7.152557E-07 -1
vn 0 -1 1.072884E-06
vn 0 -1 -9.536743E-07
vn 0 -1 -9.536743E-07
vn 0 -1 1.072884E-06
vn -1.192093E-07 7.748604E-07 1
vn -1.192093E-07 -7.748604E-07 1
vn -1.192093E-07 -7.748604E-07 1
vn -1.192093E-07 7.748604E-07 1
vn 0 1 -1.072884E-06
vn 0 1 1.072884E-06
vn 0 1 1.072884E-06
vn 0 1 -1.072884E-06
vn 1.192093E-07 -7.152557E-07 -1
vn 1.192093E-07 7.152557E-07 -1
vn 1.192093E-07 7.152557E-07 -1
vn 1.192093E-07 -7.152557E-07 -1
vn 0 -1 1.072884E-06
vn 0 -1 -1.072884E-06
vn 0 -1 -1.072884E-06
vn 0 -1 1.072884E-06
vn -1.192093E-07 7.748604E-07 1
vn -1.192093E-07 -7.748604E-07 1
vn -1.192093E-07 -7.748604E-07 1
vn -1.192093E-07 7.748604E-07 1
vn 0 1 -1.072884E-06
vn 0 1 1.072884E-06
vn 0 1 1.072884E-06
vn 0 1 -1.072884E-06
vn 1.192093E-07 -7.152557E-07 -1
vn 1.192093E-07 7.152557E-07 -1
vn 1.192093E-07 7.152557E-07 -1
vn 1.192093E-07 -7.152557E-07 -1
vn 0 -1 1.072884E-06
vn 0 -1 -1.072884E-06
vn 0 -1 -1.072884E-06
vn 0 -1 1.072884E-06
vn -1.192093E-07 7.748604E-07 1
vn -1.192093E-07 -7.748604E-07 1
vn -1.192093E-07 -7.748604E-07 1
vn -1.192093E-07 7.748604E-07 1
vn 0 1 -1.072884E-06
vn 0 1 1.072884E-06
vn 0 1 1.072884E-06
vn 0 1 -1.072884E-06
vn 1.192093E-07 -7.152557E-07 -1
vn 1.192093E-07 7.152557E-07 -1
vn 1.192093E-07 7.152557E-07 -1
vn 1.192093E-07 -7.152557E-07 -1
vn 0 -1 1.072884E-06
vn 0 -1 -1.072884E-06
vn 0 -1 -1.072884E-06
vn 0 -1 1.072884E-06
vn -1.192093E-07 7.748604E-07 1
vn -1.192093E-07 -7.748604E-07 1
vn -1.192093E-07 -7.748604E-07 1
vn -1.192093E-07 7.748604E-07 1
vn 0 1 -1.072884E-06
vn 0 1 1.072884E-06
vn 0 1 1.072884E-06
vn 0 1 -1.072884E-06
vn 1.192093E-07 -7.748604E-07 -1
vn 1.192093E-07 7.152557E-07 -1
vn 1.192093E-07 7.152557E-07 -1
vn 1.192093E-07 -7.748604E-07 -1
vn 0 -1 1.072884E-06
vn 0 -1 -1.072884E-06
vn 0 -1 -1.072884E-06
vn 0 -1 1.072884E-06
vn -1.192093E-07 7.748604E-07 1
vn -1.192093E-07 -7.748604E-07 1
vn -1 0 -1.192093E-07
vn -1 0 -1.192093E-07
vn -1 0 -1.192093E-07
vn -1 0 -1.192093E-07
vn -1.192093E-07 -0.06396484 0.9980469
vn -1.192093E-07 -0.06396484 0.9980469
vn -1.192093E-07 -0.06396484 0.9980469
vn -1.192093E-07 -0.06396484 0.9980469
vn 0 1 0
vn 0 1 0
vn 0 1 0
vn 0 1 0
vn 1.192093E-07 -0.06396484 -0.9980469
vn 1.192093E-07 -0.06396484 -0.9980469
vn 1.192093E-07 -0.06396484 -0.9980469
vn 1.192093E-07 -0.06396484 -0.9980469
vn -1.192093E-07 -0.3125 0.949707
vn -1.192093E-07 -0.3125 0.949707
vn -1.192093E-07 -0.3125 0.949707
vn -1.192093E-07 -0.3125 0.949707
vn -0.8388672 -0.5439453 -1.192093E-07
vn -0.8388672 -0.5439453 -1.192093E-07
vn -0.8388672 -0.5439453 -1.192093E-07
vn -0.8388672 -0.5439453 -1.192093E-07
vn 1.192093E-07 -0.3125 -0.949707
vn 1.192093E-07 -0.3125 -0.949707
vn 1.192093E-07 -0.3125 -0.949707
vn 1.192093E-07 -0.3125 -0.949707
vn 1.192093E-07 0.09069824 -0.9960938
vn 1.192093E-07 0.09069824 -0.9960938
vn 1.192093E-07 0.09069824 -0.9960938
vn 1.192093E-07 0.09069824 -0.9960938
vn -0.9150391 -0.4030762 -1.192093E-07
vn -0.9150391 -0.4030762 -1.192093E-07
vn -0.9150391 -0.4030762 -1.192093E-07
vn -0.9150391 -0.4030762 -1.192093E-07
vn -1.192093E-07 0.09069824 0.9960938
vn -1.192093E-07 0.09069824 0.9960938
vn -1.192093E-07 0.09069824 0.9960938
vn -1.192093E-07 0.09069824 0.9960938
vn 0 1 0
vn 0 1 0
vn 0 1 0
vn 0 1 0
vn 0 1 0
vn 0 1 0
vn 0 1 0
vn 0 1 0
vn 0 1 0
vn 0 1 0
vn 0 1 0
vn 0 1 0
vn 0 1 0
vn 0 1 0
vn 0 1 0
vn 0 1 0
vn -1 0 -1.192093E-07
vn -1 0 -1.192093E-07
vn -1 0 -1.192093E-07
vn -1 0 -1.192093E-07
vn -1.192093E-07 0 1
vn -1.192093E-07 0 1
vn -1.192093E-07 0 1
vn -1.192093E-07 0 1
vn 1 0 1.192093E-07
vn 1 0 1.192093E-07
vn 1 0 1.192093E-07
vn 1 0 1.192093E-07
vn 1.192093E-07 0 -1
vn 1.192093E-07 0 -1
vn 1.192093E-07 0 -1
vn 1.192093E-07 0 -1
vn -1 0 -1.192093E-07
vn -1 0 -1.192093E-07
vn -1 0 -1.192093E-07
vn -1 0 -1.192093E-07
vn -1 0 -1.192093E-07
vn -1 0 -1.192093E-07
vn -1 0 -1.192093E-07
vn -1 0 -1.192093E-07
vn -1 0 -1.192093E-07
vn -1 0 -1.192093E-07
vn -1 0 -1.192093E-07
vn -1 0 -1.192093E-07
vn -1 0 -1.192093E-07
vn -1 0 -1.192093E-07
vn 1 0 1.251698E-06
vn 1 0 1.251698E-06
vn 1 0 1.192093E-07
vn 1 0 1.251698E-06
vn 1 0 1.192093E-07
vn 1 0 1.192093E-07
vn 1 0 1.192093E-07
vn 1 0 1.192093E-07

vt 0.3591309 0.6518555
vt 0.4299316 0.6879883
vt 0.4299316 0.6518555
vt 0.3591309 0.6879883
vt 0.1937256 0.503418
vt 0.1953125 0.5073242
vt 0.197876 0.5058594
vt 0.1925049 0.5073242
vt 0.01541901 0.5073242
vt 0.01419067 0.503418
vt 0.01263428 0.5073242
vt 0.009773254 0.5058594
vt 0.4204102 0.7558594
vt 0.3581543 0.7583008
vt 0.4204102 0.7583008
vt 0.3581543 0.7558594
vt 0.4907227 0.5024414
vt 0.4921875 0.5063477
vt 0.494873 0.5048828
vt 0.489502 0.5068359
vt 0.3122559 0.5068359
vt 0.3110352 0.5024414
vt 0.3095703 0.5068359
vt 0.3066406 0.5048828
vt 0.2003174 0.5058594
vt 0.3041992 0.5014648
vt 0.2003174 0.5014648
vt 0.3041992 0.5053711
vt 0.196167 0.5112305
vt 0.197876 0.5058594
vt 0.1953125 0.5073242
vt 0.2004395 0.5097656
vt 0.1965332 0.5874023
vt 0.2006836 0.5888672
vt 0.1954346 0.5913086
vt 0.1983643 0.5932617
vt 0.3041992 0.5092773
vt 0.3041992 0.5053711
vt 0.2003174 0.5058594
vt 0.3046875 0.5883789
vt 0.2008057 0.5927734
vt 0.3046875 0.5922852
vt 0.3085938 0.5107422
vt 0.3095703 0.5068359
vt 0.3066406 0.5048828
vt 0.3088379 0.5869141
vt 0.3071289 0.5922852
vt 0.3095703 0.5908203
vt 0.0116272 0.5112305
vt 0.01541901 0.5073242
vt 0.01263428 0.5073242
vt 0.01565552 0.5117188
vt 0.1925049 0.5073242
vt 0.01195526 0.5878906
vt 0.1922607 0.5112305
vt 0.1953125 0.5073242
vt 0.196167 0.5112305
vt 0.01589966 0.5874023
vt 0.01280975 0.5917969
vt 0.01557922 0.5913086
vt 0.1925049 0.5874023
vt 0.1965332 0.5874023
vt 0.192749 0.5913086
vt 0.1954346 0.5913086
vt 0.007377625 0.5102539
vt 0.01263428 0.5073242
vt 0.009773254 0.5058594
vt 0.0116272 0.5112305
vt 0.007724762 0.5888672
vt 0.01195526 0.5878906
vt 0.01023865 0.5932617
vt 0.01280975 0.5917969
vt 0.4204102 0.753418
vt 0.3581543 0.7558594
vt 0.4204102 0.7558594
vt 0.3581543 0.753418
vt 0.4890137 0.5107422
vt 0.4921875 0.5063477
vt 0.489502 0.5068359
vt 0.3125 0.5107422
vt 0.3122559 0.5068359
vt 0.3085938 0.5107422
vt 0.3095703 0.5068359
vt 0.3088379 0.5869141
vt 0.3127441 0.5869141
vt 0.3095703 0.5908203
vt 0.3125 0.5908203
vt 0.4892578 0.5864258
vt 0.489502 0.5908203
vt 0.4934082 0.5869141
vt 0.3059082 0.7832031
vt 0.2020264 0.7880859
vt 0.3059082 0.7871094
vt 0.2020264 0.7836914
vt 0.4975586 0.5878906
vt 0.4924316 0.5908203
vt 0.4953613 0.5922852
vt 0.4934082 0.5869141
vt 0.489502 0.5908203
vt 0.4973145 0.5092773
vt 0.4931641 0.5102539
vt 0.4892578 0.5864258
vt 0.494873 0.5048828
vt 0.4890137 0.5107422
vt 0.4921875 0.5063477
vt 0.1983643 0.5932617
vt 0.1954346 0.5913086
vt 0.1939697 0.5957031
vt 0.192749 0.5913086
vt 0.01441956 0.5957031
vt 0.01557922 0.5913086
vt 0.01280975 0.5917969
vt 0.01023865 0.5932617
vt 0.3059082 0.7788086
vt 0.2020264 0.7836914
vt 0.3059082 0.7832031
vt 0.2020264 0.7797852
vt 0.4953613 0.5922852
vt 0.4924316 0.5908203
vt 0.4907227 0.5947266
vt 0.489502 0.5908203
vt 0.3112793 0.5947266
vt 0.3125 0.5908203
vt 0.3095703 0.5908203
vt 0.3071289 0.5922852
vt 0.2008057 0.597168
vt 0.3046875 0.5922852
vt 0.2008057 0.5927734
vt 0.3046875 0.5966797
vt 0.4833984 0.6958008
vt 0.4382324 0.777832
vt 0.4833984 0.777832
vt 0.4382324 0.6958008
vt 0.494873 0.7124023
vt 0.4904785 0.7749023
vt 0.494873 0.7749023
vt 0.4907227 0.7124023
vt 0.494873 0.7749023
vt 0.4904785 0.8217773
vt 0.4946289 0.8217773
vt 0.4904785 0.7749023
vt 0.4953613 0.6030273
vt 0.4907227 0.6650391
vt 0.4951172 0.6650391
vt 0.4909668 0.6030273
vt 0.4951172 0.6650391
vt 0.4907227 0.7124023
vt 0.494873 0.7124023
vt 0.4907227 0.6650391
vt 0.4990234 0.9082031
vt 0.4995117 0.7988281
vt 0.4973145 0.7988281
vt 0.5004883 0.8745117
vt 0.5009766 0.9082031
vt 0.4973145 0.7988281
vt 0.4995117 0.7368164
vt 0.4973145 0.7368164
vt 0.4995117 0.7988281
vt 0.4973145 0.7368164
vt 0.4978027 0.6269531
vt 0.4956055 0.6269531
vt 0.498291 0.6611328
vt 0.4995117 0.7368164
vt 0.4194336 0.7675781
vt 0.3571777 0.765625
vt 0.3571777 0.7675781
vt 0.4194336 0.7651367
vt 0.05923462 0.7646484
vt 0.1188354 0.7163086
vt 0.05923462 0.7163086
vt 0.1188354 0.7646484
vt 0.3093262 0.6879883
vt 0.3591309 0.6518555
vt 0.3093262 0.6518555
vt 0.3591309 0.6879883
vt 0.3591309 0.6020508
vt 0.4299316 0.6518555
vt 0.4299316 0.6020508
vt 0.3591309 0.6518555
vt 0.4797363 0.6518555
vt 0.4299316 0.6879883
vt 0.4797363 0.6879883
vt 0.4299316 0.6518555
vt 0.4299316 0.737793
vt 0.3591309 0.6879883
vt 0.3591309 0.737793
vt 0.4299316 0.6879883
vt 0.02514648 0.7646484
vt 0.05923462 0.7163086
vt 0.02514648 0.7163086
vt 0.05923462 0.7646484
vt 0.05923462 0.6821289
vt 0.1188354 0.7163086
vt 0.1188354 0.6821289
vt 0.05923462 0.7163086
vt 0.1529541 0.7163086
vt 0.1188354 0.7646484
vt 0.1529541 0.7646484
vt 0.1188354 0.7163086
vt 0.1188354 0.7988281
vt 0.05923462 0.7646484
vt 0.05923462 0.7988281
vt 0.1188354 0.7646484
vt 0.4851074 0.6958008
vt 0.4833984 0.777832
vt 0.4851074 0.777832
vt 0.4833984 0.6958008
vt 0.4833984 0.7797852
vt 0.4382324 0.777832
vt 0.4382324 0.7797852
vt 0.4833984 0.777832
vt 0.4365234 0.777832
vt 0.4382324 0.6958008
vt 0.4365234 0.6958008
vt 0.4382324 0.777832
vt 0.4382324 0.6943359
vt 0.4833984 0.6958008
vt 0.4833984 0.6943359
vt 0.4382324 0.6958008
vt 0.3300781 0.7856445
vt 0.4174805 0.7871094
vt 0.4174805 0.7856445
vt 0.3300781 0.7871094
vt 0.3300781 0.7866211
vt 0.4140625 0.7895508
vt 0.4174805 0.7861328
vt 0.333252 0.7900391
vt 0.3557129 0.7866211
vt 0.4138184 0.7895508
vt 0.4172363 0.7866211
vt 0.3588867 0.7895508
vt 0.4174805 0.7949219
vt 0.333252 0.7915039
vt 0.3300781 0.7949219
vt 0.4140625 0.7915039
vt 0.3557129 0.7866211
vt 0.4140625 0.7900391
vt 0.4172363 0.7866211
vt 0.3588867 0.7900391
vt 0.4174805 0.7944336
vt 0.333252 0.7915039
vt 0.3300781 0.7949219
vt 0.4140625 0.7910156
vt 0.4172363 0.7944336
vt 0.3588867 0.7915039
vt 0.3557129 0.7949219
vt 0.4140625 0.7915039
vt 0.3300781 0.7871094
vt 0.4140625 0.7900391
vt 0.4174805 0.7871094
vt 0.333252 0.7900391
vt 0.4172363 0.7944336
vt 0.3588867 0.7910156
vt 0.3557129 0.7944336
vt 0.4138184 0.7915039
vt 0.3588867 0.7895508
vt 0.4138184 0.7915039
vt 0.4138184 0.7895508
vt 0.3588867 0.7910156
vt 0.4140625 0.7915039
vt 0.333252 0.7900391
vt 0.333252 0.7915039
vt 0.4140625 0.7900391
vt 0.3588867 0.7900391
vt 0.4140625 0.7915039
vt 0.4140625 0.7900391
vt 0.3588867 0.7915039
vt 0.333252 0.7900391
vt 0.4140625 0.7910156
vt 0.4140625 0.7895508
vt 0.333252 0.7915039
vt 0.3605957 0.7807617
vt 0.4157715 0.78125
vt 0.4157715 0.7802734
vt 0.3605957 0.7797852
vt 0.3605957 0.7797852
vt 0.4157715 0.7802734
vt 0.4157715 0.7792969
vt 0.3605957 0.7788086
vt 0.3605957 0.7788086
vt 0.4157715 0.7792969
vt 0.4157715 0.7783203
vt 0.3605957 0.777832
vt 0.3605957 0.7817383
vt 0.4157715 0.7822266
vt 0.4157715 0.78125
vt 0.3605957 0.7807617
vt 0.3605957 0.7807617
vt 0.4157715 0.78125
vt 0.4157715 0.7802734
vt 0.3605957 0.7797852
vt 0.3605957 0.7797852
vt 0.4157715 0.7802734
vt 0.4157715 0.7792969
vt 0.3605957 0.7788086
vt 0.3605957 0.7788086
vt 0.4157715 0.7792969
vt 0.4157715 0.7783203
vt 0.3605957 0.777832
vt 0.3605957 0.7817383
vt 0.4157715 0.7822266
vt 0.4157715 0.78125
vt 0.3605957 0.7807617
vt 0.3605957 0.7807617
vt 0.4157715 0.7807617
vt 0.4157715 0.7797852
vt 0.3605957 0.7797852
vt 0.3605957 0.7797852
vt 0.4157715 0.7797852
vt 0.4157715 0.7788086
vt 0.3605957 0.7788086
vt 0.3605957 0.7788086
vt 0.4157715 0.7788086
vt 0.4157715 0.777832
vt 0.3605957 0.777832
vt 0.3605957 0.7817383
vt 0.4157715 0.7822266
vt 0.4157715 0.7807617
vt 0.3605957 0.7807617
vt 0.3605957 0.7797852
vt 0.4157715 0.7817383
vt 0.4157715 0.7807617
vt 0.3605957 0.7788086
vt 0.3605957 0.7788086
vt 0.4157715 0.7807617
vt 0.4157715 0.7797852
vt 0.3605957 0.777832
vt 0.3605957 0.777832
vt 0.4157715 0.7797852
vt 0.4157715 0.7788086
vt 0.3605957 0.7768555
vt 0.3605957 0.7807617
vt 0.4157715 0.7827148
vt 0.4157715 0.7817383
vt 0.3605957 0.7797852
vt 0.3605957 0.7807617
vt 0.4157715 0.7807617
vt 0.4157715 0.7797852
vt 0.3605957 0.7797852
vt 0.3605957 0.7797852
vt 0.4157715 0.7797852
vt 0.4157715 0.7788086
vt 0.3605957 0.7788086
vt 0.3605957 0.7788086
vt 0.4157715 0.7788086
vt 0.4157715 0.777832
vt 0.3605957 0.777832
vt 0.3605957 0.7817383
vt 0.4157715 0.7817383
vt 0.4157715 0.7807617
vt 0.3605957 0.7807617
vt 0.3605957 0.7802734
vt 0.4157715 0.78125
vt 0.4157715 0.7802734
vt 0.3605957 0.7792969
vt 0.3605957 0.7792969
vt 0.4157715 0.7802734
vt 0.4157715 0.7792969
vt 0.3605957 0.7783203
vt 0.3605957 0.7783203
vt 0.4157715 0.7792969
vt 0.4157715 0.7783203
vt 0.3605957 0.7773438
vt 0.3605957 0.78125
vt 0.4157715 0.7822266
vt 0.4157715 0.78125
vt 0.3605957 0.7802734
vt 0.3605957 0.7797852
vt 0.4157715 0.7817383
vt 0.4157715 0.7807617
vt 0.3605957 0.7788086
vt 0.3605957 0.7788086
vt 0.4157715 0.7807617
vt 0.4157715 0.7797852
vt 0.3605957 0.777832
vt 0.3605957 0.777832
vt 0.4157715 0.7797852
vt 0.4157715 0.7788086
vt 0.3605957 0.7768555
vt 0.3605957 0.7807617
vt 0.4157715 0.7827148
vt 0.4157715 0.7817383
vt 0.3605957 0.7797852
vt 0.3605957 0.7807617
vt 0.4157715 0.7807617
vt 0.4157715 0.7797852
vt 0.3605957 0.7797852
vt 0.3605957 0.7797852
vt 0.4157715 0.7797852
vt 0.4157715 0.7788086
vt 0.3605957 0.7788086
vt 0.3605957 0.7788086
vt 0.4157715 0.7788086
vt 0.4157715 0.777832
vt 0.3605957 0.777832
vt 0.3605957 0.7817383
vt 0.4157715 0.7817383
vt 0.4157715 0.7807617
vt 0.3605957 0.7807617
vt 0.3605957 0.7807617
vt 0.4157715 0.7807617
vt 0.4157715 0.7797852
vt 0.3605957 0.7797852
vt 0.3605957 0.7797852
vt 0.4157715 0.7797852
vt 0.4157715 0.7788086
vt 0.3605957 0.7788086
vt 0.3605957 0.7788086
vt 0.4157715 0.7788086
vt 0.4157715 0.777832
vt 0.3605957 0.777832
vt 0.3605957 0.7817383
vt 0.4157715 0.7817383
vt 0.4157715 0.7807617
vt 0.3605957 0.7807617
vt 0.3605957 0.7807617
vt 0.4157715 0.78125
vt 0.4157715 0.7802734
vt 0.3605957 0.7797852
vt 0.3605957 0.7797852
vt 0.4157715 0.7802734
vt 0.4157715 0.7792969
vt 0.3605957 0.7788086
vt 0.3605957 0.7788086
vt 0.4157715 0.7792969
vt 0.4157715 0.7783203
vt 0.3605957 0.777832
vt 0.3605957 0.7817383
vt 0.4157715 0.7822266
vt 0.4157715 0.78125
vt 0.3605957 0.7807617
vt 0.3605957 0.7807617
vt 0.4157715 0.78125
vt 0.4157715 0.7802734
vt 0.3605957 0.7797852
vt 0.3605957 0.7797852
vt 0.4157715 0.7802734
vt 0.4157715 0.7788086
vt 0.3605957 0.7788086
vt 0.3605957 0.7788086
vt 0.4157715 0.7788086
vt 0.4157715 0.777832
vt 0.3605957 0.777832
vt 0.3605957 0.7817383
vt 0.4157715 0.7822266
vt 0.4157715 0.78125
vt 0.3605957 0.7807617
vt 0.3300781 0.7856445
vt 0.4174805 0.7871094
vt 0.4174805 0.7856445
vt 0.3300781 0.7871094
vt 0.3300781 0.7866211
vt 0.4140625 0.7895508
vt 0.4174805 0.7861328
vt 0.333252 0.7900391
vt 0.3557129 0.7866211
vt 0.4138184 0.7895508
vt 0.4172363 0.7866211
vt 0.3588867 0.7895508
vt 0.4174805 0.7949219
vt 0.333252 0.7915039
vt 0.3300781 0.7949219
vt 0.4140625 0.7915039
vt 0.3557129 0.7866211
vt 0.4140625 0.7900391
vt 0.4172363 0.7866211
vt 0.3588867 0.7900391
vt 0.4174805 0.7944336
vt 0.333252 0.7915039
vt 0.3300781 0.7949219
vt 0.4140625 0.7910156
vt 0.4172363 0.7944336
vt 0.3588867 0.7915039
vt 0.3557129 0.7949219
vt 0.4140625 0.7915039
vt 0.3300781 0.7871094
vt 0.4140625 0.7900391
vt 0.4174805 0.7871094
vt 0.333252 0.7900391
vt 0.4172363 0.7944336
vt 0.3588867 0.7910156
vt 0.3557129 0.7944336
vt 0.4138184 0.7915039
vt 0.3588867 0.7895508
vt 0.4138184 0.7915039
vt 0.4138184 0.7895508
vt 0.3588867 0.7910156
vt 0.4140625 0.7915039
vt 0.333252 0.7900391
vt 0.333252 0.7915039
vt 0.4140625 0.7900391
vt 0.3588867 0.7900391
vt 0.4140625 0.7915039
vt 0.4140625 0.7900391
vt 0.3588867 0.7915039
vt 0.333252 0.7900391
vt 0.4140625 0.7910156
vt 0.4140625 0.7895508
vt 0.333252 0.7915039
vt 0.3605957 0.7807617
vt 0.4157715 0.78125
vt 0.4157715 0.7802734
vt 0.3605957 0.7797852
vt 0.3605957 0.7797852
vt 0.4157715 0.7802734
vt 0.4157715 0.7792969
vt 0.3605957 0.7788086
vt 0.3605957 0.7788086
vt 0.4157715 0.7792969
vt 0.4157715 0.7783203
vt 0.3605957 0.777832
vt 0.3605957 0.7817383
vt 0.4157715 0.7822266
vt 0.4157715 0.78125
vt 0.3605957 0.7807617
vt 0.3605957 0.7807617
vt 0.4157715 0.78125
vt 0.4157715 0.7802734
vt 0.3605957 0.7797852
vt 0.3605957 0.7797852
vt 0.4157715 0.7802734
vt 0.4157715 0.7792969
vt 0.3605957 0.7788086
vt 0.3605957 0.7788086
vt 0.4157715 0.7792969
vt 0.4157715 0.7783203
vt 0.3605957 0.777832
vt 0.3605957 0.7817383
vt 0.4157715 0.7822266
vt 0.4157715 0.78125
vt 0.3605957 0.7807617
vt 0.3605957 0.7807617
vt 0.4157715 0.7807617
vt 0.4157715 0.7797852
vt 0.3605957 0.7797852
vt 0.3605957 0.7797852
vt 0.4157715 0.7797852
vt 0.4157715 0.7788086
vt 0.3605957 0.7788086
vt 0.3605957 0.7788086
vt 0.4157715 0.7788086
vt 0.4157715 0.777832
vt 0.3605957 0.777832
vt 0.3605957 0.7817383
vt 0.4157715 0.7822266
vt 0.4157715 0.7807617
vt 0.3605957 0.7807617
vt 0.3605957 0.7797852
vt 0.4157715 0.7817383
vt 0.4157715 0.7807617
vt 0.3605957 0.7788086
vt 0.3605957 0.7788086
vt 0.4157715 0.7807617
vt 0.4157715 0.7797852
vt 0.3605957 0.777832
vt 0.3605957 0.777832
vt 0.4157715 0.7797852
vt 0.4157715 0.7788086
vt 0.3605957 0.7768555
vt 0.3605957 0.7807617
vt 0.4157715 0.7827148
vt 0.4157715 0.7817383
vt 0.3605957 0.7797852
vt 0.3605957 0.7807617
vt 0.4157715 0.7807617
vt 0.4157715 0.7797852
vt 0.3605957 0.7797852
vt 0.3605957 0.7797852
vt 0.4157715 0.7797852
vt 0.4157715 0.7788086
vt 0.3605957 0.7788086
vt 0.3605957 0.7788086
vt 0.4157715 0.7788086
vt 0.4157715 0.777832
vt 0.3605957 0.777832
vt 0.3605957 0.7817383
vt 0.4157715 0.7817383
vt 0.4157715 0.7807617
vt 0.3605957 0.7807617
vt 0.3605957 0.7802734
vt 0.4157715 0.78125
vt 0.4157715 0.7802734
vt 0.3605957 0.7792969
vt 0.3605957 0.7792969
vt 0.4157715 0.7802734
vt 0.4157715 0.7792969
vt 0.3605957 0.7783203
vt 0.3605957 0.7783203
vt 0.4157715 0.7792969
vt 0.4157715 0.7783203
vt 0.3605957 0.7773438
vt 0.3605957 0.78125
vt 0.4157715 0.7822266
vt 0.4157715 0.78125
vt 0.3605957 0.7802734
vt 0.3605957 0.7797852
vt 0.4157715 0.7817383
vt 0.4157715 0.7807617
vt 0.3605957 0.7788086
vt 0.3605957 0.7788086
vt 0.4157715 0.7807617
vt 0.4157715 0.7797852
vt 0.3605957 0.777832
vt 0.3605957 0.777832
vt 0.4157715 0.7797852
vt 0.4157715 0.7788086
vt 0.3605957 0.7768555
vt 0.3605957 0.7807617
vt 0.4157715 0.7827148
vt 0.4157715 0.7817383
vt 0.3605957 0.7797852
vt 0.3605957 0.7807617
vt 0.4157715 0.7807617
vt 0.4157715 0.7797852
vt 0.3605957 0.7797852
vt 0.3605957 0.7797852
vt 0.4157715 0.7797852
vt 0.4157715 0.7788086
vt 0.3605957 0.7788086
vt 0.3605957 0.7788086
vt 0.4157715 0.7788086
vt 0.4157715 0.777832
vt 0.3605957 0.777832
vt 0.3605957 0.7817383
vt 0.4157715 0.7817383
vt 0.4157715 0.7807617
vt 0.3605957 0.7807617
vt 0.3605957 0.7807617
vt 0.4157715 0.7807617
vt 0.4157715 0.7797852
vt 0.3605957 0.7797852
vt 0.3605957 0.7797852
vt 0.4157715 0.7797852
vt 0.4157715 0.7788086
vt 0.3605957 0.7788086
vt 0.3605957 0.7788086
vt 0.4157715 0.7788086
vt 0.4157715 0.777832
vt 0.3605957 0.777832
vt 0.3605957 0.7817383
vt 0.4157715 0.7817383
vt 0.4157715 0.7807617
vt 0.3605957 0.7807617
vt 0.3605957 0.7807617
vt 0.4157715 0.78125
vt 0.4157715 0.7802734
vt 0.3605957 0.7797852
vt 0.3605957 0.7797852
vt 0.4157715 0.7802734
vt 0.4157715 0.7792969
vt 0.3605957 0.7788086
vt 0.3605957 0.7788086
vt 0.4157715 0.7792969
vt 0.4157715 0.7783203
vt 0.3605957 0.777832
vt 0.3605957 0.7817383
vt 0.4157715 0.7822266
vt 0.4157715 0.78125
vt 0.3605957 0.7807617
vt 0.3605957 0.7807617
vt 0.4157715 0.78125
vt 0.4157715 0.7802734
vt 0.3605957 0.7797852
vt 0.3605957 0.7797852
vt 0.4157715 0.7802734
vt 0.4157715 0.7788086
vt 0.3605957 0.7788086
vt 0.3605957 0.7788086
vt 0.4157715 0.7788086
vt 0.4157715 0.777832
vt 0.3605957 0.777832
vt 0.3605957 0.7817383
vt 0.4157715 0.7822266
vt 0.4157715 0.78125
vt 0.3605957 0.7807617
vt 0.06384277 0.9628906
vt 0.135376 0.9824219
vt 0.1334229 0.9628906
vt 0.06185913 0.9824219
vt 0.1774902 0.9570313
vt 0.135376 0.9824219
vt 0.1800537 0.9765625
vt 0.1334229 0.9628906
vt 0.2924805 0.9672852
vt 0.2304688 0.9287109
vt 0.2305908 0.9672852
vt 0.2922363 0.9287109
vt 0.0168457 0.9770508
vt 0.06384277 0.9628906
vt 0.01928711 0.9570313
vt 0.06185913 0.9824219
vt 0.1335449 0.9599609
vt 0.1774902 0.9570313
vt 0.1750488 0.9545898
vt 0.1334229 0.9628906
vt 0.06396484 0.9599609
vt 0.1334229 0.9628906
vt 0.1335449 0.9599609
vt 0.06384277 0.9628906
vt 0.02171326 0.9545898
vt 0.06384277 0.9628906
vt 0.06396484 0.9599609
vt 0.01928711 0.9570313
vt 0.06237793 0.9853516
vt 0.0168457 0.9770508
vt 0.01529694 0.9794922
vt 0.06185913 0.9824219
vt 0.1348877 0.9853516
vt 0.06185913 0.9824219
vt 0.06237793 0.9853516
vt 0.135376 0.9824219
vt 0.1817627 0.9790039
vt 0.135376 0.9824219
vt 0.1348877 0.9853516
vt 0.1800537 0.9765625
vt 0.2307129 0.9873047
vt 0.295166 0.9897461
vt 0.2924805 0.9873047
vt 0.2280273 0.9902344
vt 0.2104492 0.9287109
vt 0.2080078 0.9702148
vt 0.2105713 0.9672852
vt 0.2077637 0.9262695
vt 0.2922363 0.9086914
vt 0.2277832 0.90625
vt 0.2303467 0.9086914
vt 0.2946777 0.9057617
vt 0.3125 0.9667969
vt 0.3149414 0.9257813
vt 0.3122559 0.9287109
vt 0.3149414 0.9697266
vt 0.2305908 0.9672852
vt 0.2924805 0.9873047
vt 0.2924805 0.9672852
vt 0.2307129 0.9873047
vt 0.2304688 0.9287109
vt 0.2105713 0.9672852
vt 0.2305908 0.9672852
vt 0.2104492 0.9287109
vt 0.2922363 0.9287109
vt 0.2303467 0.9086914
vt 0.2304688 0.9287109
vt 0.2922363 0.9086914
vt 0.2924805 0.9672852
vt 0.3122559 0.9287109
vt 0.2922363 0.9287109
vt 0.3125 0.9667969
vt 0.4230957 0.8710938
vt 0.4208984 0.902832
vt 0.4228516 0.9008789
vt 0.4831543 0.902832
vt 0.480957 0.9008789
vt 0.4208984 0.8691406
vt 0.4831543 0.8691406
vt 0.480957 0.8710938
vt 0.4230957 0.8671875
vt 0.480957 0.8671875
vt 0.4228516 0.7958984
vt 0.4831543 0.793457
vt 0.4208984 0.793457
vt 0.480957 0.7958984
vt 0.2043457 0.6005859
vt 0.2020264 0.7797852
vt 0.2055664 0.7758789
vt 0.2008057 0.597168
vt 0.3059082 0.7788086
vt 0.3010254 0.6000977
vt 0.3022461 0.7753906
vt 0.3046875 0.5966797

g Refrigerator_1938_89
usemtl Refrigerator_1938_89
usemap Refrigerator_1938_89
f 1/1/1 3/3/3 2/2/2
f 2/2/2 4/4/4 1/1/1
f 5/5/5 7/7/7 6/6/6
f 5/5/5 6/6/6 8/8/8
f 5/5/5 8/8/8 9/9/9
f 9/9/9 10/10/10 5/5/5
f 10/10/10 9/9/9 11/11/11
f 10/10/10 11/11/11 12/12/12
f 13/13/13 15/15/15 14/14/14
f 14/14/14 16/16/16 13/13/13
f 17/17/17 19/19/19 18/18/18
f 17/17/17 18/18/18 20/20/20
f 17/17/17 20/20/20 21/21/21
f 21/21/21 22/22/22 17/17/17
f 22/22/22 21/21/21 23/23/23
f 22/22/22 23/23/23 24/24/24
f 25/25/25 27/27/27 26/26/26
f 26/26/26 28/28/28 25/25/25
f 29/29/29 31/31/31 30/30/30
f 30/30/30 32/32/32 29/29/29
f 33/33/33 29/29/29 32/32/32
f 32/32/32 34/34/34 33/33/33
f 35/35/35 33/33/33 34/34/34
f 34/34/34 36/36/36 35/35/35
f 34/34/34 32/32/32 37/37/37
f 38/38/38 37/37/37 32/32/32
f 32/32/32 39/39/39 38/38/38
f 37/37/37 40/40/40 34/34/34
f 41/41/41 34/34/34 40/40/40
f 40/40/40 42/42/42 41/41/41
f 40/40/40 37/37/37 43/43/43
f 44/44/44 43/43/43 37/37/37
f 37/37/37 45/45/45 44/44/44
f 43/43/43 46/46/46 40/40/40
f 47/47/47 40/40/40 46/46/46
f 46/46/46 48/48/48 47/47/47
f 49/49/49 51/51/51 50/50/50
f 50/50/50 52/52/52 49/49/49
f 52/52/52 50/50/50 53/53/53
f 54/54/54 49/49/49 52/52/52
f 53/53/53 55/55/55 52/52/52
f 55/55/55 53/53/53 56/56/56
f 56/56/56 57/57/57 55/55/55
f 52/52/52 58/58/58 54/54/54
f 58/58/58 52/52/52 55/55/55
f 59/59/59 54/54/54 58/58/58
f 58/58/58 60/60/60 59/59/59
f 61/61/61 55/55/55 57/57/57
f 55/55/55 61/61/61 58/58/58
f 60/60/60 58/58/58 61/61/61
f 57/57/57 62/62/62 61/61/61
f 61/61/61 63/63/63 60/60/60
f 63/63/63 61/61/61 62/62/62
f 62/62/62 64/64/64 63/63/63
f 65/65/65 67/67/67 66/66/66
f 66/66/66 68/68/68 65/65/65
f 69/69/69 65/65/65 68/68/68
f 68/68/68 70/70/70 69/69/69
f 71/71/71 69/69/69 70/70/70
f 70/70/70 72/72/72 71/71/71
f 73/73/73 75/75/75 74/74/74
f 74/74/74 76/76/76 73/73/73
f 77/77/77 79/79/79 78/78/78
f 79/79/79 77/77/77 80/80/80
f 80/80/80 81/81/81 79/79/79
f 81/81/81 80/80/80 82/82/82
f 82/82/82 83/83/83 81/81/81
f 84/84/84 82/82/82 80/80/80
f 85/85/85 80/80/80 77/77/77
f 80/80/80 85/85/85 84/84/84
f 86/86/86 84/84/84 85/85/85
f 85/85/85 87/87/87 86/86/86
f 77/77/77 88/88/88 85/85/85
f 87/87/87 85/85/85 88/88/88
f 88/88/88 89/89/89 87/87/87
f 89/89/89 88/88/88 90/90/90
f 91/91/91 93/93/93 92/92/92
f 92/92/92 94/94/94 91/91/91
f 95/95/95 97/97/97 96/96/96
f 96/96/96 98/98/98 95/95/95
f 98/98/98 96/96/96 99/99/99
f 100/100/100 95/95/95 98/98/98
f 98/98/98 101/101/101 100/100/100
f 101/101/101 98/98/98 102/102/102
f 103/103/103 100/100/100 101/101/101
f 102/102/102 104/104/104 101/101/101
f 101/101/101 105/105/105 103/103/103
f 105/105/105 101/101/101 104/104/104
f 106/106/106 108/108/108 107/107/107
f 107/107/107 108/108/108 109/109/109
f 109/109/109 108/108/108 110/110/110
f 110/110/110 111/111/111 109/109/109
f 111/111/111 110/110/110 112/112/112
f 112/112/112 110/110/110 113/113/113
f 114/114/114 116/116/116 115/115/115
f 115/115/115 117/117/117 114/114/114
f 118/118/118 120/120/120 119/119/119
f 119/119/119 120/120/120 121/121/121
f 121/121/121 120/120/120 122/122/122
f 122/122/122 123/123/123 121/121/121
f 123/123/123 122/122/122 124/124/124
f 124/124/124 122/122/122 125/125/125
f 126/126/126 128/128/128 127/127/127
f 127/127/127 129/129/129 126/126/126
f 130/130/130 132/132/132 131/131/131
f 131/131/131 133/133/133 130/130/130
f 134/134/134 136/136/136 135/135/135
f 135/135/135 137/137/137 134/134/134
f 138/138/138 140/140/140 139/139/139
f 139/139/139 141/141/141 138/138/138
f 142/142/142 144/144/144 143/143/143
f 143/143/143 145/145/145 142/142/142
f 146/146/146 148/148/148 147/147/147
f 147/147/147 149/149/149 146/146/146
f 150/150/150 152/152/152 151/151/151
f 150/150/150 151/151/151 153/153/153
f 150/150/150 153/153/153 154/154/154
f 155/155/155 157/157/157 156/156/156
f 156/156/156 158/158/158 155/155/155
f 159/159/159 161/161/161 160/160/160
f 159/159/159 160/160/160 162/162/162
f 159/159/159 162/162/162 163/163/163
f 164/164/164 166/166/166 165/165/165
f 165/165/165 167/167/167 164/164/164
f 168/168/168 170/170/170 169/169/169
f 169/169/169 171/171/171 168/168/168
f 172/172/172 174/174/174 173/173/173
f 173/173/173 175/175/175 172/172/172
f 176/176/176 178/178/178 177/177/177
f 177/177/177 179/179/179 176/176/176
f 180/180/180 182/182/182 181/181/181
f 181/181/181 183/183/183 180/180/180
f 184/184/184 186/186/186 185/185/185
f 185/185/185 187/187/187 184/184/184
f 188/188/188 190/190/190 189/189/189
f 189/189/189 191/191/191 188/188/188
f 192/192/192 194/194/194 193/193/193
f 193/193/193 195/195/195 192/192/192
f 196/196/196 198/198/198 197/197/197
f 197/197/197 199/199/199 196/196/196
f 200/200/200 202/202/202 201/201/201
f 201/201/201 203/203/203 200/200/200
f 204/204/204 206/206/206 205/205/205
f 205/205/205 207/207/207 204/204/204
f 208/208/208 210/210/210 209/209/209
f 209/209/209 211/211/211 208/208/208
f 212/212/212 214/214/214 213/213/213
f 213/213/213 215/215/215 212/212/212
f 216/216/216 218/218/218 217/217/217
f 217/217/217 219/219/219 216/216/216
f 220/220/220 222/222/222 221/221/221
f 221/221/221 223/223/223 220/220/220
f 224/224/224 226/226/226 225/225/225
f 225/225/225 227/227/227 224/224/224
f 228/228/228 230/230/230 229/229/229
f 229/229/229 231/231/231 228/228/228
f 232/232/232 234/234/234 233/233/233
f 233/233/233 235/235/235 232/232/232
f 236/236/236 238/238/238 237/237/237
f 237/237/237 239/239/239 236/236/236
f 240/240/240 242/242/242 241/241/241
f 241/241/241 243/243/243 240/240/240
f 244/244/244 246/246/246 245/245/245
f 245/245/245 247/247/247 244/244/244
f 248/248/248 250/250/250 249/249/249
f 249/249/249 251/251/251 248/248/248
f 252/252/252 254/254/254 253/253/253
f 253/253/253 255/255/255 252/252/252
f 256/256/256 258/258/258 257/257/257
f 257/257/257 259/259/259 256/256/256
f 260/260/260 262/262/262 261/261/261
f 261/261/261 263/263/263 260/260/260
f 264/264/264 266/266/266 265/265/265
f 265/265/265 267/267/267 264/264/264
f 268/268/268 270/270/270 269/269/269
f 269/269/269 271/271/271 268/268/268
f 272/272/272 274/274/274 273/273/273
f 272/272/272 275/275/275 274/274/274
f 276/276/276 278/278/278 277/277/277
f 276/276/276 279/279/279 278/278/278
f 280/280/280 282/282/282 281/281/281
f 280/280/280 283/283/283 282/282/282
f 284/284/284 286/286/286 285/285/285
f 284/284/284 287/287/287 286/286/286
f 288/288/288 290/290/290 289/289/289
f 288/288/288 291/291/291 290/290/290
f 292/292/292 294/294/294 293/293/293
f 292/292/292 295/295/295 294/294/294
f 296/296/296 298/298/298 297/297/297
f 296/296/296 299/299/299 298/298/298
f 300/300/300 302/302/302 301/301/301
f 300/300/300 303/303/303 302/302/302
f 304/304/304 306/306/306 305/305/305
f 304/304/304 307/307/307 306/306/306
f 308/308/308 310/310/310 309/309/309
f 308/308/308 311/311/311 310/310/310
f 312/312/312 314/314/314 313/313/313
f 312/312/312 315/315/315 314/314/314
f 316/316/316 318/318/318 317/317/317
f 316/316/316 319/319/319 318/318/318
f 320/320/320 322/322/322 321/321/321
f 320/320/320 323/323/323 322/322/322
f 324/324/324 326/326/326 325/325/325
f 324/324/324 327/327/327 326/326/326
f 328/328/328 330/330/330 329/329/329
f 328/328/328 331/331/331 330/330/330
f 332/332/332 334/334/334 333/333/333
f 332/332/332 335/335/335 334/334/334
f 336/336/336 338/338/338 337/337/337
f 336/336/336 339/339/339 338/338/338
f 340/340/340 342/342/342 341/341/341
f 340/340/340 343/343/343 342/342/342
f 344/344/344 346/346/346 345/345/345
f 344/344/344 347/347/347 346/346/346
f 348/348/348 350/350/350 349/349/349
f 348/348/348 351/351/351 350/350/350
f 352/352/352 354/354/354 353/353/353
f 352/352/352 355/355/355 354/354/354
f 356/356/356 358/358/358 357/357/357
f 356/356/356 359/359/359 358/358/358
f 360/360/360 362/362/362 361/361/361
f 360/360/360 363/363/363 362/362/362
f 364/364/364 366/366/366 365/365/365
f 364/364/364 367/367/367 366/366/366
f 368/368/368 370/370/370 369/369/369
f 368/368/368 371/371/371 370/370/370
f 372/372/372 374/374/374 373/373/373
f 372/372/372 375/375/375 374/374/374
f 376/376/376 378/378/378 377/377/377
f 376/376/376 379/379/379 378/378/378
f 380/380/380 382/382/382 381/381/381
f 380/380/380 383/383/383 382/382/382
f 384/384/384 386/386/386 385/385/385
f 384/384/384 387/387/387 386/386/386
f 388/388/388 390/390/390 389/389/389
f 388/388/388 391/391/391 390/390/390
f 392/392/392 394/394/394 393/393/393
f 392/392/392 395/395/395 394/394/394
f 396/396/396 398/398/398 397/397/397
f 396/396/396 399/399/399 398/398/398
f 400/400/400 402/402/402 401/401/401
f 400/400/400 403/403/403 402/402/402
f 404/404/404 406/406/406 405/405/405
f 404/404/404 407/407/407 406/406/406
f 408/408/408 410/410/410 409/409/409
f 408/408/408 411/411/411 410/410/410
f 412/412/412 414/414/414 413/413/413
f 412/412/412 415/415/415 414/414/414
f 416/416/416 418/418/418 417/417/417
f 416/416/416 419/419/419 418/418/418
f 420/420/420 422/422/422 421/421/421
f 420/420/420 423/423/423 422/422/422
f 424/424/424 426/426/426 425/425/425
f 424/424/424 427/427/427 426/426/426
f 428/428/428 430/430/430 429/429/429
f 428/428/428 431/431/431 430/430/430
f 432/432/432 434/434/434 433/433/433
f 432/432/432 435/435/435 434/434/434
f 436/436/436 438/438/438 437/437/437
f 436/436/436 439/439/439 438/438/438
f 440/440/440 442/442/442 441/441/441
f 440/440/440 443/443/443 442/442/442
f 444/444/444 446/446/446 445/445/445
f 444/444/444 447/447/447 446/446/446
f 448/448/448 450/450/450 449/449/449
f 449/449/449 451/451/451 448/448/448
f 452/452/452 454/454/454 453/453/453
f 453/453/453 455/455/455 452/452/452
f 456/456/456 458/458/458 457/457/457
f 457/457/457 459/459/459 456/456/456
f 460/460/460 462/462/462 461/461/461
f 461/461/461 463/463/463 460/460/460
f 464/464/464 466/466/466 465/465/465
f 465/465/465 467/467/467 464/464/464
f 468/468/468 470/470/470 469/469/469
f 469/469/469 471/471/471 468/468/468
f 472/472/472 474/474/474 473/473/473
f 473/473/473 475/475/475 472/472/472
f 476/476/476 478/478/478 477/477/477
f 477/477/477 479/479/479 476/476/476
f 480/480/480 482/482/482 481/481/481
f 481/481/481 483/483/483 480/480/480
f 484/484/484 486/486/486 485/485/485
f 485/485/485 487/487/487 484/484/484
f 488/488/488 490/490/490 489/489/489
f 489/489/489 491/491/491 488/488/488
f 492/492/492 494/494/494 493/493/493
f 493/493/493 495/495/495 492/492/492
f 496/496/496 498/498/498 497/497/497
f 497/497/497 499/499/499 496/496/496
f 500/500/500 502/502/502 501/501/501
f 500/500/500 503/503/503 502/502/502
f 504/504/504 506/506/506 505/505/505
f 504/504/504 507/507/507 506/506/506
f 508/508/508 510/510/510 509/509/509
f 508/508/508 511/511/511 510/510/510
f 512/512/512 514/514/514 513/513/513
f 512/512/512 515/515/515 514/514/514
f 516/516/516 518/518/518 517/517/517
f 516/516/516 519/519/519 518/518/518
f 520/520/520 522/522/522 521/521/521
f 520/520/520 523/523/523 522/522/522
f 524/524/524 526/526/526 525/525/525
f 524/524/524 527/527/527 526/526/526
f 528/528/528 530/530/530 529/529/529
f 528/528/528 531/531/531 530/530/530
f 532/532/532 534/534/534 533/533/533
f 532/532/532 535/535/535 534/534/534
f 536/536/536 538/538/538 537/537/537
f 536/536/536 539/539/539 538/538/538
f 540/540/540 542/542/542 541/541/541
f 540/540/540 543/543/543 542/542/542
f 544/544/544 546/546/546 545/545/545
f 544/544/544 547/547/547 546/546/546
f 548/548/548 550/550/550 549/549/549
f 548/548/548 551/551/551 550/550/550
f 552/552/552 554/554/554 553/553/553
f 552/552/552 555/555/555 554/554/554
f 556/556/556 558/558/558 557/557/557
f 556/556/556 559/559/559 558/558/558
f 560/560/560 562/562/562 561/561/561
f 560/560/560 563/563/563 562/562/562
f 564/564/564 566/566/566 565/565/565
f 564/564/564 567/567/567 566/566/566
f 568/568/568 570/570/570 569/569/569
f 568/568/568 571/571/571 570/570/570
f 572/572/572 574/574/574 573/573/573
f 572/572/572 575/575/575 574/574/574
f 576/576/576 578/578/578 577/577/577
f 576/576/576 579/579/579 578/578/578
f 580/580/580 582/582/582 581/581/581
f 580/580/580 583/583/583 582/582/582
f 584/584/584 586/586/586 585/585/585
f 584/584/584 587/587/587 586/586/586
f 588/588/588 590/590/590 589/589/589
f 588/588/588 591/591/591 590/590/590
f 592/592/592 594/594/594 593/593/593
f 592/592/592 595/595/595 594/594/594
f 596/596/596 598/598/598 597/597/597
f 596/596/596 599/599/599 598/598/598
f 600/600/600 602/602/602 601/601/601
f 600/600/600 603/603/603 602/602/602
f 604/604/604 606/606/606 605/605/605
f 604/604/604 607/607/607 606/606/606
f 608/608/608 610/610/610 609/609/609
f 608/608/608 611/611/611 610/610/610
f 612/612/612 614/614/614 613/613/613
f 612/612/612 615/615/615 614/614/614
f 616/616/616 618/618/618 617/617/617
f 616/616/616 619/619/619 618/618/618
f 620/620/620 622/622/622 621/621/621
f 620/620/620 623/623/623 622/622/622
f 624/624/624 626/626/626 625/625/625
f 624/624/624 627/627/627 626/626/626
f 628/628/628 630/630/630 629/629/629
f 628/628/628 631/631/631 630/630/630
f 632/632/632 634/634/634 633/633/633
f 632/632/632 635/635/635 634/634/634
f 636/636/636 638/638/638 637/637/637
f 636/636/636 639/639/639 638/638/638
f 640/640/640 642/642/642 641/641/641
f 640/640/640 643/643/643 642/642/642
f 644/644/644 646/646/646 645/645/645
f 644/644/644 647/647/647 646/646/646
f 648/648/648 650/650/650 649/649/649
f 648/648/648 651/651/651 650/650/650
f 652/652/652 654/654/654 653/653/653
f 652/652/652 655/655/655 654/654/654
f 656/656/656 658/658/658 657/657/657
f 656/656/656 659/659/659 658/658/658
f 660/660/660 662/662/662 661/661/661
f 660/660/660 663/663/663 662/662/662
f 664/664/664 666/666/666 665/665/665
f 664/664/664 667/667/667 666/666/666
f 668/668/668 670/670/670 669/669/669
f 668/668/668 671/671/671 670/670/670
f 672/672/672 674/674/674 673/673/673
f 672/672/672 675/675/675 674/674/674
f 676/676/676 678/678/678 677/677/677
f 677/677/677 679/679/679 676/676/676
f 680/680/680 682/682/682 681/681/681
f 681/681/681 683/683/683 680/680/680
f 684/684/684 686/686/686 685/685/685
f 685/685/685 687/687/687 684/684/684
f 688/688/688 690/690/690 689/689/689
f 689/689/689 691/691/691 688/688/688
f 692/692/692 694/694/694 693/693/693
f 693/693/693 695/695/695 692/692/692
f 696/696/696 698/698/698 697/697/697
f 697/697/697 699/699/699 696/696/696
f 700/700/700 702/702/702 701/701/701
f 701/701/701 703/703/703 700/700/700
f 704/704/704 706/706/706 705/705/705
f 705/705/705 707/707/707 704/704/704
f 708/708/708 710/710/710 709/709/709
f 709/709/709 711/711/711 708/708/708
f 712/712/712 714/714/714 713/713/713
f 713/713/713 715/715/715 712/712/712
f 716/716/716 718/718/718 717/717/717
f 717/717/717 719/719/719 716/716/716
f 720/720/720 722/722/722 721/721/721
f 721/721/721 723/723/723 720/720/720
f 724/724/724 726/726/726 725/725/725
f 725/725/725 727/727/727 724/724/724
f 728/728/728 730/730/730 729/729/729
f 729/729/729 731/731/731 728/728/728
f 732/732/732 734/734/734 733/733/733
f 733/733/733 735/735/735 732/732/732
f 736/736/736 738/738/738 737/737/737
f 737/737/737 739/739/739 736/736/736
f 740/740/740 742/742/742 741/741/741
f 741/741/741 743/743/743 740/740/740
f 744/744/744 746/746/746 745/745/745
f 745/745/745 747/747/747 744/744/744
f 748/748/748 750/750/750 749/749/749
f 751/751/751 749/749/749 750/750/750
f 750/750/750 752/752/752 751/751/751
f 749/749/749 753/753/753 748/748/748
f 754/754/754 751/751/751 752/752/752
f 755/755/755 748/748/748 753/753/753
f 752/752/752 755/755/755 754/754/754
f 753/753/753 754/754/754 755/755/755
f 754/754/754 753/753/753 756/756/756
f 756/756/756 757/757/757 754/754/754
f 758/758/758 756/756/756 753/753/753
f 759/759/759 754/754/754 757/757/757
f 753/753/753 760/760/760 758/758/758
f 757/757/757 761/761/761 759/759/759
f 761/761/761 758/758/758 760/760/760
f 760/760/760 759/759/759 761/761/761
f 762/762/762 764/764/764 763/763/763
f 763/763/763 765/765/765 762/762/762
f 766/766/766 763/763/763 764/764/764
f 767/767/767 762/762/762 765/765/765
f 764/764/764 768/768/768 766/766/766
f 765/765/765 769/769/769 767/767/767
f 769/769/769 766/766/766 768/768/768
f 768/768/768 767/767/767 769/769/769
