#Rug2_(1)_631_71.obj

v 3.273257 -1.175972 1.370221E-07
v 1.61258 -2.351944 1.370221E-07
v 3.217889 -2.412952 1.370221E-07
v 1.61258 -1.175972 1.370221E-07
v 0.01103851 -2.29577 1.370221E-07
v 3.322771 -0.0259761 1.370221E-07
v -7.200517E-17 -1.175972 1.370221E-07
v -1.624852 -2.267232 1.370221E-07
v 1.61258 -9.873876E-17 1.370221E-07
v 3.324271 1.175972 1.370221E-07
v -1.612579 -1.175972 1.370221E-07
v -3.134265 -2.190746 1.370221E-07
v -3.104294 -1.175972 1.370221E-07
v 1.61258 1.175972 1.370221E-07
v 3.296152 2.405737 1.370221E-07
v 1.61258 2.306583 1.370221E-07
v 0 -2.516972E-23 1.370221E-07
v -1.612579 9.873868E-17 1.370221E-07
v -3.13681 1.920678E-16 1.370221E-07
v 7.200517E-17 1.175972 1.370221E-07
v 1.406018E-16 2.296276 1.370221E-07
v -1.612579 1.175972 1.370221E-07
v -3.186143 1.175972 1.370221E-07
v -1.612579 2.315842 1.370221E-07
v -3.262611 2.313471 1.370221E-07
v 1.61258 -2.351944 0.009178426
v 3.273257 -1.175972 0.009178426
v 3.217889 -2.412952 0.009178426
v 1.61258 -1.175972 0.009178426
v 3.322771 -0.0259761 0.009178426
v 0.01103851 -2.29577 0.009178426
v 1.61258 -1.004247E-16 0.009178426
v 3.324271 1.175972 0.009178426
v -7.200517E-17 -1.175972 0.009178426
v -1.624852 -2.267232 0.009178426
v 1.61258 1.175972 0.009178426
v 3.296152 2.405737 0.009178426
v 1.61258 2.306583 0.009178426
v -1.612579 -1.175972 0.009178426
v -3.134265 -2.190746 0.009178426
v -3.104294 -1.175972 0.009178426
v 0 -1.685994E-18 0.009178426
v 7.200517E-17 1.175972 0.009178426
v 1.406018E-16 2.296276 0.009178426
v -1.612579 9.705271E-17 0.009178426
v -3.13681 1.903818E-16 0.009178426
v -1.612579 1.175972 0.009178426
v -1.612579 2.315842 0.009178426
v -3.186143 1.175972 0.009178426
v -3.262611 2.313471 0.009178426
v -1.624852 -2.267232 0.009178426
v -3.134265 -2.190746 1.370221E-07
v -3.134265 -2.190746 0.009178426
v -1.624852 -2.267232 1.370221E-07
v 0.01103851 -2.29577 0.009178426
v 0.01103851 -2.29577 1.370221E-07
v 1.61258 -2.351944 0.009178426
v 1.61258 -2.351944 1.370221E-07
v 3.217889 -2.412952 0.009178426
v 3.217889 -2.412952 1.370221E-07
v 3.273257 -1.175972 0.009178426
v 3.217889 -2.412952 1.370221E-07
v 3.217889 -2.412952 0.009178426
v 3.273257 -1.175972 1.370221E-07
v 3.322771 -0.0259761 0.009178426
v 3.322771 -0.0259761 1.370221E-07
v 3.324271 1.175972 0.009178426
v 3.324271 1.175972 1.370221E-07
v 3.296152 2.405737 0.009178426
v 3.296152 2.405737 1.370221E-07
v 1.61258 2.306583 0.009178426
v 3.296152 2.405737 1.370221E-07
v 3.296152 2.405737 0.009178426
v 1.61258 2.306583 1.370221E-07
v 1.406018E-16 2.296276 0.009178426
v 1.406018E-16 2.296276 1.370221E-07
v -1.612579 2.315842 0.009178426
v -1.612579 2.315842 1.370221E-07
v -3.262611 2.313471 0.009178426
v -3.262611 2.313471 1.370221E-07
v -3.186143 1.175972 0.009178426
v -3.262611 2.313471 1.370221E-07
v -3.262611 2.313471 0.009178426
v -3.186143 1.175972 1.370221E-07
v -3.13681 1.903818E-16 0.009178426
v -3.13681 1.920678E-16 1.370221E-07
v -3.104294 -1.175972 0.009178426
v -3.104294 -1.175972 1.370221E-07
v -3.104294 -1.175972 1.370221E-07
v -3.134265 -2.190746 0.009178426
v -3.134265 -2.190746 1.370221E-07
v -3.104294 -1.175972 0.009178426

vn 0 -1 0
vn 0 -1 0
vn 0 -1 0
vn 0 -1 0
vn 0 -1 0
vn 0 -1 0
vn 0 -1 0
vn 0 -1 0
vn 0 -1 0
vn 0 -1 0
vn 0 -1 0
vn 0 -1 0
vn 0 -1 0
vn 0 -1 0
vn 0 -1 0
vn 0 -1 0
vn 0 -1 0
vn 0 -1 0
vn 0 -1 0
vn 0 -1 0
vn 0 -1 0
vn 0 -1 0
vn 0 -1 0
vn 0 -1 0
vn 0 -1 0
vn 0 1 0
vn 0 1 0
vn 0 1 0
vn 0 1 0
vn 0 1 0
vn 0 1 0
vn 0 1 0
vn 0 1 0
vn 0 1 0
vn 0 1 0
vn 0 1 0
vn 0 1 0
vn 0 1 0
vn 0 1 0
vn 0 1 0
vn 0 1 0
vn 0 1 0
vn 0 1 0
vn 0 1 0
vn 0 1 0
vn 0 1 0
vn 0 1 0
vn 0 1 0
vn 0 1 0
vn 0 1 0
vn -0.9995117 0 -0.0340271
vn -0.9985352 0 -0.05059814
vn -0.9985352 0 -0.05059814
vn -0.9995117 0 -0.0340271
vn -0.9995117 0 -0.02624512
vn -0.9995117 0 -0.02624512
vn -0.9995117 0 -0.03652954
vn -0.9995117 0 -0.03652954
vn -0.9995117 0 -0.03796387
vn -0.9995117 0 -0.03796387
vn -0.04385376 0 0.9990234
vn -0.04470825 0 0.9990234
vn -0.04470825 0 0.9990234
vn -0.04385376 0 0.9990234
vn -0.0221405 0 0.9995117
vn -0.0221405 0 0.9995117
vn 0.01080322 0 1
vn 0.01080322 0 1
vn 0.02285767 0 0.9995117
vn 0.02285767 0 0.9995117
vn 0.9995117 0 -0.03259277
vn 0.9980469 0 -0.05880737
vn 0.9980469 0 -0.05880737
vn 0.9995117 0 -0.03259277
vn 1 0 0.00287056
vn 1 0 0.00287056
vn 1 0 0.005348206
vn 1 0 0.005348206
vn 1 0 -0.001437187
vn 1 0 -0.001437187
vn -0.05450439 0 -0.9985352
vn -0.06707764 0 -0.9975586
vn -0.06707764 0 -0.9975586
vn -0.05450439 0 -0.9985352
vn -0.03479004 0 -0.9995117
vn -0.03479004 0 -0.9995117
vn 0.0009412766 0 -1
vn 0.0009412766 0 -1
vn 0.0009412766 0 -1
vn 0.02952576 0 -0.9995117
vn 0.02952576 0 -0.9995117
vn 0.0009412766 0 -1

vt 0.784668 0.4758301
vt 0.8359375 0.440918
vt 0.7871094 0.4382324
vt 0.8354492 0.4768066
vt 0.8847656 0.4436035
vt 0.7827148 0.5107422
vt 0.8842773 0.4775391
vt 0.934082 0.4453125
vt 0.8344727 0.5126953
vt 0.7822266 0.5473633
vt 0.9331055 0.4782715
vt 0.9799805 0.4482422
vt 0.9785156 0.479248
vt 0.8339844 0.5483398
vt 0.7822266 0.5844727
vt 0.8334961 0.5825195
vt 0.8837891 0.5131836
vt 0.9326172 0.5141602
vt 0.9790039 0.5146484
vt 0.8833008 0.5488281
vt 0.8823242 0.5830078
vt 0.9321289 0.5498047
vt 0.9799805 0.5507813
vt 0.9316406 0.5844727
vt 0.9814453 0.5854492
vt 0.6518555 0.9472656
vt 0.543457 0.8701172
vt 0.5473633 0.9511719
vt 0.6518555 0.8701172
vt 0.5400391 0.7949219
vt 0.7568359 0.9433594
vt 0.6518555 0.793457
vt 0.5400391 0.7167969
vt 0.7573242 0.8701172
vt 0.8637695 0.9414063
vt 0.6518555 0.7167969
vt 0.5419922 0.6362305
vt 0.6518555 0.6425781
vt 0.862793 0.8701172
vt 0.9624023 0.9365234
vt 0.9604492 0.8701172
vt 0.7573242 0.793457
vt 0.7573242 0.7167969
vt 0.7573242 0.6435547
vt 0.862793 0.793457
vt 0.9624023 0.793457
vt 0.862793 0.7167969
vt 0.862793 0.6420898
vt 0.965332 0.7167969
vt 0.9707031 0.6420898
vt 0.934082 0.4450684
vt 0.9799805 0.4482422
vt 0.9799805 0.447998
vt 0.934082 0.4453125
vt 0.8847656 0.4433594
vt 0.8847656 0.4436035
vt 0.8359375 0.4406738
vt 0.8359375 0.440918
vt 0.7871094 0.4379883
vt 0.7871094 0.4382324
vt 0.784668 0.4758301
vt 0.7871094 0.4382324
vt 0.7871094 0.4382324
vt 0.784668 0.4758301
vt 0.7827148 0.5107422
vt 0.7827148 0.5107422
vt 0.7817383 0.5473633
vt 0.7822266 0.5473633
vt 0.7822266 0.5844727
vt 0.7822266 0.5844727
vt 0.6518555 0.6425781
vt 0.5419922 0.6357422
vt 0.5419922 0.6362305
vt 0.6518555 0.6420898
vt 0.7573242 0.6435547
vt 0.7573242 0.6425781
vt 0.862793 0.6420898
vt 0.862793 0.6416016
vt 0.9707031 0.6420898
vt 0.9707031 0.6416016
vt 0.9799805 0.5507813
vt 0.9814453 0.5854492
vt 0.9819336 0.5849609
vt 0.9799805 0.5507813
vt 0.9794922 0.5146484
vt 0.9790039 0.5146484
vt 0.9790039 0.4790039
vt 0.9785156 0.479248
vt 0.9785156 0.479248
vt 0.9804688 0.4482422
vt 0.9799805 0.4482422
vt 0.9790039 0.479248

g Rug2_(1)_631_71
usemtl Rug2_(1)_631_71
usemap Rug2_(1)_631_71
f 1/1/1 3/3/3 2/2/2
f 2/2/2 4/4/4 1/1/1
f 4/4/4 2/2/2 5/5/5
f 6/6/6 1/1/1 4/4/4
f 5/5/5 7/7/7 4/4/4
f 7/7/7 5/5/5 8/8/8
f 4/4/4 9/9/9 6/6/6
f 9/9/9 4/4/4 7/7/7
f 10/10/10 6/6/6 9/9/9
f 8/8/8 11/11/11 7/7/7
f 11/11/11 8/8/8 12/12/12
f 12/12/12 13/13/13 11/11/11
f 9/9/9 14/14/14 10/10/10
f 15/15/15 10/10/10 14/14/14
f 14/14/14 16/16/16 15/15/15
f 7/7/7 17/17/17 9/9/9
f 17/17/17 7/7/7 11/11/11
f 14/14/14 9/9/9 17/17/17
f 18/18/18 11/11/11 13/13/13
f 11/11/11 18/18/18 17/17/17
f 13/13/13 19/19/19 18/18/18
f 16/16/16 14/14/14 20/20/20
f 17/17/17 20/20/20 14/14/14
f 20/20/20 17/17/17 18/18/18
f 20/20/20 21/21/21 16/16/16
f 22/22/22 18/18/18 19/19/19
f 18/18/18 22/22/22 20/20/20
f 21/21/21 20/20/20 22/22/22
f 19/19/19 23/23/23 22/22/22
f 22/22/22 24/24/24 21/21/21
f 24/24/24 22/22/22 23/23/23
f 23/23/23 25/25/25 24/24/24
f 26/26/26 28/28/28 27/27/27
f 27/27/27 29/29/29 26/26/26
f 29/29/29 27/27/27 30/30/30
f 31/31/31 26/26/26 29/29/29
f 30/30/30 32/32/32 29/29/29
f 32/32/32 30/30/30 33/33/33
f 29/29/29 34/34/34 31/31/31
f 34/34/34 29/29/29 32/32/32
f 35/35/35 31/31/31 34/34/34
f 33/33/33 36/36/36 32/32/32
f 36/36/36 33/33/33 37/37/37
f 37/37/37 38/38/38 36/36/36
f 34/34/34 39/39/39 35/35/35
f 40/40/40 35/35/35 39/39/39
f 39/39/39 41/41/41 40/40/40
f 32/32/32 42/42/42 34/34/34
f 42/42/42 32/32/32 36/36/36
f 39/39/39 34/34/34 42/42/42
f 43/43/43 36/36/36 38/38/38
f 36/36/36 43/43/43 42/42/42
f 38/38/38 44/44/44 43/43/43
f 41/41/41 39/39/39 45/45/45
f 42/42/42 45/45/45 39/39/39
f 45/45/45 42/42/42 43/43/43
f 45/45/45 46/46/46 41/41/41
f 47/47/47 43/43/43 44/44/44
f 43/43/43 47/47/47 45/45/45
f 46/46/46 45/45/45 47/47/47
f 44/44/44 48/48/48 47/47/47
f 47/47/47 49/49/49 46/46/46
f 49/49/49 47/47/47 48/48/48
f 48/48/48 50/50/50 49/49/49
f 51/51/51 53/53/53 52/52/52
f 52/52/52 54/54/54 51/51/51
f 55/55/55 51/51/51 54/54/54
f 54/54/54 56/56/56 55/55/55
f 57/57/57 55/55/55 56/56/56
f 56/56/56 58/58/58 57/57/57
f 59/59/59 57/57/57 58/58/58
f 58/58/58 60/60/60 59/59/59
f 61/61/61 63/63/63 62/62/62
f 62/62/62 64/64/64 61/61/61
f 65/65/65 61/61/61 64/64/64
f 64/64/64 66/66/66 65/65/65
f 67/67/67 65/65/65 66/66/66
f 66/66/66 68/68/68 67/67/67
f 69/69/69 67/67/67 68/68/68
f 68/68/68 70/70/70 69/69/69
f 71/71/71 73/73/73 72/72/72
f 72/72/72 74/74/74 71/71/71
f 75/75/75 71/71/71 74/74/74
f 74/74/74 76/76/76 75/75/75
f 77/77/77 75/75/75 76/76/76
f 76/76/76 78/78/78 77/77/77
f 79/79/79 77/77/77 78/78/78
f 78/78/78 80/80/80 79/79/79
f 81/81/81 83/83/83 82/82/82
f 82/82/82 84/84/84 81/81/81
f 85/85/85 81/81/81 84/84/84
f 84/84/84 86/86/86 85/85/85
f 87/87/87 85/85/85 86/86/86
f 86/86/86 88/88/88 87/87/87
f 89/89/89 91/91/91 90/90/90
f 90/90/90 92/92/92 89/89/89
