#Wall_(52)_628_65.obj

v -75.00002 -26.56253 -1.377682E-14
v 75.00002 69.58729 1.377682E-14
v 75.00002 -26.56253 1.377682E-14
v -75.00002 69.58729 -1.377682E-14
v -75.00002 -74.99999 3.079052
v 75.00002 -70.54585 3.079052
v 75.00002 -74.99999 3.079052
v -75.00002 -70.54585 3.079052
v -75.00002 -70.54585 -1.377682E-14
v 75.00002 -30.88891 1.377682E-14
v 75.00002 -70.54585 1.377682E-14
v -75.00002 -30.88891 -1.377682E-14
v 75.00002 74.99999 3.079052
v -75.00002 69.58729 3.079052
v -75.00002 74.99999 3.079052
v 75.00002 69.58729 3.079015
v -75.00002 -30.88891 3.079052
v 75.00002 -26.56253 3.079052
v 75.00002 -30.88891 3.079052
v -75.00002 -26.56253 3.079052
v 75.00002 -70.54585 1.377682E-14
v -75.00002 -70.54585 3.079052
v -75.00002 -70.54585 -1.377682E-14
v 75.00002 -70.54585 3.079052
v -75.00002 69.58729 -1.377682E-14
v 75.00002 69.58729 3.079015
v 75.00002 69.58729 1.377682E-14
v -75.00002 69.58729 3.079052
v 75.00002 -26.56253 1.377682E-14
v -75.00002 -26.56253 3.079052
v -75.00002 -26.56253 -1.377682E-14
v 75.00002 -26.56253 3.079052
v -75.00002 -30.88891 -1.377682E-14
v 75.00002 -30.88891 3.079052
v 75.00002 -30.88891 1.377682E-14
v -75.00002 -30.88891 3.079052

vn 1 0 -1.192093E-07
vn 1 0 -1.192093E-07
vn 1 0 -1.192093E-07
vn 1 0 -1.192093E-07
vn 1 0 -1.192093E-07
vn 1 0 -1.192093E-07
vn 1 0 -1.192093E-07
vn 1 0 -1.192093E-07
vn 1 0 -1.192093E-07
vn 1 0 -1.192093E-07
vn 1 0 -1.192093E-07
vn 1 0 -1.192093E-07
vn 1 0 -1.192093E-07
vn 1 0 -1.192093E-07
vn 1 0 -1.192093E-07
vn 1 0 -1.192093E-07
vn 1 0 -1.192093E-07
vn 1 0 -1.192093E-07
vn 1 0 -1.192093E-07
vn 1 0 -1.192093E-07
vn 0 1 0
vn 0 1 0
vn 0 1 0
vn 0 1 0
vn 0 -1 0
vn 0 -1 0
vn 0 -1 0
vn 0 -1 0
vn 0 1 0
vn 0 1 0
vn 0 1 0
vn 0 1 0
vn 0 -1 0
vn 0 -1 0
vn 0 -1 0
vn 0 -1 0

vt 0.0007100105 0.6855469
vt 0.4992676 0.9741211
vt 0.4992676 0.6855469
vt 0.0007100105 0.9741211
vt 0.0007100105 0.5009766
vt 0.4992676 0.5273438
vt 0.4992676 0.5009766
vt 0.0007100105 0.5273438
vt 0.0007100105 0.5273438
vt 0.4992676 0.659668
vt 0.4992676 0.5273438
vt 0.0007100105 0.659668
vt 0.4992676 0.9995117
vt 0.0007100105 0.9741211
vt 0.0007100105 0.9995117
vt 0.4992676 0.9741211
vt 0.0007100105 0.659668
vt 0.4992676 0.6855469
vt 0.4992676 0.659668
vt 0.0007100105 0.6855469
vt 0.4992676 0.6835938
vt 0.0007100105 0.6625977
vt 0.0007100105 0.6835938
vt 0.4992676 0.6625977
vt 0.4992676 0.6835938
vt 0.0007100105 0.6625977
vt 0.0007100105 0.6835938
vt 0.4992676 0.6625977
vt 0.4992676 0.6835938
vt 0.0007100105 0.6625977
vt 0.0007100105 0.6835938
vt 0.4992676 0.6625977
vt 0.4992676 0.6835938
vt 0.0007100105 0.6625977
vt 0.0007100105 0.6835938
vt 0.4992676 0.6625977

g Wall_(52)_628_65
usemtl Wall_(52)_628_65
usemap Wall_(52)_628_65
f 1/1/1 3/3/3 2/2/2
f 2/2/2 4/4/4 1/1/1
f 5/5/5 7/7/7 6/6/6
f 6/6/6 8/8/8 5/5/5
f 9/9/9 11/11/11 10/10/10
f 10/10/10 12/12/12 9/9/9
f 13/13/13 15/15/15 14/14/14
f 14/14/14 16/16/16 13/13/13
f 17/17/17 19/19/19 18/18/18
f 18/18/18 20/20/20 17/17/17
f 21/21/21 23/23/23 22/22/22
f 22/22/22 24/24/24 21/21/21
f 25/25/25 27/27/27 26/26/26
f 26/26/26 28/28/28 25/25/25
f 29/29/29 31/31/31 30/30/30
f 30/30/30 32/32/32 29/29/29
f 33/33/33 35/35/35 34/34/34
f 34/34/34 36/36/36 33/33/33
