#Window2_593_68.obj

v -31.68476 28.1893 1.214491E-06
v -27.93474 -24.43929 8.721756E-06
v -31.68474 -28.1893 8.721756E-06
v -27.93476 24.43929 2.213177E-06
v -31.68474 -28.1893 8.721756E-06
v 27.93476 -24.43929 -2.611877E-06
v 31.68476 -28.1893 -1.613191E-06
v -27.93474 -24.43929 8.721756E-06
v 31.68476 -28.1893 -1.613191E-06
v 27.93474 24.43929 -9.120456E-06
v 31.68474 28.1893 -9.120456E-06
v 27.93476 -24.43929 -2.611877E-06
v 31.68474 28.1893 -9.120456E-06
v -27.93476 24.43929 2.213177E-06
v -31.68476 28.1893 1.214491E-06
v 27.93474 24.43929 -9.120456E-06
v -27.93476 24.43929 2.213177E-06
v -27.93474 -24.43929 -2.20294
v -27.93474 -24.43929 8.721756E-06
v -27.93476 11.71983 -2.202945
v -27.93476 24.43929 -2.202947
v -27.93474 -24.43929 8.721756E-06
v 27.93476 -24.43929 -2.202942
v 27.93476 -24.43929 -2.611877E-06
v 2.9334E-07 -24.43929 -2.202946
v -27.93474 -24.43929 -2.20294
v 27.93476 -24.43929 -2.611877E-06
v 27.93474 24.43929 -2.202949
v 27.93474 24.43929 -9.120456E-06
v 27.93474 11.71983 -2.202947
v 27.93476 -24.43929 -2.202942
v 27.93474 24.43929 -9.120456E-06
v -27.93476 24.43929 -2.202947
v -27.93476 24.43929 2.213177E-06
v 2.933396E-07 24.43929 -2.202943
v 27.93474 24.43929 -2.202949
v 1.49999 22.93928 -2.202952
v 27.93474 24.43929 -2.202949
v 26.43475 22.93928 -2.202949
v 2.933396E-07 24.43929 -2.202943
v -26.43475 22.93928 -2.202946
v -27.93476 24.43929 -2.202947
v -1.500008 22.93928 -2.202952
v 1.49999 13.21984 -2.202951
v 2.933396E-07 24.43929 -2.202943
v 1.49999 22.93928 -2.202952
v 2.933406E-07 11.71983 -2.202951
v -1.500008 22.93928 -2.202952
v -1.500008 13.21984 -2.202951
v 1.500009 -22.93929 -2.202946
v 1.49999 10.21982 -2.20295
v 2.9334E-07 -24.43929 -2.202946
v -1.500008 10.21982 -2.202951
v -1.49999 -22.93929 -2.202946
v 26.43475 13.21984 -2.202947
v 2.933406E-07 11.71983 -2.202951
v 1.49999 13.21984 -2.202951
v 27.93474 11.71983 -2.202947
v 1.49999 10.21982 -2.20295
v 26.43475 10.21982 -2.202947
v -26.43475 10.21982 -2.202945
v -1.500008 10.21982 -2.202951
v -27.93476 11.71983 -2.202945
v -1.500008 13.21984 -2.202951
v -26.43475 13.21984 -2.202945
v 27.93474 11.71983 -2.202947
v 26.43475 22.93928 -2.202949
v 27.93474 24.43929 -2.202949
v 26.43475 13.21984 -2.202947
v 27.93476 -24.43929 -2.202942
v 26.43475 10.21982 -2.202947
v 26.43475 -22.93929 -2.202942
v -26.43475 13.21984 -2.202945
v -27.93476 24.43929 -2.202947
v -26.43475 22.93928 -2.202946
v -27.93476 11.71983 -2.202945
v -26.43475 -22.93929 -2.20294
v -27.93474 -24.43929 -2.20294
v -26.43475 10.21982 -2.202945
v 2.9334E-07 -24.43929 -2.202946
v 26.43475 -22.93929 -2.202942
v 27.93476 -24.43929 -2.202942
v 1.500009 -22.93929 -2.202946
v -27.93474 -24.43929 -2.20294
v -1.49999 -22.93929 -2.202946
v -26.43475 -22.93929 -2.20294
v -26.43475 22.93928 -2.202946
v -26.43475 13.21984 -3.698251
v -26.43475 13.21984 -2.202945
v -26.43475 22.93928 -3.698252
v -26.43475 13.21984 -2.202945
v -1.500008 13.21984 -3.698248
v -1.500008 13.21984 -2.202951
v -26.43475 13.21984 -3.698251
v -1.500008 13.21984 -2.202951
v -1.500008 22.93928 -3.698249
v -1.500008 22.93928 -2.202952
v -1.500008 13.21984 -3.698248
v -1.500008 22.93928 -2.202952
v -26.43475 22.93928 -3.698252
v -26.43475 22.93928 -2.202946
v -1.500008 22.93928 -3.698249
v 26.43475 -22.93929 -2.202942
v 26.43475 10.21982 -3.698253
v 26.43475 10.21982 -2.202947
v 26.43475 -22.93929 -3.698249
v 26.43475 10.21982 -2.202947
v 1.49999 10.21982 -3.698247
v 1.49999 10.21982 -2.20295
v 26.43475 10.21982 -3.698253
v 1.49999 10.21982 -2.20295
v 1.500009 -22.93929 -3.698242
v 1.500009 -22.93929 -2.202946
v 1.49999 10.21982 -3.698247
v 1.500009 -22.93929 -2.202946
v 26.43475 -22.93929 -3.698249
v 26.43475 -22.93929 -2.202942
v 1.500009 -22.93929 -3.698242
v -26.43475 -22.93929 -2.20294
v -1.499989 -22.93929 -3.698243
v -1.49999 -22.93929 -2.202946
v -26.43475 -22.93929 -3.698246
v -1.49999 -22.93929 -2.202946
v -1.500008 10.21982 -3.698247
v -1.500008 10.21982 -2.202951
v -1.499989 -22.93929 -3.698243
v -1.500008 10.21982 -2.202951
v -26.43475 10.21982 -3.698251
v -26.43475 10.21982 -2.202945
v -1.500008 10.21982 -3.698247
v -26.43475 10.21982 -2.202945
v -26.43475 -22.93929 -3.698246
v -26.43475 -22.93929 -2.20294
v -26.43475 10.21982 -3.698251
v 26.43475 22.93928 -2.202949
v 1.49999 22.93928 -3.698249
v 1.49999 22.93928 -2.202952
v 26.43475 22.93928 -3.698255
v 1.49999 22.93928 -2.202952
v 1.49999 13.21984 -3.698247
v 1.49999 13.21984 -2.202951
v 1.49999 22.93928 -3.698249
v 1.49999 13.21984 -2.202951
v 26.43475 13.21984 -3.698253
v 26.43475 13.21984 -2.202947
v 1.49999 13.21984 -3.698247
v 26.43475 13.21984 -2.202947
v 26.43475 22.93928 -3.698255
v 26.43475 22.93928 -2.202949
v 26.43475 13.21984 -3.698253
v -1.358834 22.93932 -3.698249
v -26.29357 13.21984 -3.698251
v -26.29357 22.93928 -3.698243
v -1.358816 13.21984 -3.698248
v 1.641183 10.21982 -3.698247
v 26.57594 -22.93929 -3.698258
v 1.641202 -22.93932 -3.698252
v 26.57594 10.21986 -3.698253
v -1.358816 10.21982 -3.698247
v -26.29357 -22.93932 -3.698256
v -26.29357 10.21982 -3.698251
v -1.358816 -22.93932 -3.698252
v 1.641183 13.21984 -3.698247
v 26.57594 22.93932 -3.698245
v 26.57594 13.21984 -3.698253
v 1.641183 22.93932 -3.698249

vn 1.788139E-07 0 1
vn 1.788139E-07 0 1
vn 1.788139E-07 0 1
vn 1.788139E-07 0 1
vn 1.788139E-07 0 1
vn 1.788139E-07 0 1
vn 1.788139E-07 0 1
vn 1.788139E-07 0 1
vn 1.788139E-07 0 1
vn 1.788139E-07 0 1
vn 1.788139E-07 0 1
vn 1.788139E-07 0 1
vn 1.788139E-07 0 1
vn 1.788139E-07 0 1
vn 1.788139E-07 0 1
vn 1.788139E-07 0 1
vn 1 1.192093E-07 -1.788139E-07
vn 1 1.192093E-07 -1.788139E-07
vn 1 1.192093E-07 -1.788139E-07
vn 1 1.192093E-07 -1.788139E-07
vn 1 1.192093E-07 -1.788139E-07
vn -1.192093E-07 1 0
vn -1.192093E-07 1 0
vn -1.192093E-07 1 0
vn -1.192093E-07 1 0
vn -1.192093E-07 1 0
vn -1 -1.192093E-07 1.788139E-07
vn -1 -1.192093E-07 1.788139E-07
vn -1 -1.192093E-07 1.788139E-07
vn -1 -1.192093E-07 1.788139E-07
vn -1 -1.192093E-07 1.788139E-07
vn 1.192093E-07 -1 0
vn 1.192093E-07 -1 0
vn 1.192093E-07 -1 0
vn 1.192093E-07 -1 0
vn 1.192093E-07 -1 0
vn 1.788139E-07 0 1
vn 1.788139E-07 0 1
vn 1.788139E-07 0 1
vn 1.788139E-07 0 1
vn 1.788139E-07 0 1
vn 1.788139E-07 0 1
vn 1.788139E-07 0 1
vn 1.788139E-07 0 1
vn 1.788139E-07 0 1
vn 1.788139E-07 0 1
vn 1.788139E-07 0 1
vn 1.788139E-07 0 1
vn 1.788139E-07 0 1
vn 1.788139E-07 0 1
vn 1.788139E-07 0 1
vn 1.788139E-07 0 1
vn 1.788139E-07 0 1
vn 1.788139E-07 0 1
vn 1.788139E-07 0 1
vn 1.788139E-07 0 1
vn 1.788139E-07 0 1
vn 1.788139E-07 0 1
vn 1.788139E-07 0 1
vn 1.788139E-07 0 1
vn 1.788139E-07 0 1
vn 1.788139E-07 0 1
vn 1.788139E-07 0 1
vn 1.788139E-07 0 1
vn 1.788139E-07 0 1
vn 1.788139E-07 0 1
vn 1.788139E-07 0 1
vn 1.788139E-07 0 1
vn 1.788139E-07 0 1
vn 1.788139E-07 0 1
vn 1.788139E-07 0 1
vn 1.788139E-07 0 1
vn 1.788139E-07 0 1
vn 1.788139E-07 0 1
vn 1.788139E-07 0 1
vn 1.788139E-07 0 1
vn 1.788139E-07 0 1
vn 1.788139E-07 0 1
vn 1.788139E-07 0 1
vn 1.788139E-07 0 1
vn 1.788139E-07 0 1
vn 1.788139E-07 0 1
vn 1.788139E-07 0 1
vn 1.788139E-07 0 1
vn 1.788139E-07 0 1
vn 1.788139E-07 0 1
vn 1 1.192093E-07 -1.788139E-07
vn 1 1.192093E-07 -1.788139E-07
vn 1 1.192093E-07 -1.788139E-07
vn 1 1.192093E-07 -1.788139E-07
vn -1.192093E-07 1 0
vn -1.192093E-07 1 0
vn -1.192093E-07 1 0
vn -1.192093E-07 1 0
vn -1 -1.192093E-07 1.788139E-07
vn -1 -1.192093E-07 1.788139E-07
vn -1 -1.192093E-07 1.788139E-07
vn -1 -1.192093E-07 1.788139E-07
vn 1.192093E-07 -1 0
vn 1.192093E-07 -1 0
vn 1.192093E-07 -1 0
vn 1.192093E-07 -1 0
vn -1 -1.192093E-07 1.788139E-07
vn -1 -1.192093E-07 1.788139E-07
vn -1 -1.192093E-07 1.788139E-07
vn -1 -1.192093E-07 1.788139E-07
vn 1.192093E-07 -1 0
vn 1.192093E-07 -1 0
vn 1.192093E-07 -1 0
vn 1.192093E-07 -1 0
vn 1 1.192093E-07 -1.788139E-07
vn 1 1.192093E-07 -1.788139E-07
vn 1 1.192093E-07 -1.788139E-07
vn 1 1.192093E-07 -1.788139E-07
vn -1.192093E-07 1 0
vn -1.192093E-07 1 0
vn -1.192093E-07 1 0
vn -1.192093E-07 1 0
vn -1.192093E-07 1 0
vn -1.192093E-07 1 0
vn -1.192093E-07 1 0
vn -1.192093E-07 1 0
vn -1 -1.192093E-07 1.788139E-07
vn -1 -1.192093E-07 1.788139E-07
vn -1 -1.192093E-07 1.788139E-07
vn -1 -1.192093E-07 1.788139E-07
vn 1.192093E-07 -1 0
vn 1.192093E-07 -1 0
vn 1.192093E-07 -1 0
vn 1.192093E-07 -1 0
vn 1 1.192093E-07 -1.788139E-07
vn 1 1.192093E-07 -1.788139E-07
vn 1 1.192093E-07 -1.788139E-07
vn 1 1.192093E-07 -1.788139E-07
vn 1.192093E-07 -1 0
vn 1.192093E-07 -1 0
vn 1.192093E-07 -1 0
vn 1.192093E-07 -1 0
vn 1 1.192093E-07 -1.788139E-07
vn 1 1.192093E-07 -1.788139E-07
vn 1 1.192093E-07 -1.788139E-07
vn 1 1.192093E-07 -1.788139E-07
vn -1.192093E-07 1 0
vn -1.192093E-07 1 0
vn -1.192093E-07 1 0
vn -1.192093E-07 1 0
vn -1 -1.192093E-07 1.788139E-07
vn -1 -1.192093E-07 1.788139E-07
vn -1 -1.192093E-07 1.788139E-07
vn -1 -1.192093E-07 1.788139E-07
vn 1.788139E-07 0 1
vn 1.788139E-07 0 1
vn 1.788139E-07 0 1
vn 1.788139E-07 0 1
vn 1.788139E-07 0 1
vn 1.788139E-07 0 1
vn 1.788139E-07 0 1
vn 1.788139E-07 0 1
vn 1.788139E-07 0 1
vn 1.788139E-07 0 1
vn 1.788139E-07 0 1
vn 1.788139E-07 0 1
vn 1.788139E-07 0 1
vn 1.788139E-07 0 1
vn 1.788139E-07 0 1
vn 1.788139E-07 0 1

vt 0.9853516 0.4997559
vt 0.5356445 0.4650879
vt 0.5039063 0.4997559
vt 0.9536133 0.4650879
vt 0.5141602 0.4665527
vt 0.9677734 0.4975586
vt 0.9960938 0.4665527
vt 0.5429688 0.4975586
vt 0.5039063 0.4650879
vt 0.9536133 0.4997559
vt 0.9853516 0.4650879
vt 0.5356445 0.4997559
vt 0.9960938 0.4975586
vt 0.5429688 0.4665527
vt 0.5141602 0.4975586
vt 0.9677734 0.4665527
vt 0.9916992 0.494873
vt 0.5097656 0.4714355
vt 0.5097656 0.494873
vt 0.8662109 0.4714355
vt 0.9916992 0.4714355
vt 0.5102539 0.4709473
vt 0.9916992 0.4916992
vt 0.9916992 0.4709473
vt 0.7509766 0.4916992
vt 0.5102539 0.4916992
vt 0.5078125 0.4724121
vt 0.9897461 0.4960938
vt 0.9897461 0.4724121
vt 0.8642578 0.4960938
vt 0.5078125 0.4960938
vt 0.9824219 0.4807129
vt 0.5004883 0.4807129
vt 0.5004883 0.4807129
vt 0.7416992 0.4807129
vt 0.9824219 0.4807129
vt 0.7641602 0.4729004
vt 0.9916992 0.4868164
vt 0.9790039 0.4729004
vt 0.7509766 0.4868164
vt 0.5229492 0.4729004
vt 0.5102539 0.4868164
vt 0.7382813 0.4729004
vt 0.8789063 0.4658203
vt 0.9892578 0.4819336
vt 0.9746094 0.4658203
vt 0.8642578 0.4819336
vt 0.9746094 0.4978027
vt 0.8789063 0.4978027
vt 0.5224609 0.4658203
vt 0.8491211 0.4658203
vt 0.5078125 0.4819336
vt 0.8491211 0.4978027
vt 0.5224609 0.4978027
vt 0.9755859 0.4958496
vt 0.7475586 0.4819336
vt 0.7607422 0.4958496
vt 0.9887695 0.4819336
vt 0.7607422 0.4677734
vt 0.9755859 0.4677734
vt 0.5200195 0.4677734
vt 0.7348633 0.4677734
vt 0.5068359 0.4819336
vt 0.7348633 0.4958496
vt 0.5200195 0.4958496
vt 0.8637695 0.4768066
vt 0.9741211 0.4926758
vt 0.9892578 0.4768066
vt 0.878418 0.4926758
vt 0.5073242 0.4768066
vt 0.8491211 0.4926758
vt 0.5219727 0.4926758
vt 0.8862305 0.4758301
vt 0.9970703 0.4916992
vt 0.9824219 0.4758301
vt 0.871582 0.4916992
vt 0.5302734 0.4758301
vt 0.5151367 0.4916992
vt 0.8569336 0.4758301
vt 0.7573242 0.4758301
vt 0.9853516 0.4897461
vt 0.9985352 0.4758301
vt 0.7705078 0.4897461
vt 0.5166016 0.4758301
vt 0.7446289 0.4897461
vt 0.5297852 0.4897461
vt 0.9897461 0.4916992
vt 0.8876953 0.4746094
vt 0.8876953 0.4916992
vt 0.9897461 0.4746094
vt 0.5039063 0.4794922
vt 0.730957 0.4943848
vt 0.730957 0.4794922
vt 0.5039063 0.4943848
vt 0.8813477 0.4736328
vt 0.9833984 0.4904785
vt 0.9833984 0.4736328
vt 0.8813477 0.4904785
vt 0.7685547 0.4768066
vt 0.9956055 0.4916992
vt 0.9956055 0.4768066
vt 0.7685547 0.4916992
vt 0.5039063 0.4758301
vt 0.8520508 0.4926758
vt 0.8520508 0.4758301
vt 0.5039063 0.4926758
vt 0.5058594 0.4768066
vt 0.7329102 0.4916992
vt 0.7329102 0.4768066
vt 0.5058594 0.4916992
vt 0.855957 0.4916992
vt 0.5078125 0.4746094
vt 0.5078125 0.4916992
vt 0.855957 0.4746094
vt 0.765625 0.4768066
vt 0.9926758 0.4916992
vt 0.9926758 0.4768066
vt 0.765625 0.4916992
vt 0.5107422 0.4768066
vt 0.7382813 0.4916992
vt 0.7382813 0.4768066
vt 0.5107422 0.4916992
vt 0.5019531 0.4736328
vt 0.8500977 0.4904785
vt 0.8500977 0.4736328
vt 0.5019531 0.4904785
vt 0.7602539 0.4768066
vt 0.987793 0.4916992
vt 0.987793 0.4768066
vt 0.7602539 0.4916992
vt 0.855957 0.4916992
vt 0.5078125 0.4746094
vt 0.5078125 0.4916992
vt 0.855957 0.4746094
vt 0.5136719 0.4768066
vt 0.7412109 0.4916992
vt 0.7412109 0.4768066
vt 0.5136719 0.4916992
vt 0.9897461 0.4916992
vt 0.8876953 0.4746094
vt 0.8876953 0.4916992
vt 0.9897461 0.4746094
vt 0.7583008 0.4794922
vt 0.9853516 0.4943848
vt 0.9853516 0.4794922
vt 0.7583008 0.4943848
vt 0.8837891 0.4758301
vt 0.9858398 0.4926758
vt 0.9858398 0.4758301
vt 0.8837891 0.4926758
vt 0.6640625 0.2756348
vt 0.5268555 0.2175293
vt 0.5268555 0.2756348
vt 0.6640625 0.2175293
vt 0.6806641 0.199585
vt 0.8173828 0.0124588
vt 0.6806641 0.0124588
vt 0.8173828 0.199585
vt 0.6640625 0.199585
vt 0.5268555 0.0124588
vt 0.5268555 0.199585
vt 0.6640625 0.0124588
vt 0.6806641 0.2175293
vt 0.8183594 0.2756348
vt 0.8183594 0.2175293
vt 0.6806641 0.2756348

g Window2_593_68
usemtl Window2_593_68
usemap Window2_593_68
f 1/1/1 3/3/3 2/2/2
f 2/2/2 4/4/4 1/1/1
f 5/5/5 7/7/7 6/6/6
f 6/6/6 8/8/8 5/5/5
f 9/9/9 11/11/11 10/10/10
f 10/10/10 12/12/12 9/9/9
f 13/13/13 15/15/15 14/14/14
f 14/14/14 16/16/16 13/13/13
f 17/17/17 19/19/19 18/18/18
f 17/17/17 18/18/18 20/20/20
f 17/17/17 20/20/20 21/21/21
f 22/22/22 24/24/24 23/23/23
f 22/22/22 23/23/23 25/25/25
f 22/22/22 25/25/25 26/26/26
f 27/27/27 29/29/29 28/28/28
f 27/27/27 28/28/28 30/30/30
f 27/27/27 30/30/30 31/31/31
f 32/32/32 34/34/34 33/33/33
f 32/32/32 33/33/33 35/35/35
f 32/32/32 35/35/35 36/36/36
f 37/37/37 39/39/39 38/38/38
f 38/38/38 40/40/40 37/37/37
f 40/40/40 42/42/42 41/41/41
f 41/41/41 43/43/43 40/40/40
f 44/44/44 46/46/46 45/45/45
f 45/45/45 47/47/47 44/44/44
f 47/47/47 45/45/45 48/48/48
f 48/48/48 49/49/49 47/47/47
f 50/50/50 51/51/51 47/47/47
f 47/47/47 52/52/52 50/50/50
f 52/52/52 47/47/47 53/53/53
f 53/53/53 54/54/54 52/52/52
f 55/55/55 57/57/57 56/56/56
f 56/56/56 58/58/58 55/55/55
f 58/58/58 56/56/56 59/59/59
f 59/59/59 60/60/60 58/58/58
f 61/61/61 62/62/62 56/56/56
f 56/56/56 63/63/63 61/61/61
f 63/63/63 56/56/56 64/64/64
f 64/64/64 65/65/65 63/63/63
f 66/66/66 68/68/68 67/67/67
f 67/67/67 69/69/69 66/66/66
f 70/70/70 66/66/66 71/71/71
f 71/71/71 72/72/72 70/70/70
f 73/73/73 75/75/75 74/74/74
f 74/74/74 76/76/76 73/73/73
f 76/76/76 78/78/78 77/77/77
f 77/77/77 79/79/79 76/76/76
f 80/80/80 82/82/82 81/81/81
f 81/81/81 83/83/83 80/80/80
f 84/84/84 80/80/80 85/85/85
f 85/85/85 86/86/86 84/84/84
f 87/87/87 89/89/89 88/88/88
f 88/88/88 90/90/90 87/87/87
f 91/91/91 93/93/93 92/92/92
f 92/92/92 94/94/94 91/91/91
f 95/95/95 97/97/97 96/96/96
f 96/96/96 98/98/98 95/95/95
f 99/99/99 101/101/101 100/100/100
f 100/100/100 102/102/102 99/99/99
f 103/103/103 105/105/105 104/104/104
f 104/104/104 106/106/106 103/103/103
f 107/107/107 109/109/109 108/108/108
f 108/108/108 110/110/110 107/107/107
f 111/111/111 113/113/113 112/112/112
f 112/112/112 114/114/114 111/111/111
f 115/115/115 117/117/117 116/116/116
f 116/116/116 118/118/118 115/115/115
f 119/119/119 121/121/121 120/120/120
f 120/120/120 122/122/122 119/119/119
f 123/123/123 125/125/125 124/124/124
f 124/124/124 126/126/126 123/123/123
f 127/127/127 129/129/129 128/128/128
f 128/128/128 130/130/130 127/127/127
f 131/131/131 133/133/133 132/132/132
f 132/132/132 134/134/134 131/131/131
f 135/135/135 137/137/137 136/136/136
f 136/136/136 138/138/138 135/135/135
f 139/139/139 141/141/141 140/140/140
f 140/140/140 142/142/142 139/139/139
f 143/143/143 145/145/145 144/144/144
f 144/144/144 146/146/146 143/143/143
f 147/147/147 149/149/149 148/148/148
f 148/148/148 150/150/150 147/147/147
f 151/151/151 153/153/153 152/152/152
f 152/152/152 154/154/154 151/151/151
f 155/155/155 157/157/157 156/156/156
f 156/156/156 158/158/158 155/155/155
f 159/159/159 161/161/161 160/160/160
f 160/160/160 162/162/162 159/159/159
f 163/163/163 165/165/165 164/164/164
f 164/164/164 166/166/166 163/163/163
